ID;Size;Predicted;Actual
src/java/org/apache/nutch/analysis/AnalyzerFactory.java-3;105; 0.000;NO
src/java/org/apache/nutch/analysis/CharStream.java-3;110; 0.000;NO
src/java/org/apache/nutch/analysis/CommonGrams.java-3;254; 0.000;NO
src/java/org/apache/nutch/analysis/FastCharStream.java-3;120; 0.000;NO
src/java/org/apache/nutch/analysis/NutchAnalysis.java-3;903; 0.000;NO
src/java/org/apache/nutch/analysis/NutchAnalysisConstants.java-3;52; 0.000;NO
src/java/org/apache/nutch/analysis/NutchAnalysisTokenManager.java-3;460; 0.000;NO
src/java/org/apache/nutch/analysis/NutchAnalyzer.java-3;45; 0.000;NO
src/java/org/apache/nutch/analysis/NutchDocumentAnalyzer.java-3;108; 0.000;NO
src/java/org/apache/nutch/analysis/NutchDocumentTokenizer.java-3;83; 0.000;NO
src/java/org/apache/nutch/analysis/ParseException.java-3;192; 0.000;NO
src/java/org/apache/nutch/analysis/Token.java-3;81; 0.000;NO
src/java/org/apache/nutch/analysis/TokenManager.java-3;17; 0.000;NO
src/java/org/apache/nutch/analysis/TokenMgrError.java-3;133; 0.000;NO
src/java/org/apache/nutch/clustering/HitsCluster.java-3;65; 0.000;NO
src/java/org/apache/nutch/clustering/OnlineClusterer.java-3;55; 0.000;NO
src/java/org/apache/nutch/clustering/OnlineClustererFactory.java-3;108; 0.000;NO
src/java/org/apache/nutch/crawl/Crawl.java-3;126; 0.000;YES
src/java/org/apache/nutch/crawl/CrawlDatum.java-3;335; 0.000;YES
src/java/org/apache/nutch/crawl/CrawlDb.java-3;107; 0.000;YES
src/java/org/apache/nutch/crawl/CrawlDbReader.java-3;275; 0.000;YES
src/java/org/apache/nutch/crawl/CrawlDbReducer.java-3;120; 0.000;YES
src/java/org/apache/nutch/crawl/Generator.java-3;284; 0.000;YES
src/java/org/apache/nutch/crawl/Injector.java-3;142; 0.000;YES
src/java/org/apache/nutch/crawl/Inlink.java-3;77; 0.000;YES
src/java/org/apache/nutch/crawl/Inlinks.java-3;99; 0.000;YES
src/java/org/apache/nutch/crawl/LinkDb.java-3;216; 0.000;YES
src/java/org/apache/nutch/crawl/LinkDbReader.java-3;127; 0.000;YES
src/java/org/apache/nutch/crawl/MapWritable.java-3;471; 0.000;YES
src/java/org/apache/nutch/crawl/MD5Signature.java-3;37; 0.000;YES
src/java/org/apache/nutch/crawl/PartitionUrlByHost.java-3;54; 1.000;YES
src/java/org/apache/nutch/crawl/Signature.java-3;36; 0.000;YES
src/java/org/apache/nutch/crawl/SignatureComparator.java-3;47; 0.000;YES
src/java/org/apache/nutch/crawl/SignatureFactory.java-3;54; 0.000;YES
src/java/org/apache/nutch/crawl/TextProfileSignature.java-3;183; 0.000;YES
src/java/org/apache/nutch/fetcher/Fetcher.java-3;404; 0.000;NO
src/java/org/apache/nutch/fetcher/FetcherOutput.java-3;91; 0.000;NO
src/java/org/apache/nutch/fetcher/FetcherOutputFormat.java-3;104; 0.000;YES
src/java/org/apache/nutch/html/Entities.java-3;327; 0.000;NO
src/java/org/apache/nutch/indexer/DeleteDuplicates.java-3;366; 0.000;NO
src/java/org/apache/nutch/indexer/FsDirectory.java-3;244; 0.000;NO
src/java/org/apache/nutch/indexer/HighFreqTerms.java-3;102; 0.000;NO
src/java/org/apache/nutch/indexer/Indexer.java-3;297; 0.000;YES
src/java/org/apache/nutch/indexer/IndexingException.java-3;37; 0.000;NO
src/java/org/apache/nutch/indexer/IndexingFilter.java-3;48; 0.000;NO
src/java/org/apache/nutch/indexer/IndexingFilters.java-3;69; 0.000;NO
src/java/org/apache/nutch/indexer/IndexMerger.java-3;152; 0.000;NO
src/java/org/apache/nutch/indexer/IndexSorter.java-3;298; 0.000;YES
src/java/org/apache/nutch/indexer/NutchSimilarity.java-3;46; 0.000;NO
src/java/org/apache/nutch/metadata/CreativeCommons.java-3;35; 0.000;NO
src/java/org/apache/nutch/metadata/DublinCore.java-3;163; 0.000;NO
src/java/org/apache/nutch/metadata/HttpHeaders.java-3;48; 0.000;NO
src/java/org/apache/nutch/metadata/Metadata.java-3;334; 0.000;YES
src/java/org/apache/nutch/metadata/Nutch.java-3;33; 0.000;YES
src/java/org/apache/nutch/metadata/Office.java-3;51; 0.000;NO
src/java/org/apache/nutch/net/BasicUrlNormalizer.java-3;188; 0.000;NO
src/java/org/apache/nutch/net/protocols/HttpDateFormat.java-3;125; 0.000;NO
src/java/org/apache/nutch/net/protocols/ProtocolException.java-3;43; 0.000;NO
src/java/org/apache/nutch/net/protocols/Response.java-3;46; 0.000;NO
src/java/org/apache/nutch/net/RegexUrlNormalizer.java-3;179; 0.000;NO
src/java/org/apache/nutch/net/URLFilter.java-3;33; 1.000;NO
src/java/org/apache/nutch/net/URLFilterChecker.java-3;138; 0.000;NO
src/java/org/apache/nutch/net/URLFilterException.java-3;37; 0.000;NO
src/java/org/apache/nutch/net/URLFilters.java-3;87; 1.000;NO
src/java/org/apache/nutch/net/UrlNormalizer.java-3;29; 1.000;NO
src/java/org/apache/nutch/net/UrlNormalizerFactory.java-3;54; 1.000;NO
src/java/org/apache/nutch/ontology/Ontology.java-3;33; 0.000;NO
src/java/org/apache/nutch/ontology/OntologyFactory.java-3;94; 0.000;NO
src/java/org/apache/nutch/parse/HTMLMetaTags.java-3;203; 0.000;NO
src/java/org/apache/nutch/parse/HtmlParseFilter.java-3;35; 0.000;NO
src/java/org/apache/nutch/parse/HtmlParseFilters.java-3;67; 0.000;NO
src/java/org/apache/nutch/parse/Outlink.java-3;78; 0.000;NO
src/java/org/apache/nutch/parse/OutlinkExtractor.java-3;235; 0.000;NO
src/java/org/apache/nutch/parse/Parse.java-3;30; 0.000;NO
src/java/org/apache/nutch/parse/ParseData.java-3;239; 0.000;NO
src/java/org/apache/nutch/parse/ParseException.java-3;37; 0.000;NO
src/java/org/apache/nutch/parse/ParseImpl.java-3;82; 1.000;NO
src/java/org/apache/nutch/parse/ParseOutputFormat.java-3;137; 0.000;YES
src/java/org/apache/nutch/parse/ParsePluginList.java-3;72; 0.000;NO
src/java/org/apache/nutch/parse/ParsePluginsReader.java-3;267; 0.000;NO
src/java/org/apache/nutch/parse/Parser.java-3;32; 1.000;NO
src/java/org/apache/nutch/parse/ParserChecker.java-3;106; 0.000;NO
src/java/org/apache/nutch/parse/ParserFactory.java-3;385; 0.000;NO
src/java/org/apache/nutch/parse/ParserNotFound.java-3;41; 1.000;NO
src/java/org/apache/nutch/parse/ParseSegment.java-3;123; 0.000;YES
src/java/org/apache/nutch/parse/ParseStatus.java-3;250; 0.000;NO
src/java/org/apache/nutch/parse/ParseText.java-3;102; 0.000;NO
src/java/org/apache/nutch/parse/ParseUtil.java-3;134; 0.000;YES
src/java/org/apache/nutch/plugin/CircularDependencyException.java-3;35; 0.000;NO
src/java/org/apache/nutch/plugin/Extension.java-3;190; 0.000;NO
src/java/org/apache/nutch/plugin/ExtensionPoint.java-3;121; 0.000;NO
src/java/org/apache/nutch/plugin/MissingDependencyException.java-3;35; 0.000;NO
src/java/org/apache/nutch/plugin/Plugin.java-3;93; 0.000;NO
src/java/org/apache/nutch/plugin/PluginClassLoader.java-3;42; 0.000;NO
src/java/org/apache/nutch/plugin/PluginDescriptor.java-3;330; 0.000;NO
src/java/org/apache/nutch/plugin/PluginManifestParser.java-3;312; 0.000;NO
src/java/org/apache/nutch/plugin/PluginRepository.java-3;436; 0.000;NO
src/java/org/apache/nutch/plugin/PluginRuntimeException.java-3;33; 0.000;NO
src/java/org/apache/nutch/protocol/Content.java-3;237; 0.000;NO
src/java/org/apache/nutch/protocol/Protocol.java-3;31; 0.000;NO
src/java/org/apache/nutch/protocol/ProtocolException.java-3;37; 0.000;NO
src/java/org/apache/nutch/protocol/ProtocolFactory.java-3;96; 0.000;NO
src/java/org/apache/nutch/protocol/ProtocolNotFound.java-3;32; 0.000;NO
src/java/org/apache/nutch/protocol/ProtocolOutput.java-3;53; 0.000;NO
src/java/org/apache/nutch/protocol/ProtocolStatus.java-3;249; 0.000;NO
src/java/org/apache/nutch/searcher/DistributedSearch.java-3;366; 0.000;NO
src/java/org/apache/nutch/searcher/FetchedSegments.java-3;230; 0.000;NO
src/java/org/apache/nutch/searcher/FieldQueryFilter.java-3;113; 0.000;NO
src/java/org/apache/nutch/searcher/Hit.java-3;115; 0.000;NO
src/java/org/apache/nutch/searcher/HitContent.java-3;39; 0.000;NO
src/java/org/apache/nutch/searcher/HitDetailer.java-3;29; 0.000;NO
src/java/org/apache/nutch/searcher/HitDetails.java-3;139; 0.000;NO
src/java/org/apache/nutch/searcher/HitInlinks.java-3;31; 0.000;NO
src/java/org/apache/nutch/searcher/Hits.java-3;116; 0.000;NO
src/java/org/apache/nutch/searcher/HitSummarizer.java-3;36; 0.000;NO
src/java/org/apache/nutch/searcher/IndexSearcher.java-3;174; 0.000;NO
src/java/org/apache/nutch/searcher/LinkDbInlinks.java-3;38; 0.000;YES
src/java/org/apache/nutch/searcher/LuceneQueryOptimizer.java-3;185; 0.000;NO
src/java/org/apache/nutch/searcher/NutchBean.java-3;389; 0.000;NO
src/java/org/apache/nutch/searcher/OpenSearchServlet.java-3;279; 0.572;NO
src/java/org/apache/nutch/searcher/Query.java-3;471; 0.000;NO
src/java/org/apache/nutch/searcher/QueryException.java-3;23; 0.000;NO
src/java/org/apache/nutch/searcher/QueryFilter.java-3;34; 0.000;NO
src/java/org/apache/nutch/searcher/QueryFilters.java-3;118; 0.000;NO
src/java/org/apache/nutch/searcher/RawFieldQueryFilter.java-3;96; 1.000;NO
src/java/org/apache/nutch/searcher/Searcher.java-3;32; 0.000;NO
src/java/org/apache/nutch/searcher/Summarizer.java-3;331; 0.000;NO
src/java/org/apache/nutch/searcher/Summary.java-3;92; 0.000;NO
src/java/org/apache/nutch/segment/SegmentReader.java-3;237; 0.000;NO
src/java/org/apache/nutch/servlet/Cached.java-3;109; 0.000;NO
src/java/org/apache/nutch/tools/DmozParser.java-3;383; 0.000;YES
src/java/org/apache/nutch/tools/PruneIndexTool.java-3;523; 0.000;NO
src/java/org/apache/nutch/util/CommandRunner.java-3;294; 0.000;NO
src/java/org/apache/nutch/util/FibonacciHeap.java-3;278; 0.000;NO
src/java/org/apache/nutch/util/GZIPUtils.java-3;144; 0.000;NO
src/java/org/apache/nutch/util/mime/MimeType.java-3;351; 0.000;NO
src/java/org/apache/nutch/util/mime/MimeTypeException.java-3;41; 0.000;NO
src/java/org/apache/nutch/util/mime/MimeTypes.java-3;297; 0.000;NO
src/java/org/apache/nutch/util/mime/MimeTypesReader.java-3;179; 0.000;NO
src/java/org/apache/nutch/util/NutchConfiguration.java-3;91; 0.000;YES
src/java/org/apache/nutch/util/NutchJob.java-3;30; 0.000;YES
src/java/org/apache/nutch/util/PrefixStringMatcher.java-3;120; 0.000;NO
src/java/org/apache/nutch/util/StringUtil.java-3;199; 0.000;NO
src/java/org/apache/nutch/util/SuffixStringMatcher.java-3;117; 0.000;NO
src/java/org/apache/nutch/util/ThreadPool.java-3;132; 0.000;NO
src/java/org/apache/nutch/util/TrieStringMatcher.java-3;207; 0.000;NO
src/plugin/analysis-de/src/java/org/apache/nutch/analysis/de/GermanAnalyzer.java-3;48; 0.000;NO
src/plugin/analysis-fr/src/java/org/apache/nutch/analysis/fr/FrenchAnalyzer.java-3;48; 0.000;NO
src/plugin/clustering-carrot2/src/java/org/apache/nutch/clustering/carrot2/Clusterer.java-3;166; 0.000;NO
src/plugin/clustering-carrot2/src/java/org/apache/nutch/clustering/carrot2/HitsClusterAdapter.java-3;113; 0.000;NO
src/plugin/clustering-carrot2/src/java/org/apache/nutch/clustering/carrot2/LocalNutchInputComponent.java-3;158; 0.000;NO
src/plugin/clustering-carrot2/src/java/org/apache/nutch/clustering/carrot2/NutchDocument.java-3;57; 0.000;NO
src/plugin/clustering-carrot2/src/test/org/apache/nutch/clustering/carrot2/ClustererTest.java-3;167; 1.000;NO
src/plugin/creativecommons/src/java/org/creativecommons/nutch/CCDeleteUnlicensedTool.java-3;101; 1.000;NO
src/plugin/creativecommons/src/java/org/creativecommons/nutch/CCIndexingFilter.java-3;118; 0.000;NO
src/plugin/creativecommons/src/java/org/creativecommons/nutch/CCParseFilter.java-3;284; 0.000;NO
src/plugin/creativecommons/src/java/org/creativecommons/nutch/CCQueryFilter.java-3;41; 0.000;NO
src/plugin/creativecommons/src/test/org/creativecommons/nutch/TestCCParseFilter.java-3;72; 1.000;NO
src/plugin/index-basic/src/java/org/apache/nutch/indexer/basic/BasicIndexingFilter.java-3;101; 0.000;NO
src/plugin/index-more/src/java/org/apache/nutch/indexer/more/MoreIndexingFilter.java-3;287; 0.000;NO
src/plugin/languageidentifier/src/java/org/apache/nutch/analysis/lang/HTMLLanguageParser.java-3;210; 0.000;NO
src/plugin/languageidentifier/src/java/org/apache/nutch/analysis/lang/LanguageIdentifier.java-3;464; 0.000;NO
src/plugin/languageidentifier/src/java/org/apache/nutch/analysis/lang/LanguageIndexingFilter.java-3;107; 0.000;NO
src/plugin/languageidentifier/src/java/org/apache/nutch/analysis/lang/LanguageQueryFilter.java-3;39; 0.000;NO
src/plugin/languageidentifier/src/java/org/apache/nutch/analysis/lang/NGramProfile.java-3;740; 0.000;NO
src/plugin/languageidentifier/src/test/org/apache/nutch/analysis/lang/TestHTMLLanguageParser.java-3;126; 1.000;NO
src/plugin/languageidentifier/src/test/org/apache/nutch/analysis/lang/TestLanguageIdentifier.java-3;243; 0.000;NO
src/plugin/languageidentifier/src/test/org/apache/nutch/analysis/lang/TestNGramProfile.java-3;144; 0.000;NO
src/plugin/lib-http/src/java/org/apache/nutch/protocol/http/api/HttpBase.java-3;465; 0.000;YES
src/plugin/lib-http/src/java/org/apache/nutch/protocol/http/api/HttpException.java-3;40; 0.000;NO
src/plugin/lib-http/src/java/org/apache/nutch/protocol/http/api/RobotRulesParser.java-3;489; 0.000;YES
src/plugin/lib-http/src/test/org/apache/nutch/protocol/http/api/TestRobotRulesParser.java-3;246; 0.000;NO
src/plugin/lib-parsems/src/java/org/apache/nutch/parse/ms/MSBaseParser.java-3;161; 0.000;YES
src/plugin/lib-parsems/src/java/org/apache/nutch/parse/ms/MSExtractor.java-3;199; 1.000;YES
src/plugin/lib-regex-filter/src/java/org/apache/nutch/urlfilter/api/RegexRule.java-3;63; 0.000;NO
src/plugin/lib-regex-filter/src/java/org/apache/nutch/urlfilter/api/RegexURLFilterBase.java-3;217; 0.000;NO
src/plugin/lib-regex-filter/src/test/org/apache/nutch/urlfilter/api/RegexURLFilterBaseTest.java-3;142; 0.000;NO
src/plugin/microformats-reltag/src/java/org/apache/nutch/microformats/reltag/RelTagIndexingFilter.java-3;82; 0.000;YES
src/plugin/microformats-reltag/src/java/org/apache/nutch/microformats/reltag/RelTagParser.java-3;153; 0.000;YES
src/plugin/microformats-reltag/src/java/org/apache/nutch/microformats/reltag/RelTagQueryFilter.java-3;58; 0.000;NO
src/plugin/ontology/src/java/org/apache/nutch/ontology/jena/OntologyImpl.java-3;360; 0.000;NO
src/plugin/ontology/src/java/org/apache/nutch/ontology/jena/OwlParser.java-3;146; 0.000;NO
src/plugin/ontology/src/java/org/apache/nutch/ontology/jena/Parser.java-3;32; 0.000;NO
src/plugin/ontology/src/test/org/apache/nutch/ontology/jena/TestOntology.java-3;97; 0.000;NO
src/plugin/parse-ext/src/java/org/apache/nutch/parse/ext/ExtParser.java-3;172; 0.000;NO
src/plugin/parse-ext/src/test/org/apache/nutch/parse/ext/TestExtParser.java-3;125; 1.000;NO
src/plugin/parse-html/src/java/org/apache/nutch/parse/html/DOMBuilder.java-3;737; 0.000;NO
src/plugin/parse-html/src/java/org/apache/nutch/parse/html/DOMContentUtils.java-3;341; 0.000;NO
src/plugin/parse-html/src/java/org/apache/nutch/parse/html/HTMLMetaProcessor.java-3;207; 0.000;NO
src/plugin/parse-html/src/java/org/apache/nutch/parse/html/HtmlParser.java-3;294; 0.000;NO
src/plugin/parse-html/src/java/org/apache/nutch/parse/html/XMLCharacterRecognizer.java-3;112; 0.000;NO
src/plugin/parse-html/src/test/org/apache/nutch/parse/html/TestDOMContentUtils.java-3;338; 0.000;NO
src/plugin/parse-html/src/test/org/apache/nutch/parse/html/TestRobotsMetaProcessor.java-3;181; 0.000;NO
src/plugin/parse-js/src/java/org/apache/nutch/parse/js/JSParseFilter.java-3;245; 0.000;NO
src/plugin/parse-mp3/src/java/org/apache/nutch/parse/mp3/MetadataCollector.java-3;107; 0.000;NO
src/plugin/parse-mp3/src/java/org/apache/nutch/parse/mp3/MP3Parser.java-3;148; 1.000;NO
src/plugin/parse-mp3/src/test/org/apache/nutch/parse/mp3/TestMP3Parser.java-3;142; 0.000;NO
src/plugin/parse-msexcel/src/java/org/apache/nutch/parse/msexcel/ExcelExtractor.java-3;92; 1.000;YES
src/plugin/parse-msexcel/src/java/org/apache/nutch/parse/msexcel/MSExcelParser.java-3;50; 0.000;YES
src/plugin/parse-msexcel/src/test/org/apache/nutch/parse/msexcel/TestMSExcelParser.java-3;72; 0.000;NO
src/plugin/parse-mspowerpoint/src/java/org/apache/nutch/parse/mspowerpoint/ContentReaderListener.java-3;414; 0.000;NO
src/plugin/parse-mspowerpoint/src/java/org/apache/nutch/parse/mspowerpoint/FilteredStringWriter.java-3;69; 0.000;NO
src/plugin/parse-mspowerpoint/src/java/org/apache/nutch/parse/mspowerpoint/MSPowerPointParser.java-3;54; 1.000;NO
src/plugin/parse-mspowerpoint/src/java/org/apache/nutch/parse/mspowerpoint/PPTConstants.java-3;62; 0.000;NO
src/plugin/parse-mspowerpoint/src/java/org/apache/nutch/parse/mspowerpoint/PPTExtractor.java-3;56; 1.000;NO
src/plugin/parse-mspowerpoint/src/java/org/apache/nutch/parse/mspowerpoint/Slide.java-3;73; 0.000;NO
src/plugin/parse-mspowerpoint/src/java/org/apache/nutch/parse/mspowerpoint/TextBox.java-3;88; 0.000;NO
src/plugin/parse-mspowerpoint/src/test/org/apache/nutch/parse/mspowerpoint/AllTests.java-3;87; 0.000;NO
src/plugin/parse-mspowerpoint/src/test/org/apache/nutch/parse/mspowerpoint/FileExtensionFilter.java-3;55; 0.000;NO
src/plugin/parse-mspowerpoint/src/test/org/apache/nutch/parse/mspowerpoint/TestMSPowerPointParser.java-3;260; 0.000;NO
src/plugin/parse-msword/src/java/org/apache/nutch/parse/msword/chp/Word6CHPBinTable.java-3;77; 0.000;NO
src/plugin/parse-msword/src/java/org/apache/nutch/parse/msword/FastSavedException.java-3;24; 0.000;NO
src/plugin/parse-msword/src/java/org/apache/nutch/parse/msword/MSWordParser.java-3;53; 1.000;NO
src/plugin/parse-msword/src/java/org/apache/nutch/parse/msword/PasswordProtectedException.java-3;24; 0.000;NO
src/plugin/parse-msword/src/java/org/apache/nutch/parse/msword/Test.java-3;53; 0.000;NO
src/plugin/parse-msword/src/java/org/apache/nutch/parse/msword/Word6Extractor.java-3;229; 0.000;NO
src/plugin/parse-msword/src/java/org/apache/nutch/parse/msword/WordExtractor.java-3;230; 0.000;NO
src/plugin/parse-msword/src/java/org/apache/nutch/parse/msword/WordTextBuffer.java-3;66; 0.000;NO
src/plugin/parse-msword/src/java/org/apache/nutch/parse/msword/WordTextPiece.java-3;54; 0.000;NO
src/plugin/parse-msword/src/test/org/apache/nutch/parse/msword/TestMSWordParser.java-3;78; 1.000;NO
src/plugin/parse-pdf/src/java/org/apache/nutch/parse/pdf/PdfParser.java-3;196; 0.000;NO
src/plugin/parse-pdf/src/test/org/apache/nutch/parse/pdf/TestPdfParser.java-3;79; 0.000;NO
src/plugin/parse-rss/src/java/org/apache/nutch/parse/rss/FeedParserListenerImpl.java-3;127; 0.000;NO
src/plugin/parse-rss/src/java/org/apache/nutch/parse/rss/RSSParser.java-3;240; 0.000;NO
src/plugin/parse-rss/src/java/org/apache/nutch/parse/rss/structs/RSSChannel.java-3;188; 0.000;NO
src/plugin/parse-rss/src/java/org/apache/nutch/parse/rss/structs/RSSItem.java-3;150; 0.000;NO
src/plugin/parse-rss/src/test/org/apache/nutch/parse/rss/TestRSSParser.java-3;129; 0.000;NO
src/plugin/parse-rtf/src/java/org/apache/nutch/parse/rtf/RTFParseFactory.java-3;96; 1.000;NO
src/plugin/parse-rtf/src/java/org/apache/nutch/parse/rtf/RTFParserDelegateImpl.java-3;131; 0.000;NO
src/plugin/parse-rtf/src/test/org/apache/nutch/parse/rtf/TestRTFParser.java-3;91; 0.000;NO
src/plugin/parse-swf/src/java/org/apache/nutch/parse/swf/SWFParser.java-3;703; 0.000;YES
src/plugin/parse-swf/src/test/org/apache/nutch/parse/swf/TestSWFParser.java-3;97; 1.000;NO
src/plugin/parse-text/src/java/org/apache/nutch/parse/text/TextParser.java-3;61; 1.000;NO
src/plugin/parse-zip/src/java/org/apache/nutch/parse/zip/ZipParser.java-3;116; 0.000;NO
src/plugin/parse-zip/src/java/org/apache/nutch/parse/zip/ZipTextExtractor.java-3;116; 0.000;NO
src/plugin/parse-zip/src/test/org/apache/nutch/parse/zip/TestZipParser.java-3;77; 0.000;NO
src/plugin/protocol-file/src/java/org/apache/nutch/protocol/file/File.java-3;168; 0.000;NO
src/plugin/protocol-file/src/java/org/apache/nutch/protocol/file/FileError.java-3;32; 0.000;NO
src/plugin/protocol-file/src/java/org/apache/nutch/protocol/file/FileException.java-3;39; 0.000;NO
src/plugin/protocol-file/src/java/org/apache/nutch/protocol/file/FileResponse.java-3;252; 1.000;NO
src/plugin/protocol-ftp/src/java/org/apache/nutch/protocol/ftp/Client.java-3;573; 0.000;NO
src/plugin/protocol-ftp/src/java/org/apache/nutch/protocol/ftp/Ftp.java-3;243; 0.000;NO
src/plugin/protocol-ftp/src/java/org/apache/nutch/protocol/ftp/FtpError.java-3;32; 0.000;NO
src/plugin/protocol-ftp/src/java/org/apache/nutch/protocol/ftp/FtpException.java-3;45; 0.000;NO
src/plugin/protocol-ftp/src/java/org/apache/nutch/protocol/ftp/FtpExceptionBadSystResponse.java-3;28; 0.000;NO
src/plugin/protocol-ftp/src/java/org/apache/nutch/protocol/ftp/FtpExceptionCanNotHaveDataConnection.java-3;28; 0.000;NO
src/plugin/protocol-ftp/src/java/org/apache/nutch/protocol/ftp/FtpExceptionControlClosedByForcedDataClose.java-3;29; 0.000;NO
src/plugin/protocol-ftp/src/java/org/apache/nutch/protocol/ftp/FtpExceptionUnknownForcedDataClose.java-3;29; 0.000;NO
src/plugin/protocol-ftp/src/java/org/apache/nutch/protocol/ftp/FtpResponse.java-3;475; 0.000;NO
src/plugin/protocol-ftp/src/java/org/apache/nutch/protocol/ftp/PrintCommandListener.java-3;65; 0.000;NO
src/plugin/protocol-http/src/java/org/apache/nutch/protocol/http/Http.java-3;64; 0.000;NO
src/plugin/protocol-http/src/java/org/apache/nutch/protocol/http/HttpResponse.java-3;432; 0.000;NO
src/plugin/protocol-httpclient/src/java/org/apache/nutch/protocol/httpclient/DummySSLProtocolSocketFactory.java-3;129; 0.000;NO
src/plugin/protocol-httpclient/src/java/org/apache/nutch/protocol/httpclient/DummyX509TrustManager.java-3;70; 0.000;NO
src/plugin/protocol-httpclient/src/java/org/apache/nutch/protocol/httpclient/Http.java-3;139; 0.000;NO
src/plugin/protocol-httpclient/src/java/org/apache/nutch/protocol/httpclient/HttpAuthentication.java-3;33; 0.000;NO
src/plugin/protocol-httpclient/src/java/org/apache/nutch/protocol/httpclient/HttpAuthenticationException.java-3;52; 0.000;NO
src/plugin/protocol-httpclient/src/java/org/apache/nutch/protocol/httpclient/HttpAuthenticationFactory.java-3;121; 0.000;NO
src/plugin/protocol-httpclient/src/java/org/apache/nutch/protocol/httpclient/HttpBasicAuthentication.java-3;166; 0.000;NO
src/plugin/protocol-httpclient/src/java/org/apache/nutch/protocol/httpclient/HttpResponse.java-3;163; 0.000;NO
src/plugin/query-basic/src/java/org/apache/nutch/searcher/basic/BasicQueryFilter.java-3;186; 0.000;NO
src/plugin/query-more/src/java/org/apache/nutch/searcher/more/DateQueryFilter.java-3;105; 0.000;NO
src/plugin/query-more/src/java/org/apache/nutch/searcher/more/TypeQueryFilter.java-3;44; 1.000;NO
src/plugin/query-site/src/java/org/apache/nutch/searcher/site/SiteQueryFilter.java-3;39; 0.000;NO
src/plugin/query-url/src/java/org/apache/nutch/searcher/url/URLQueryFilter.java-3;40; 0.000;NO
src/plugin/urlfilter-automaton/src/java/org/apache/nutch/urlfilter/automaton/AutomatonURLFilter.java-3;97; 0.000;NO
src/plugin/urlfilter-automaton/src/test/org/apache/nutch/urlfilter/automaton/TestAutomatonURLFilter.java-3;70; 0.000;NO
src/plugin/urlfilter-prefix/src/java/org/apache/nutch/urlfilter/prefix/PrefixURLFilter.java-3;164; 0.000;NO
src/plugin/urlfilter-regex/src/java/org/apache/nutch/urlfilter/regex/RegexURLFilter.java-3;90; 0.000;NO
src/plugin/urlfilter-regex/src/test/org/apache/nutch/urlfilter/regex/TestRegexURLFilter.java-3;70; 0.000;NO
src/test/org/apache/nutch/analysis/TestQueryParser.java-3;94; 0.000;NO
src/test/org/apache/nutch/crawl/DummyWritable.java-3;31; 0.000;NO
src/test/org/apache/nutch/crawl/TestMapWritable.java-3;182; 0.000;NO
src/test/org/apache/nutch/metadata/TestMetadata.java-3;268; 0.000;NO
src/test/org/apache/nutch/net/TestBasicUrlNormalizer.java-3;94; 0.000;NO
src/test/org/apache/nutch/net/TestRegexUrlNormalizer.java-3;50; 0.000;NO
src/test/org/apache/nutch/parse/TestOutlinkExtractor.java-3;80; 0.000;NO
src/test/org/apache/nutch/parse/TestParseData.java-3;54; 0.000;NO
src/test/org/apache/nutch/parse/TestParserFactory.java-3;101; 0.000;NO
src/test/org/apache/nutch/parse/TestParseText.java-3;37; 0.000;NO
src/test/org/apache/nutch/plugin/HelloWorldExtension.java-3;32; 0.000;NO
src/test/org/apache/nutch/plugin/ITestExtension.java-3;25; 0.000;NO
src/test/org/apache/nutch/plugin/SimpleTestPlugin.java-3;57; 0.000;NO
src/test/org/apache/nutch/plugin/TestPluginSystem.java-3;268; 0.000;NO
src/test/org/apache/nutch/protocol/TestContent.java-3;108; 0.000;NO
src/test/org/apache/nutch/searcher/TestHitDetails.java-3;57; 1.000;NO
src/test/org/apache/nutch/searcher/TestQuery.java-3;112; 0.000;NO
src/test/org/apache/nutch/util/mime/TestMimeType.java-3;209; 0.000;NO
src/test/org/apache/nutch/util/mime/TestMimeTypes.java-3;158; 0.000;NO
src/test/org/apache/nutch/util/TestFibonacciHeap.java-3;180; 0.000;NO
src/test/org/apache/nutch/util/TestGZIPUtils.java-3;247; 0.000;NO
src/test/org/apache/nutch/util/TestPrefixStringMatcher.java-3;120; 0.000;NO
src/test/org/apache/nutch/util/TestStringUtil.java-3;61; 0.000;NO
src/test/org/apache/nutch/util/TestSuffixStringMatcher.java-3;120; 0.000;NO
src/test/org/apache/nutch/util/WritableTestUtils.java-3;49; 0.000;NO
