ID;Size;Predicted;Actual
src/main/java/org/apache/tika/cli/TikaCLI.java-3;193; 0.000;NO
src/main/java/org/apache/tika/config/TikaConfig.java-3;173; 0.000;NO
src/main/java/org/apache/tika/detect/CompositeDetector.java-3;49; 0.000;NO
src/main/java/org/apache/tika/detect/Detector.java-3;58; 0.000;NO
src/main/java/org/apache/tika/detect/MagicDetector.java-3;223; 0.000;YES
src/main/java/org/apache/tika/detect/NameDetector.java-3;143; 0.000;YES
src/main/java/org/apache/tika/detect/TextDetector.java-3;110; 0.000;YES
src/main/java/org/apache/tika/detect/TypeDetector.java-3;56; 0.000;NO
src/main/java/org/apache/tika/exception/TikaException.java-3;32; 0.000;NO
src/main/java/org/apache/tika/gui/ParsingTransferHandler.java-3;117; 0.000;NO
src/main/java/org/apache/tika/gui/TikaGUI.java-3;270; 0.000;NO
src/main/java/org/apache/tika/metadata/CreativeCommons.java-3;34; 0.000;NO
src/main/java/org/apache/tika/metadata/DublinCore.java-3;160; 0.000;NO
src/main/java/org/apache/tika/metadata/HttpHeaders.java-3;47; 0.000;NO
src/main/java/org/apache/tika/metadata/Metadata.java-3;216; 0.000;NO
src/main/java/org/apache/tika/metadata/MSOffice.java-3;80; 0.000;NO
src/main/java/org/apache/tika/metadata/SpellCheckedMetadata.java-3;152; 0.000;NO
src/main/java/org/apache/tika/metadata/TikaMetadataKeys.java-3;26; 0.000;NO
src/main/java/org/apache/tika/metadata/TikaMimeKeys.java-3;29; 0.000;NO
src/main/java/org/apache/tika/mime/Clause.java-3;71; 0.000;NO
src/main/java/org/apache/tika/mime/HexCoDec.java-3;119; 0.000;NO
src/main/java/org/apache/tika/mime/Magic.java-3;82; 0.000;NO
src/main/java/org/apache/tika/mime/MagicClause.java-3;52; 0.000;NO
src/main/java/org/apache/tika/mime/MagicMatch.java-3;186; 0.000;NO
src/main/java/org/apache/tika/mime/MediaType.java-3;194; 0.000;NO
src/main/java/org/apache/tika/mime/MediaTypeRegistry.java-3;43; 0.000;NO
src/main/java/org/apache/tika/mime/MimeType.java-3;407; 0.000;NO
src/main/java/org/apache/tika/mime/MimeTypeException.java-3;52; 0.000;NO
src/main/java/org/apache/tika/mime/MimeTypes.java-3;512; 0.000;NO
src/main/java/org/apache/tika/mime/MimeTypesFactory.java-3;81; 0.000;NO
src/main/java/org/apache/tika/mime/MimeTypesReader.java-3;283; 0.000;NO
src/main/java/org/apache/tika/mime/MimeTypesReaderMetKeys.java-3;68; 0.000;NO
src/main/java/org/apache/tika/mime/Operator.java-3;69; 0.000;NO
src/main/java/org/apache/tika/mime/Patterns.java-3;192; 0.000;NO
src/main/java/org/apache/tika/parser/asm/ClassParser.java-3;51; 0.000;NO
src/main/java/org/apache/tika/parser/asm/XHTMLClassVisitor.java-3;302; 0.000;NO
src/main/java/org/apache/tika/parser/audio/AudioParser.java-3;88; 0.000;NO
src/main/java/org/apache/tika/parser/audio/MidiParser.java-3;97; 0.000;NO
src/main/java/org/apache/tika/parser/AutoDetectParser.java-3;81; 0.000;NO
src/main/java/org/apache/tika/parser/CompositeParser.java-3;111; 0.000;NO
src/main/java/org/apache/tika/parser/EmptyParser.java-3;41; 0.000;NO
src/main/java/org/apache/tika/parser/ErrorParser.java-3;38; 0.000;NO
src/main/java/org/apache/tika/parser/ExternalParser.java-3;141; 0.000;NO
src/main/java/org/apache/tika/parser/html/HtmlParser.java-3;191; 0.000;NO
src/main/java/org/apache/tika/parser/html/XHTMLDowngradeHandler.java-3;77; 0.000;NO
src/main/java/org/apache/tika/parser/image/ImageParser.java-3;58; 0.000;NO
src/main/java/org/apache/tika/parser/microsoft/Cell.java-3;38; 0.000;NO
src/main/java/org/apache/tika/parser/microsoft/CellDecorator.java-3;37; 0.000;NO
src/main/java/org/apache/tika/parser/microsoft/ExcelExtractor.java-3;393; 0.000;NO
src/main/java/org/apache/tika/parser/microsoft/LinkedCell.java-3;40; 0.000;NO
src/main/java/org/apache/tika/parser/microsoft/NumberCell.java-3;46; 0.000;NO
src/main/java/org/apache/tika/parser/microsoft/OfficeParser.java-3;174; 0.000;NO
src/main/java/org/apache/tika/parser/microsoft/ooxml/AbstractOOXMLExtractor.java-3;76; 0.000;YES
src/main/java/org/apache/tika/parser/microsoft/ooxml/MetadataExtractor.java-3;140; 0.000;YES
src/main/java/org/apache/tika/parser/microsoft/ooxml/OOXMLExtractor.java-3;55; 0.000;NO
src/main/java/org/apache/tika/parser/microsoft/ooxml/OOXMLExtractorFactory.java-3;49; 0.000;YES
src/main/java/org/apache/tika/parser/microsoft/ooxml/OOXMLParser.java-3;62; 0.000;YES
src/main/java/org/apache/tika/parser/microsoft/ooxml/POIXMLTextExtractorDecorator.java-3;34; 0.000;NO
src/main/java/org/apache/tika/parser/microsoft/ooxml/XSLFPowerPointExtractorDecorator.java-3;96; 0.000;YES
src/main/java/org/apache/tika/parser/microsoft/ooxml/XSSFExcelExtractorDecorator.java-3;113; 0.000;YES
src/main/java/org/apache/tika/parser/microsoft/ooxml/XWPFWordExtractorDecorator.java-3;121; 0.000;NO
src/main/java/org/apache/tika/parser/microsoft/OutlookExtractor.java-3;93; 0.000;NO
src/main/java/org/apache/tika/parser/microsoft/TextCell.java-3;37; 0.000;NO
src/main/java/org/apache/tika/parser/mp3/Mp3Parser.java-3;285; 0.000;NO
src/main/java/org/apache/tika/parser/opendocument/NSNormalizerContentHandler.java-3;98; 0.000;NO
src/main/java/org/apache/tika/parser/opendocument/OpenOfficeContentParser.java-3;275; 0.000;NO
src/main/java/org/apache/tika/parser/opendocument/OpenOfficeMetaParser.java-3;71; 0.000;NO
src/main/java/org/apache/tika/parser/opendocument/OpenOfficeParser.java-3;76; 0.000;NO
src/main/java/org/apache/tika/parser/Parser.java-3;49; 0.000;NO
src/main/java/org/apache/tika/parser/ParserDecorator.java-3;60; 0.000;NO
src/main/java/org/apache/tika/parser/ParserPostProcessor.java-3;68; 0.000;NO
src/main/java/org/apache/tika/parser/ParsingReader.java-3;233; 0.000;NO
src/main/java/org/apache/tika/parser/pdf/PDF2XHTML.java-3;168; 0.000;NO
src/main/java/org/apache/tika/parser/pdf/PDFParser.java-3;92; 0.000;NO
src/main/java/org/apache/tika/parser/pkg/bzip2/BZip2Constants.java-3;111; 0.000;NO
src/main/java/org/apache/tika/parser/pkg/bzip2/CBZip2InputStream.java-3;985; 0.000;NO
src/main/java/org/apache/tika/parser/pkg/bzip2/CRC.java-3;143; 0.000;NO
src/main/java/org/apache/tika/parser/pkg/Bzip2Parser.java-3;78; 0.000;NO
src/main/java/org/apache/tika/parser/pkg/GzipParser.java-3;75; 0.000;NO
src/main/java/org/apache/tika/parser/pkg/PackageParser.java-3;104; 0.000;NO
src/main/java/org/apache/tika/parser/pkg/tar/TarBuffer.java-3;463; 0.000;NO
src/main/java/org/apache/tika/parser/pkg/tar/TarConstants.java-3;160; 0.000;NO
src/main/java/org/apache/tika/parser/pkg/tar/TarEntry.java-3;640; 0.000;NO
src/main/java/org/apache/tika/parser/pkg/tar/TarInputStream.java-3;399; 0.000;NO
src/main/java/org/apache/tika/parser/pkg/tar/TarUtils.java-3;208; 0.000;NO
src/main/java/org/apache/tika/parser/pkg/TarParser.java-3;68; 0.000;NO
src/main/java/org/apache/tika/parser/pkg/ZipParser.java-3;66; 0.000;NO
src/main/java/org/apache/tika/parser/rtf/RTFParser.java-3;55; 0.000;NO
src/main/java/org/apache/tika/parser/txt/TXTParser.java-3;53; 0.000;NO
src/main/java/org/apache/tika/parser/xml/DcXMLParser.java-3;63; 0.000;NO
src/main/java/org/apache/tika/parser/xml/MetadataHandler.java-3;63; 0.000;NO
src/main/java/org/apache/tika/parser/xml/XMLParser.java-3;76; 0.000;NO
src/main/java/org/apache/tika/sax/BodyContentHandler.java-3;85; 0.000;NO
src/main/java/org/apache/tika/sax/ContentHandlerDecorator.java-3;101; 0.000;NO
src/main/java/org/apache/tika/sax/ElementMappingContentHandler.java-3;146; 0.000;NO
src/main/java/org/apache/tika/sax/EmbeddedContentHandler.java-3;56; 0.000;NO
src/main/java/org/apache/tika/sax/OfflineContentHandler.java-3;45; 0.000;NO
src/main/java/org/apache/tika/sax/SafeContentHandler.java-3;160; 0.000;YES
src/main/java/org/apache/tika/sax/TeeContentHandler.java-3;121; 0.000;NO
src/main/java/org/apache/tika/sax/TextContentHandler.java-3;65; 0.000;NO
src/main/java/org/apache/tika/sax/WriteOutContentHandler.java-3;123; 0.000;NO
src/main/java/org/apache/tika/sax/XHTMLContentHandler.java-3;216; 0.000;NO
src/main/java/org/apache/tika/sax/xpath/AttributeMatcher.java-3;31; 0.000;NO
src/main/java/org/apache/tika/sax/xpath/ChildMatcher.java-3;35; 0.000;NO
src/main/java/org/apache/tika/sax/xpath/CompositeMatcher.java-3;61; 0.000;NO
src/main/java/org/apache/tika/sax/xpath/ElementMatcher.java-3;31; 0.000;NO
src/main/java/org/apache/tika/sax/xpath/Matcher.java-3;77; 0.000;NO
src/main/java/org/apache/tika/sax/xpath/MatchingContentHandler.java-3;103; 0.000;NO
src/main/java/org/apache/tika/sax/xpath/NamedAttributeMatcher.java-3;42; 0.000;NO
src/main/java/org/apache/tika/sax/xpath/NamedElementMatcher.java-3;48; 0.000;NO
src/main/java/org/apache/tika/sax/xpath/NodeMatcher.java-3;42; 0.000;NO
src/main/java/org/apache/tika/sax/xpath/SubtreeMatcher.java-3;56; 0.000;NO
src/main/java/org/apache/tika/sax/xpath/TextMatcher.java-3;31; 0.000;NO
src/main/java/org/apache/tika/sax/xpath/XPathParser.java-3;114; 0.000;NO
src/main/java/org/apache/tika/utils/ParseUtils.java-3;253; 0.000;NO
src/main/java/org/apache/tika/utils/RegexUtils.java-3;66; 0.000;NO
src/main/java/org/apache/tika/utils/RereadableInputStream.java-3;263; 0.000;NO
src/main/java/org/apache/tika/utils/StringUtil.java-3;212; 0.000;NO
src/main/java/org/apache/tika/utils/Utils.java-3;136; 0.000;NO
src/test/java/org/apache/tika/detect/MagicDetectorTest.java-3;120; 0.000;NO
src/test/java/org/apache/tika/detect/NameDetectorTest.java-3;92; 0.000;NO
src/test/java/org/apache/tika/detect/TextDetectorTest.java-3;92; 1.000;NO
src/test/java/org/apache/tika/detect/TypeDetectorTest.java-3;64; 0.000;NO
src/test/java/org/apache/tika/metadata/TestMetadata.java-3;211; 0.000;NO
src/test/java/org/apache/tika/metadata/TestSpellCheckedMetadata.java-3;261; 0.000;NO
src/test/java/org/apache/tika/mime/MediaTypeTest.java-3;111; 0.000;NO
src/test/java/org/apache/tika/mime/MimeTypesTest.java-3;167; 0.000;NO
src/test/java/org/apache/tika/mime/MimeTypeTest.java-3;110; 0.000;NO
src/test/java/org/apache/tika/mime/PatternsTest.java-3;72; 0.000;NO
src/test/java/org/apache/tika/mime/TestMimeTypes.java-3;328; 0.000;NO
src/test/java/org/apache/tika/parser/asm/ClassParserTest.java-3;69; 0.000;NO
src/test/java/org/apache/tika/parser/audio/AudioParserTest.java-3;76; 1.000;NO
src/test/java/org/apache/tika/parser/audio/MidiParserTest.java-3;47; 1.000;NO
src/test/java/org/apache/tika/parser/AutoDetectParserTest.java-3;213; 0.000;NO
src/test/java/org/apache/tika/parser/html/HtmlParserTest.java-3;137; 0.000;NO
src/test/java/org/apache/tika/parser/image/ImageParserTest.java-3;87; 0.000;NO
src/test/java/org/apache/tika/parser/microsoft/ExcelParserTest.java-3;55; 1.000;NO
src/test/java/org/apache/tika/parser/microsoft/ooxml/OOXMLParserTest.java-3;114; 1.000;NO
src/test/java/org/apache/tika/parser/microsoft/OutlookParserTest.java-3;96; 0.000;NO
src/test/java/org/apache/tika/parser/microsoft/PowerPointParserTest.java-3;50; 0.000;NO
src/test/java/org/apache/tika/parser/microsoft/WordParserTest.java-3;48; 0.000;NO
src/test/java/org/apache/tika/parser/mp3/Mp3ParserTest.java-3;60; 0.000;NO
src/test/java/org/apache/tika/parser/opendocument/OpenOfficeParserTest.java-3;62; 0.000;NO
src/test/java/org/apache/tika/parser/ParsingReaderTest.java-3;99; 1.000;NO
src/test/java/org/apache/tika/parser/pkg/Bzip2ParserTest.java-3;69; 0.000;NO
src/test/java/org/apache/tika/parser/pkg/GzipParserTest.java-3;87; 1.000;NO
src/test/java/org/apache/tika/parser/pkg/TarParserTest.java-3;69; 0.000;NO
src/test/java/org/apache/tika/parser/pkg/ZipParserTest.java-3;69; 0.000;NO
src/test/java/org/apache/tika/parser/txt/TXTParserTest.java-3;84; 0.000;NO
src/test/java/org/apache/tika/parser/xml/DcXMLParserTest.java-3;77; 0.000;NO
src/test/java/org/apache/tika/sax/BodyContentHandlerTest.java-3;49; 0.000;NO
src/test/java/org/apache/tika/sax/OfflineContentHandlerTest.java-3;66; 1.000;NO
src/test/java/org/apache/tika/sax/SafeContentHandlerTest.java-3;68; 0.000;NO
src/test/java/org/apache/tika/sax/XHTMLContentHandlerTest.java-3;77; 1.000;NO
src/test/java/org/apache/tika/sax/xpath/XPathParserTest.java-3;121; 0.000;NO
src/test/java/org/apache/tika/TestParsers.java-3;223; 0.000;NO
src/test/java/org/apache/tika/TestRereadableInputStream.java-3;149; 0.000;NO
src/test/java/org/apache/tika/utils/RegexUtilsTest.java-3;79; 0.000;NO
