ID;Size;Predicted;Actual
src/contrib/bookkeeper/benchmark/org/apache/bookkeeper/benchmark/MySqlClient.java-3;137; 0.000;NO
src/contrib/bookkeeper/benchmark/org/apache/bookkeeper/benchmark/TestClient.java-3;269; 0.000;NO
src/contrib/bookkeeper/src/java/org/apache/bookkeeper/bookie/Bookie.java-3;343; 0.000;NO
src/contrib/bookkeeper/src/java/org/apache/bookkeeper/bookie/LedgerDescriptor.java-3;154; 0.000;NO
src/contrib/bookkeeper/src/java/org/apache/bookkeeper/client/AddCallback.java-3;37; 0.000;NO
src/contrib/bookkeeper/src/java/org/apache/bookkeeper/client/BKException.java-3;130; 0.000;NO
src/contrib/bookkeeper/src/java/org/apache/bookkeeper/client/BookieHandle.java-3;250; 0.000;NO
src/contrib/bookkeeper/src/java/org/apache/bookkeeper/client/BookKeeper.java-3;701; 0.000;NO
src/contrib/bookkeeper/src/java/org/apache/bookkeeper/client/ClientCBWorker.java-3;112; 0.000;NO
src/contrib/bookkeeper/src/java/org/apache/bookkeeper/client/ErrorCodes.java-3;29; 0.000;NO
src/contrib/bookkeeper/src/java/org/apache/bookkeeper/client/LedgerEntry.java-3;63; 0.000;NO
src/contrib/bookkeeper/src/java/org/apache/bookkeeper/client/LedgerHandle.java-3;349; 0.000;NO
src/contrib/bookkeeper/src/java/org/apache/bookkeeper/client/LedgerRecoveryMonitor.java-3;213; 0.000;NO
src/contrib/bookkeeper/src/java/org/apache/bookkeeper/client/LedgerSequence.java-3;65; 0.000;NO
src/contrib/bookkeeper/src/java/org/apache/bookkeeper/client/LedgerStream.java-3;104; 0.000;NO
src/contrib/bookkeeper/src/java/org/apache/bookkeeper/client/QuorumEngine.java-3;265; 0.000;NO
src/contrib/bookkeeper/src/java/org/apache/bookkeeper/client/QuorumOpMonitor.java-3;496; 0.000;NO
src/contrib/bookkeeper/src/java/org/apache/bookkeeper/client/ReadCallback.java-3;38; 0.000;NO
src/contrib/bookkeeper/src/java/org/apache/bookkeeper/proto/BookieClient.java-3;342; 0.000;NO
src/contrib/bookkeeper/src/java/org/apache/bookkeeper/proto/BookieProtocol.java-3;70; 0.000;NO
src/contrib/bookkeeper/src/java/org/apache/bookkeeper/proto/BookieServer.java-3;179; 0.000;NO
src/contrib/bookkeeper/src/java/org/apache/bookkeeper/proto/NIOServerFactory.java-3;532; 0.000;NO
src/contrib/bookkeeper/src/java/org/apache/bookkeeper/proto/ReadEntryCallback.java-3;35; 0.000;NO
src/contrib/bookkeeper/src/java/org/apache/bookkeeper/proto/ServerStats.java-3;133; 0.000;NO
src/contrib/bookkeeper/src/java/org/apache/bookkeeper/proto/WriteCallback.java-3;32; 0.000;NO
src/contrib/bookkeeper/src/java/org/apache/bookkeeper/util/ClientBase.java-3;343; 0.000;NO
src/contrib/bookkeeper/src/java/org/apache/bookkeeper/util/LocalBookKeeper.java-3;164; 0.000;NO
src/contrib/bookkeeper/src/java/org/apache/bookkeeper/util/Main.java-3;55; 0.000;NO
src/contrib/bookkeeper/test/org/apache/bookkeeper/test/BookieClientTest.java-3;202; 0.000;NO
src/contrib/bookkeeper/test/org/apache/bookkeeper/test/BookieReadWriteTest.java-3;497; 0.000;NO
src/contrib/bookkeeper/test/org/apache/bookkeeper/test/LedgerRecoveryTest.java-3;263; 0.000;NO
src/contrib/bookkeeper/test/org/apache/bookkeeper/test/LoopbackClient.java-3;117; 0.000;NO
src/contrib/bookkeeper/test/org/apache/bookkeeper/test/NIOServerFactoryTest.java-3;60; 0.000;NO
src/contrib/fatjar/src/java/org/apache/zookeeper/util/FatJarMain.java-3;126; 0.000;NO
src/java/main/org/apache/jute/BinaryInputArchive.java-3;132; 0.000;NO
src/java/main/org/apache/jute/BinaryOutputArchive.java-3;149; 0.000;NO
src/java/main/org/apache/jute/compiler/CGenerator.java-3;88; 0.000;NO
src/java/main/org/apache/jute/compiler/CppGenerator.java-3;83; 0.000;NO
src/java/main/org/apache/jute/compiler/generated/ParseException.java-3;210; 0.000;NO
src/java/main/org/apache/jute/compiler/generated/Rcc.java-3;525; 0.000;NO
src/java/main/org/apache/jute/compiler/generated/RccConstants.java-3;88; 0.000;NO
src/java/main/org/apache/jute/compiler/generated/RccTokenManager.java-3;833; 0.000;NO
src/java/main/org/apache/jute/compiler/generated/SimpleCharStream.java-3;457; 0.000;NO
src/java/main/org/apache/jute/compiler/generated/Token.java-3;99; 0.000;NO
src/java/main/org/apache/jute/compiler/generated/TokenMgrError.java-3;151; 0.000;NO
src/java/main/org/apache/jute/compiler/JavaGenerator.java-3;62; 0.000;NO
src/java/main/org/apache/jute/compiler/JBoolean.java-3;43; 0.000;NO
src/java/main/org/apache/jute/compiler/JBuffer.java-3;107; 0.000;NO
src/java/main/org/apache/jute/compiler/JByte.java-3;35; 0.000;NO
src/java/main/org/apache/jute/compiler/JCompType.java-3;55; 0.000;NO
src/java/main/org/apache/jute/compiler/JDouble.java-3;41; 0.000;NO
src/java/main/org/apache/jute/compiler/JField.java-3;99; 0.000;NO
src/java/main/org/apache/jute/compiler/JFile.java-3;75; 0.000;NO
src/java/main/org/apache/jute/compiler/JFloat.java-3;40; 0.000;NO
src/java/main/org/apache/jute/compiler/JInt.java-3;35; 0.000;NO
src/java/main/org/apache/jute/compiler/JLong.java-3;39; 0.000;NO
src/java/main/org/apache/jute/compiler/JMap.java-3;101; 0.000;NO
src/java/main/org/apache/jute/compiler/JRecord.java-3;508; 0.000;YES
src/java/main/org/apache/jute/compiler/JString.java-3;47; 0.000;NO
src/java/main/org/apache/jute/compiler/JType.java-3;142; 0.000;NO
src/java/main/org/apache/jute/compiler/JVector.java-3;106; 0.000;NO
src/java/main/org/apache/jute/CsvInputArchive.java-3;210; 0.000;NO
src/java/main/org/apache/jute/CsvOutputArchive.java-3;151; 0.000;NO
src/java/main/org/apache/jute/Index.java-3;39; 0.000;NO
src/java/main/org/apache/jute/InputArchive.java-3;45; 0.000;NO
src/java/main/org/apache/jute/OutputArchive.java-3;48; 0.000;NO
src/java/main/org/apache/jute/Record.java-3;33; 0.000;NO
src/java/main/org/apache/jute/RecordReader.java-3;98; 0.000;NO
src/java/main/org/apache/jute/RecordWriter.java-3;117; 0.000;NO
src/java/main/org/apache/jute/Utils.java-3;283; 0.000;YES
src/java/main/org/apache/jute/XmlInputArchive.java-3;251; 0.000;NO
src/java/main/org/apache/jute/XmlOutputArchive.java-3;252; 0.000;NO
src/java/main/org/apache/zookeeper/AsyncCallback.java-3;52; 0.000;NO
src/java/main/org/apache/zookeeper/ClientCnxn.java-3;1069; 0.000;NO
src/java/main/org/apache/zookeeper/ClientWatchManager.java-3;39; 0.000;NO
src/java/main/org/apache/zookeeper/common/PathTrie.java-3;280; 0.000;NO
src/java/main/org/apache/zookeeper/CreateMode.java-3;89; 0.000;NO
src/java/main/org/apache/zookeeper/Environment.java-3;100; 0.000;NO
src/java/main/org/apache/zookeeper/jmx/CommonNames.java-3;29; 0.000;NO
src/java/main/org/apache/zookeeper/jmx/ManagedUtil.java-3;72; 0.000;YES
src/java/main/org/apache/zookeeper/jmx/MBeanRegistry.java-3;194; 0.000;NO
src/java/main/org/apache/zookeeper/jmx/ZKMBeanInfo.java-3;36; 1.000;NO
src/java/main/org/apache/zookeeper/KeeperException.java-3;622; 0.000;YES
src/java/main/org/apache/zookeeper/Quotas.java-3;68; 0.000;NO
src/java/main/org/apache/zookeeper/server/auth/AuthenticationProvider.java-3;82; 0.000;NO
src/java/main/org/apache/zookeeper/server/auth/DigestAuthenticationProvider.java-3;128; 0.000;NO
src/java/main/org/apache/zookeeper/server/auth/HostAuthenticationProvider.java-3;69; 0.000;NO
src/java/main/org/apache/zookeeper/server/auth/IPAuthenticationProvider.java-3;117; 0.000;NO
src/java/main/org/apache/zookeeper/server/auth/ProviderRegistry.java-3;78; 0.000;YES
src/java/main/org/apache/zookeeper/server/ByteBufferInputStream.java-3;72; 0.000;NO
src/java/main/org/apache/zookeeper/server/ConnectionBean.java-3;121; 0.000;NO
src/java/main/org/apache/zookeeper/server/ConnectionMXBean.java-3;68; 1.000;NO
src/java/main/org/apache/zookeeper/server/DataNode.java-3;131; 0.000;YES
src/java/main/org/apache/zookeeper/server/DataTree.java-3;1069; 0.000;YES
src/java/main/org/apache/zookeeper/server/DataTreeBean.java-3;70; 0.000;NO
src/java/main/org/apache/zookeeper/server/DataTreeMXBean.java-3;47; 0.000;NO
src/java/main/org/apache/zookeeper/server/FinalRequestProcessor.java-3;268; 0.000;NO
src/java/main/org/apache/zookeeper/server/LogFormatter.java-3;72; 0.000;NO
src/java/main/org/apache/zookeeper/server/NIOServerCnxn.java-3;959; 0.000;YES
src/java/main/org/apache/zookeeper/server/persistence/FileSnap.java-3;186; 0.000;YES
src/java/main/org/apache/zookeeper/server/persistence/FileTxnLog.java-3;487; 0.000;NO
src/java/main/org/apache/zookeeper/server/persistence/FileTxnSnapLog.java-3;276; 0.000;YES
src/java/main/org/apache/zookeeper/server/persistence/SnapShot.java-3;60; 0.000;NO
src/java/main/org/apache/zookeeper/server/persistence/TxnLog.java-3;115; 0.000;NO
src/java/main/org/apache/zookeeper/server/persistence/Util.java-3;310; 0.000;YES
src/java/main/org/apache/zookeeper/server/PrepRequestProcessor.java-3;478; 0.000;YES
src/java/main/org/apache/zookeeper/server/PurgeTxnLog.java-3;132; 0.000;YES
src/java/main/org/apache/zookeeper/server/quorum/AckRequestProcessor.java-3;45; 0.000;NO
src/java/main/org/apache/zookeeper/server/quorum/AuthFastLeaderElection.java-3;892; 0.000;NO
src/java/main/org/apache/zookeeper/server/quorum/CommitProcessor.java-3;186; 0.000;NO
src/java/main/org/apache/zookeeper/server/quorum/Election.java-3;26; 0.000;NO
src/java/main/org/apache/zookeeper/server/quorum/FastLeaderElection.java-3;654; 0.000;NO
src/java/main/org/apache/zookeeper/server/quorum/Follower.java-3;403; 0.000;NO
src/java/main/org/apache/zookeeper/server/quorum/FollowerBean.java-3;50; 0.000;NO
src/java/main/org/apache/zookeeper/server/quorum/FollowerHandler.java-3;407; 0.000;NO
src/java/main/org/apache/zookeeper/server/quorum/FollowerMXBean.java-3;41; 0.000;NO
src/java/main/org/apache/zookeeper/server/quorum/FollowerRequestProcessor.java-3;106; 0.000;NO
src/java/main/org/apache/zookeeper/server/quorum/FollowerSessionTracker.java-3;85; 0.000;NO
src/java/main/org/apache/zookeeper/server/quorum/FollowerSyncRequest.java-3;34; 0.000;NO
src/java/main/org/apache/zookeeper/server/quorum/FollowerZooKeeperServer.java-3;245; 0.000;NO
src/java/main/org/apache/zookeeper/server/quorum/Leader.java-3;638; 0.000;NO
src/java/main/org/apache/zookeeper/server/quorum/LeaderBean.java-3;53; 0.000;YES
src/java/main/org/apache/zookeeper/server/quorum/LeaderElection.java-3;193; 0.000;NO
src/java/main/org/apache/zookeeper/server/quorum/LeaderElectionBean.java-3;42; 0.000;NO
src/java/main/org/apache/zookeeper/server/quorum/LeaderElectionMXBean.java-3;31; 1.000;NO
src/java/main/org/apache/zookeeper/server/quorum/LeaderMXBean.java-3;36; 1.000;NO
src/java/main/org/apache/zookeeper/server/quorum/LeaderZooKeeperServer.java-3;154; 0.000;NO
src/java/main/org/apache/zookeeper/server/quorum/LocalPeerBean.java-3;68; 0.000;YES
src/java/main/org/apache/zookeeper/server/quorum/LocalPeerMXBean.java-3;64; 0.000;NO
src/java/main/org/apache/zookeeper/server/quorum/ProposalRequestProcessor.java-3;75; 1.000;NO
src/java/main/org/apache/zookeeper/server/quorum/QuorumBean.java-3;44; 0.000;NO
src/java/main/org/apache/zookeeper/server/quorum/QuorumCnxManager.java-3;584; 1.000;NO
src/java/main/org/apache/zookeeper/server/quorum/QuorumMXBean.java-3;34; 1.000;NO
src/java/main/org/apache/zookeeper/server/quorum/QuorumPeer.java-3;650; 0.000;YES
src/java/main/org/apache/zookeeper/server/quorum/QuorumPeerConfig.java-3;221; 0.000;NO
src/java/main/org/apache/zookeeper/server/quorum/QuorumPeerMain.java-3;123; 0.000;NO
src/java/main/org/apache/zookeeper/server/quorum/QuorumStats.java-3;67; 0.000;NO
src/java/main/org/apache/zookeeper/server/quorum/RemotePeerBean.java-3;45; 1.000;YES
src/java/main/org/apache/zookeeper/server/quorum/RemotePeerMXBean.java-3;33; 0.000;NO
src/java/main/org/apache/zookeeper/server/quorum/SendAckRequestProcessor.java-3;54; 0.000;NO
src/java/main/org/apache/zookeeper/server/quorum/ServerBean.java-3;38; 0.000;NO
src/java/main/org/apache/zookeeper/server/quorum/ServerMXBean.java-3;33; 1.000;NO
src/java/main/org/apache/zookeeper/server/quorum/Vote.java-3;69; 0.000;NO
src/java/main/org/apache/zookeeper/server/Request.java-3;197; 0.000;YES
src/java/main/org/apache/zookeeper/server/RequestProcessor.java-3;37; 0.000;NO
src/java/main/org/apache/zookeeper/server/ServerCnxn.java-3;86; 0.000;NO
src/java/main/org/apache/zookeeper/server/ServerConfig.java-3;67; 0.000;NO
src/java/main/org/apache/zookeeper/server/ServerStats.java-3;132; 0.000;NO
src/java/main/org/apache/zookeeper/server/SessionTracker.java-3;58; 0.000;NO
src/java/main/org/apache/zookeeper/server/SessionTrackerImpl.java-3;218; 0.000;NO
src/java/main/org/apache/zookeeper/server/SyncRequestProcessor.java-3;142; 0.000;NO
src/java/main/org/apache/zookeeper/server/TraceFormatter.java-3;119; 0.000;NO
src/java/main/org/apache/zookeeper/server/upgrade/DataNodeV1.java-3;129; 0.000;NO
src/java/main/org/apache/zookeeper/server/upgrade/DataTreeV1.java-3;583; 0.000;NO
src/java/main/org/apache/zookeeper/server/upgrade/UpgradeMain.java-3;181; 0.000;NO
src/java/main/org/apache/zookeeper/server/upgrade/UpgradeSnapShot.java-3;33; 0.000;NO
src/java/main/org/apache/zookeeper/server/upgrade/UpgradeSnapShotV1.java-3;327; 0.000;YES
src/java/main/org/apache/zookeeper/server/util/Profiler.java-3;40; 0.000;NO
src/java/main/org/apache/zookeeper/server/util/SerializeUtils.java-3;105; 0.000;YES
src/java/main/org/apache/zookeeper/server/WatchManager.java-3;111; 0.000;NO
src/java/main/org/apache/zookeeper/server/ZooKeeperServer.java-3;664; 0.000;NO
src/java/main/org/apache/zookeeper/server/ZooKeeperServerBean.java-3;114; 0.000;YES
src/java/main/org/apache/zookeeper/server/ZooKeeperServerMain.java-3;93; 0.000;NO
src/java/main/org/apache/zookeeper/server/ZooKeeperServerMXBean.java-3;82; 1.000;NO
src/java/main/org/apache/zookeeper/server/ZooTrace.java-3;92; 0.000;YES
src/java/main/org/apache/zookeeper/ServerAdminClient.java-3;312; 0.000;NO
src/java/main/org/apache/zookeeper/StatsTrack.java-3;101; 1.000;NO
src/java/main/org/apache/zookeeper/version/util/VerGen.java-3;128; 0.000;YES
src/java/main/org/apache/zookeeper/Version.java-3;78; 0.000;YES
src/java/main/org/apache/zookeeper/WatchedEvent.java-3;81; 0.000;NO
src/java/main/org/apache/zookeeper/Watcher.java-3;125; 0.000;NO
src/java/main/org/apache/zookeeper/ZooDefs.java-3;112; 0.000;NO
src/java/main/org/apache/zookeeper/ZooKeeper.java-3;1179; 0.000;NO
src/java/main/org/apache/zookeeper/ZooKeeperMain.java-3;505; 0.000;YES
src/java/systest/org/apache/zookeeper/test/system/BaseSysTest.java-3;264; 0.000;NO
src/java/systest/org/apache/zookeeper/test/system/DuplicateNameException.java-3;26; 0.000;NO
src/java/systest/org/apache/zookeeper/test/system/GenerateLoad.java-3;700; 0.000;YES
src/java/systest/org/apache/zookeeper/test/system/Instance.java-3;59; 0.000;NO
src/java/systest/org/apache/zookeeper/test/system/InstanceContainer.java-3;311; 0.000;NO
src/java/systest/org/apache/zookeeper/test/system/InstanceManager.java-3;331; 0.000;YES
src/java/systest/org/apache/zookeeper/test/system/NoAssignmentException.java-3;24; 0.000;NO
src/java/systest/org/apache/zookeeper/test/system/NoAvailableContainers.java-3;28; 0.000;NO
src/java/systest/org/apache/zookeeper/test/system/QuorumPeerInstance.java-3;250; 0.000;YES
src/java/systest/org/apache/zookeeper/test/system/SimpleClient.java-3;116; 0.000;YES
src/java/systest/org/apache/zookeeper/test/system/SimpleSysTest.java-3;170; 0.000;NO
src/java/test/org/apache/zookeeper/server/CRCTest.java-3;153; 0.000;NO
src/java/test/org/apache/zookeeper/server/DataTreeUnitTest.java-3;56; 0.000;NO
src/java/test/org/apache/zookeeper/server/DeserializationPerfTest.java-3;106; 0.000;NO
src/java/test/org/apache/zookeeper/server/InvalidSnapshotTest.java-3;94; 1.000;NO
src/java/test/org/apache/zookeeper/server/SerializationPerfTest.java-3;113; 0.000;NO
src/java/test/org/apache/zookeeper/server/ToStringTest.java-3;38; 0.000;NO
src/java/test/org/apache/zookeeper/server/ZooKeeperServerTest.java-3;91; 0.000;NO
src/java/test/org/apache/zookeeper/test/ACLTest.java-3;152; 0.000;NO
src/java/test/org/apache/zookeeper/test/AsyncOps.java-3;504; 0.000;NO
src/java/test/org/apache/zookeeper/test/AsyncOpsTest.java-3;178; 0.000;NO
src/java/test/org/apache/zookeeper/test/AsyncTest.java-3;275; 0.000;NO
src/java/test/org/apache/zookeeper/test/ClientBase.java-3;377; 0.000;YES
src/java/test/org/apache/zookeeper/test/ClientTest.java-3;793; 0.000;NO
src/java/test/org/apache/zookeeper/test/CreateModeTest.java-3;81; 0.000;NO
src/java/test/org/apache/zookeeper/test/DataTreeTest.java-3;62; 0.000;NO
src/java/test/org/apache/zookeeper/test/DBSizeTest.java-3;84; 0.000;NO
src/java/test/org/apache/zookeeper/test/DisconnectableZooKeeper.java-3;54; 0.000;NO
src/java/test/org/apache/zookeeper/test/EventTypeTest.java-3;50; 0.000;NO
src/java/test/org/apache/zookeeper/test/FLENewEpochTest.java-3;179; 1.000;NO
src/java/test/org/apache/zookeeper/test/FLETest.java-3;316; 0.000;NO
src/java/test/org/apache/zookeeper/test/IntegrityCheck.java-3;232; 0.000;NO
src/java/test/org/apache/zookeeper/test/KeeperStateTest.java-3;76; 0.000;NO
src/java/test/org/apache/zookeeper/test/LETest.java-3;129; 0.000;NO
src/java/test/org/apache/zookeeper/test/NullDataTest.java-3;72; 0.000;NO
src/java/test/org/apache/zookeeper/test/OOMTest.java-3;149; 0.000;NO
src/java/test/org/apache/zookeeper/test/PurgeTxnTest.java-3;86; 0.000;NO
src/java/test/org/apache/zookeeper/test/QuorumBase.java-3;147; 0.000;NO
src/java/test/org/apache/zookeeper/test/QuorumQuotaTest.java-3;74; 1.000;NO
src/java/test/org/apache/zookeeper/test/QuorumTest.java-3;91; 0.000;NO
src/java/test/org/apache/zookeeper/test/RecoveryTest.java-3;206; 0.000;NO
src/java/test/org/apache/zookeeper/test/RepeatStartupTest.java-3;72; 1.000;NO
src/java/test/org/apache/zookeeper/test/SessionTest.java-3;234; 0.000;NO
src/java/test/org/apache/zookeeper/test/SledgeHammer.java-3;115; 0.000;NO
src/java/test/org/apache/zookeeper/test/StatTest.java-3;205; 0.000;NO
src/java/test/org/apache/zookeeper/test/SyncCallTest.java-3;96; 0.000;NO
src/java/test/org/apache/zookeeper/test/TestHammer.java-3;62; 0.000;YES
src/java/test/org/apache/zookeeper/test/UpgradeTest.java-3;107; 0.000;NO
src/java/test/org/apache/zookeeper/test/WatchedEventTest.java-3;95; 0.000;NO
src/java/test/org/apache/zookeeper/test/WatcherFuncTest.java-3;460; 0.000;NO
src/java/test/org/apache/zookeeper/test/WatcherTest.java-3;344; 0.000;NO
src/java/test/org/apache/zookeeper/test/ZooKeeperQuotaTest.java-3;81; 1.000;NO
src/java/test/org/apache/zookeeper/test/ZooKeeperTestClient.java-3;392; 0.000;NO
src/java/test/org/apache/zookeeper/TestableZooKeeper.java-3;72; 0.000;YES
src/contrib/bookkeeper/benchmark/org/apache/bookkeeper/benchmark/MySqlClient.java-4;137; 0.000;NO
src/contrib/bookkeeper/benchmark/org/apache/bookkeeper/benchmark/TestClient.java-4;252; 0.000;NO
src/contrib/bookkeeper/src/java/org/apache/bookkeeper/bookie/Bookie.java-4;343; 0.000;NO
src/contrib/bookkeeper/src/java/org/apache/bookkeeper/bookie/LedgerDescriptor.java-4;154; 0.000;NO
src/contrib/bookkeeper/src/java/org/apache/bookkeeper/client/AddCallback.java-4;37; 0.000;NO
src/contrib/bookkeeper/src/java/org/apache/bookkeeper/client/BKException.java-4;130; 0.000;NO
src/contrib/bookkeeper/src/java/org/apache/bookkeeper/client/BookieHandle.java-4;250; 0.000;NO
src/contrib/bookkeeper/src/java/org/apache/bookkeeper/client/BookKeeper.java-4;701; 0.000;NO
src/contrib/bookkeeper/src/java/org/apache/bookkeeper/client/ClientCBWorker.java-4;112; 0.000;NO
src/contrib/bookkeeper/src/java/org/apache/bookkeeper/client/ErrorCodes.java-4;29; 0.000;NO
src/contrib/bookkeeper/src/java/org/apache/bookkeeper/client/LedgerEntry.java-4;63; 0.000;NO
src/contrib/bookkeeper/src/java/org/apache/bookkeeper/client/LedgerHandle.java-4;349; 0.000;NO
src/contrib/bookkeeper/src/java/org/apache/bookkeeper/client/LedgerRecoveryMonitor.java-4;213; 0.000;NO
src/contrib/bookkeeper/src/java/org/apache/bookkeeper/client/LedgerSequence.java-4;65; 0.000;NO
src/contrib/bookkeeper/src/java/org/apache/bookkeeper/client/LedgerStream.java-4;104; 0.000;NO
src/contrib/bookkeeper/src/java/org/apache/bookkeeper/client/QuorumEngine.java-4;265; 0.000;NO
src/contrib/bookkeeper/src/java/org/apache/bookkeeper/client/QuorumOpMonitor.java-4;496; 0.000;NO
src/contrib/bookkeeper/src/java/org/apache/bookkeeper/client/ReadCallback.java-4;38; 0.000;NO
src/contrib/bookkeeper/src/java/org/apache/bookkeeper/proto/BookieClient.java-4;342; 0.000;NO
src/contrib/bookkeeper/src/java/org/apache/bookkeeper/proto/BookieProtocol.java-4;70; 0.000;NO
src/contrib/bookkeeper/src/java/org/apache/bookkeeper/proto/BookieServer.java-4;179; 0.000;NO
src/contrib/bookkeeper/src/java/org/apache/bookkeeper/proto/NIOServerFactory.java-4;532; 0.000;NO
src/contrib/bookkeeper/src/java/org/apache/bookkeeper/proto/ReadEntryCallback.java-4;35; 0.000;NO
src/contrib/bookkeeper/src/java/org/apache/bookkeeper/proto/ServerStats.java-4;133; 0.000;NO
src/contrib/bookkeeper/src/java/org/apache/bookkeeper/proto/WriteCallback.java-4;32; 0.000;NO
src/contrib/bookkeeper/src/java/org/apache/bookkeeper/util/ClientBase.java-4;343; 0.000;NO
src/contrib/bookkeeper/src/java/org/apache/bookkeeper/util/LocalBookKeeper.java-4;164; 0.000;NO
src/contrib/bookkeeper/src/java/org/apache/bookkeeper/util/Main.java-4;55; 0.000;NO
src/contrib/bookkeeper/test/org/apache/bookkeeper/test/BookieClientTest.java-4;202; 0.000;NO
src/contrib/bookkeeper/test/org/apache/bookkeeper/test/BookieReadWriteTest.java-4;497; 0.000;NO
src/contrib/bookkeeper/test/org/apache/bookkeeper/test/LedgerRecoveryTest.java-4;263; 0.000;NO
src/contrib/bookkeeper/test/org/apache/bookkeeper/test/LoopbackClient.java-4;117; 0.000;NO
src/contrib/bookkeeper/test/org/apache/bookkeeper/test/NIOServerFactoryTest.java-4;60; 0.000;NO
src/contrib/fatjar/src/java/org/apache/zookeeper/util/FatJarMain.java-4;126; 0.000;NO
src/java/main/org/apache/jute/BinaryInputArchive.java-4;132; 0.000;NO
src/java/main/org/apache/jute/BinaryOutputArchive.java-4;149; 0.000;NO
src/java/main/org/apache/jute/compiler/CGenerator.java-4;88; 0.000;NO
src/java/main/org/apache/jute/compiler/CppGenerator.java-4;83; 0.000;NO
src/java/main/org/apache/jute/compiler/generated/ParseException.java-4;210; 0.000;NO
src/java/main/org/apache/jute/compiler/generated/Rcc.java-4;525; 0.000;NO
src/java/main/org/apache/jute/compiler/generated/RccConstants.java-4;88; 0.000;NO
src/java/main/org/apache/jute/compiler/generated/RccTokenManager.java-4;833; 0.000;NO
src/java/main/org/apache/jute/compiler/generated/SimpleCharStream.java-4;457; 0.000;NO
src/java/main/org/apache/jute/compiler/generated/Token.java-4;99; 0.000;NO
src/java/main/org/apache/jute/compiler/generated/TokenMgrError.java-4;151; 0.000;NO
src/java/main/org/apache/jute/compiler/JavaGenerator.java-4;62; 0.000;NO
src/java/main/org/apache/jute/compiler/JBoolean.java-4;43; 0.000;NO
src/java/main/org/apache/jute/compiler/JBuffer.java-4;107; 0.000;NO
src/java/main/org/apache/jute/compiler/JByte.java-4;35; 0.000;NO
src/java/main/org/apache/jute/compiler/JCompType.java-4;55; 0.000;NO
src/java/main/org/apache/jute/compiler/JDouble.java-4;41; 0.000;NO
src/java/main/org/apache/jute/compiler/JField.java-4;99; 0.000;NO
src/java/main/org/apache/jute/compiler/JFile.java-4;75; 0.000;NO
src/java/main/org/apache/jute/compiler/JFloat.java-4;40; 0.000;NO
src/java/main/org/apache/jute/compiler/JInt.java-4;35; 0.000;NO
src/java/main/org/apache/jute/compiler/JLong.java-4;39; 0.000;NO
src/java/main/org/apache/jute/compiler/JMap.java-4;101; 0.000;NO
src/java/main/org/apache/jute/compiler/JRecord.java-4;508; 0.000;NO
src/java/main/org/apache/jute/compiler/JString.java-4;47; 0.000;NO
src/java/main/org/apache/jute/compiler/JType.java-4;142; 0.000;NO
src/java/main/org/apache/jute/compiler/JVector.java-4;106; 0.000;NO
src/java/main/org/apache/jute/CsvInputArchive.java-4;210; 0.000;NO
src/java/main/org/apache/jute/CsvOutputArchive.java-4;151; 0.000;NO
src/java/main/org/apache/jute/Index.java-4;39; 0.000;NO
src/java/main/org/apache/jute/InputArchive.java-4;45; 0.000;NO
src/java/main/org/apache/jute/OutputArchive.java-4;48; 0.000;NO
src/java/main/org/apache/jute/Record.java-4;33; 0.000;NO
src/java/main/org/apache/jute/RecordReader.java-4;98; 0.000;NO
src/java/main/org/apache/jute/RecordWriter.java-4;117; 0.000;NO
src/java/main/org/apache/jute/Utils.java-4;283; 0.000;NO
src/java/main/org/apache/jute/XmlInputArchive.java-4;251; 0.000;NO
src/java/main/org/apache/jute/XmlOutputArchive.java-4;252; 0.000;NO
src/java/main/org/apache/zookeeper/AsyncCallback.java-4;52; 0.000;NO
src/java/main/org/apache/zookeeper/ClientCnxn.java-4;1069; 0.000;NO
src/java/main/org/apache/zookeeper/ClientWatchManager.java-4;39; 0.000;NO
src/java/main/org/apache/zookeeper/common/PathTrie.java-4;280; 0.000;NO
src/java/main/org/apache/zookeeper/CreateMode.java-4;89; 0.000;NO
src/java/main/org/apache/zookeeper/Environment.java-4;100; 0.000;NO
src/java/main/org/apache/zookeeper/jmx/CommonNames.java-4;29; 0.000;NO
src/java/main/org/apache/zookeeper/jmx/ManagedUtil.java-4;72; 0.000;NO
src/java/main/org/apache/zookeeper/jmx/MBeanRegistry.java-4;194; 0.000;NO
src/java/main/org/apache/zookeeper/jmx/ZKMBeanInfo.java-4;36; 0.000;NO
src/java/main/org/apache/zookeeper/KeeperException.java-4;622; 0.000;NO
src/java/main/org/apache/zookeeper/Quotas.java-4;68; 0.000;NO
src/java/main/org/apache/zookeeper/server/auth/AuthenticationProvider.java-4;82; 0.000;NO
src/java/main/org/apache/zookeeper/server/auth/DigestAuthenticationProvider.java-4;128; 0.000;NO
src/java/main/org/apache/zookeeper/server/auth/HostAuthenticationProvider.java-4;69; 0.000;NO
src/java/main/org/apache/zookeeper/server/auth/IPAuthenticationProvider.java-4;117; 0.000;NO
src/java/main/org/apache/zookeeper/server/auth/ProviderRegistry.java-4;78; 0.000;NO
src/java/main/org/apache/zookeeper/server/ByteBufferInputStream.java-4;72; 0.000;NO
src/java/main/org/apache/zookeeper/server/ConnectionBean.java-4;121; 0.000;NO
src/java/main/org/apache/zookeeper/server/ConnectionMXBean.java-4;68; 0.000;NO
src/java/main/org/apache/zookeeper/server/DataNode.java-4;131; 0.000;NO
src/java/main/org/apache/zookeeper/server/DataTree.java-4;1069; 0.000;NO
src/java/main/org/apache/zookeeper/server/DataTreeBean.java-4;70; 0.000;NO
src/java/main/org/apache/zookeeper/server/DataTreeMXBean.java-4;47; 0.000;NO
src/java/main/org/apache/zookeeper/server/FinalRequestProcessor.java-4;271; 0.000;NO
src/java/main/org/apache/zookeeper/server/LogFormatter.java-4;72; 0.000;NO
src/java/main/org/apache/zookeeper/server/NIOServerCnxn.java-4;973; 0.000;NO
src/java/main/org/apache/zookeeper/server/persistence/FileSnap.java-4;186; 0.000;NO
src/java/main/org/apache/zookeeper/server/persistence/FileTxnLog.java-4;498; 0.000;NO
src/java/main/org/apache/zookeeper/server/persistence/FileTxnSnapLog.java-4;277; 0.000;NO
src/java/main/org/apache/zookeeper/server/persistence/SnapShot.java-4;60; 0.000;NO
src/java/main/org/apache/zookeeper/server/persistence/TxnLog.java-4;116; 0.000;NO
src/java/main/org/apache/zookeeper/server/persistence/Util.java-4;310; 0.000;NO
src/java/main/org/apache/zookeeper/server/PrepRequestProcessor.java-4;482; 0.000;NO
src/java/main/org/apache/zookeeper/server/PurgeTxnLog.java-4;132; 0.000;NO
src/java/main/org/apache/zookeeper/server/quorum/AckRequestProcessor.java-4;45; 0.000;NO
src/java/main/org/apache/zookeeper/server/quorum/AuthFastLeaderElection.java-4;892; 0.000;NO
src/java/main/org/apache/zookeeper/server/quorum/CommitProcessor.java-4;188; 0.000;NO
src/java/main/org/apache/zookeeper/server/quorum/Election.java-4;26; 0.000;NO
src/java/main/org/apache/zookeeper/server/quorum/FastLeaderElection.java-4;654; 0.000;NO
src/java/main/org/apache/zookeeper/server/quorum/Follower.java-4;408; 0.000;NO
src/java/main/org/apache/zookeeper/server/quorum/FollowerBean.java-4;50; 0.000;NO
src/java/main/org/apache/zookeeper/server/quorum/FollowerHandler.java-4;410; 0.000;NO
src/java/main/org/apache/zookeeper/server/quorum/FollowerMXBean.java-4;41; 0.000;NO
src/java/main/org/apache/zookeeper/server/quorum/FollowerRequestProcessor.java-4;106; 0.000;NO
src/java/main/org/apache/zookeeper/server/quorum/FollowerSessionTracker.java-4;85; 0.000;NO
src/java/main/org/apache/zookeeper/server/quorum/FollowerSyncRequest.java-4;34; 0.000;NO
src/java/main/org/apache/zookeeper/server/quorum/FollowerZooKeeperServer.java-4;245; 0.000;NO
src/java/main/org/apache/zookeeper/server/quorum/Leader.java-4;648; 0.000;NO
src/java/main/org/apache/zookeeper/server/quorum/LeaderBean.java-4;53; 0.000;NO
src/java/main/org/apache/zookeeper/server/quorum/LeaderElection.java-4;193; 0.000;NO
src/java/main/org/apache/zookeeper/server/quorum/LeaderElectionBean.java-4;42; 0.000;NO
src/java/main/org/apache/zookeeper/server/quorum/LeaderElectionMXBean.java-4;31; 0.000;NO
src/java/main/org/apache/zookeeper/server/quorum/LeaderMXBean.java-4;36; 0.000;NO
src/java/main/org/apache/zookeeper/server/quorum/LeaderZooKeeperServer.java-4;154; 0.000;NO
src/java/main/org/apache/zookeeper/server/quorum/LocalPeerBean.java-4;68; 0.000;NO
src/java/main/org/apache/zookeeper/server/quorum/LocalPeerMXBean.java-4;64; 0.000;NO
src/java/main/org/apache/zookeeper/server/quorum/ProposalRequestProcessor.java-4;75; 0.000;NO
src/java/main/org/apache/zookeeper/server/quorum/QuorumBean.java-4;44; 0.000;NO
src/java/main/org/apache/zookeeper/server/quorum/QuorumCnxManager.java-4;584; 0.000;NO
src/java/main/org/apache/zookeeper/server/quorum/QuorumMXBean.java-4;34; 0.000;NO
src/java/main/org/apache/zookeeper/server/quorum/QuorumPeer.java-4;650; 0.000;NO
src/java/main/org/apache/zookeeper/server/quorum/QuorumPeerConfig.java-4;220; 0.000;NO
src/java/main/org/apache/zookeeper/server/quorum/QuorumPeerMain.java-4;123; 0.000;NO
src/java/main/org/apache/zookeeper/server/quorum/QuorumStats.java-4;67; 0.000;NO
src/java/main/org/apache/zookeeper/server/quorum/RemotePeerBean.java-4;45; 0.000;NO
src/java/main/org/apache/zookeeper/server/quorum/RemotePeerMXBean.java-4;33; 0.000;NO
src/java/main/org/apache/zookeeper/server/quorum/SendAckRequestProcessor.java-4;59; 0.000;NO
src/java/main/org/apache/zookeeper/server/quorum/ServerBean.java-4;38; 0.000;NO
src/java/main/org/apache/zookeeper/server/quorum/ServerMXBean.java-4;33; 0.000;NO
src/java/main/org/apache/zookeeper/server/quorum/Vote.java-4;69; 0.000;NO
src/java/main/org/apache/zookeeper/server/Request.java-4;197; 0.000;NO
src/java/main/org/apache/zookeeper/server/RequestProcessor.java-4;37; 0.000;NO
src/java/main/org/apache/zookeeper/server/ServerCnxn.java-4;86; 0.000;NO
src/java/main/org/apache/zookeeper/server/ServerConfig.java-4;81; 0.000;NO
src/java/main/org/apache/zookeeper/server/ServerStats.java-4;132; 0.000;NO
src/java/main/org/apache/zookeeper/server/SessionTracker.java-4;58; 0.000;NO
src/java/main/org/apache/zookeeper/server/SessionTrackerImpl.java-4;218; 0.000;NO
src/java/main/org/apache/zookeeper/server/SyncRequestProcessor.java-4;147; 0.000;NO
src/java/main/org/apache/zookeeper/server/TraceFormatter.java-4;119; 0.000;NO
src/java/main/org/apache/zookeeper/server/upgrade/DataNodeV1.java-4;129; 0.000;NO
src/java/main/org/apache/zookeeper/server/upgrade/DataTreeV1.java-4;583; 0.000;NO
src/java/main/org/apache/zookeeper/server/upgrade/UpgradeMain.java-4;181; 0.000;NO
src/java/main/org/apache/zookeeper/server/upgrade/UpgradeSnapShot.java-4;33; 0.000;NO
src/java/main/org/apache/zookeeper/server/upgrade/UpgradeSnapShotV1.java-4;327; 0.000;NO
src/java/main/org/apache/zookeeper/server/util/Profiler.java-4;40; 0.000;NO
src/java/main/org/apache/zookeeper/server/util/SerializeUtils.java-4;113; 0.000;NO
src/java/main/org/apache/zookeeper/server/WatchManager.java-4;111; 0.000;NO
src/java/main/org/apache/zookeeper/server/ZooKeeperServer.java-4;668; 0.000;NO
src/java/main/org/apache/zookeeper/server/ZooKeeperServerBean.java-4;114; 0.000;NO
src/java/main/org/apache/zookeeper/server/ZooKeeperServerMain.java-4;99; 0.000;NO
src/java/main/org/apache/zookeeper/server/ZooKeeperServerMXBean.java-4;82; 0.000;NO
src/java/main/org/apache/zookeeper/server/ZooTrace.java-4;92; 0.000;NO
src/java/main/org/apache/zookeeper/ServerAdminClient.java-4;312; 0.000;NO
src/java/main/org/apache/zookeeper/StatsTrack.java-4;101; 0.000;NO
src/java/main/org/apache/zookeeper/version/util/VerGen.java-4;128; 0.000;NO
src/java/main/org/apache/zookeeper/Version.java-4;78; 0.000;NO
src/java/main/org/apache/zookeeper/WatchedEvent.java-4;81; 0.000;NO
src/java/main/org/apache/zookeeper/Watcher.java-4;125; 0.000;NO
src/java/main/org/apache/zookeeper/ZooDefs.java-4;112; 0.000;NO
src/java/main/org/apache/zookeeper/ZooKeeper.java-4;1179; 0.000;NO
src/java/main/org/apache/zookeeper/ZooKeeperMain.java-4;505; 0.000;NO
src/java/systest/org/apache/zookeeper/test/system/BaseSysTest.java-4;264; 0.000;NO
src/java/systest/org/apache/zookeeper/test/system/DuplicateNameException.java-4;26; 0.000;NO
src/java/systest/org/apache/zookeeper/test/system/GenerateLoad.java-4;714; 0.000;NO
src/java/systest/org/apache/zookeeper/test/system/Instance.java-4;59; 0.000;NO
src/java/systest/org/apache/zookeeper/test/system/InstanceContainer.java-4;311; 0.000;NO
src/java/systest/org/apache/zookeeper/test/system/InstanceManager.java-4;331; 0.000;NO
src/java/systest/org/apache/zookeeper/test/system/NoAssignmentException.java-4;24; 0.000;NO
src/java/systest/org/apache/zookeeper/test/system/NoAvailableContainers.java-4;28; 0.000;NO
src/java/systest/org/apache/zookeeper/test/system/QuorumPeerInstance.java-4;275; 0.000;NO
src/java/systest/org/apache/zookeeper/test/system/SimpleClient.java-4;116; 0.000;NO
src/java/systest/org/apache/zookeeper/test/system/SimpleSysTest.java-4;170; 0.000;NO
src/java/test/org/apache/zookeeper/server/CRCTest.java-4;153; 0.000;NO
src/java/test/org/apache/zookeeper/server/DataTreeUnitTest.java-4;56; 0.000;NO
src/java/test/org/apache/zookeeper/server/DeserializationPerfTest.java-4;106; 0.000;NO
src/java/test/org/apache/zookeeper/server/InvalidSnapshotTest.java-4;94; 0.000;NO
src/java/test/org/apache/zookeeper/server/SerializationPerfTest.java-4;113; 0.000;NO
src/java/test/org/apache/zookeeper/server/ToStringTest.java-4;38; 0.000;NO
src/java/test/org/apache/zookeeper/server/ZooKeeperServerTest.java-4;91; 0.000;NO
src/java/test/org/apache/zookeeper/test/ACLTest.java-4;152; 0.000;NO
src/java/test/org/apache/zookeeper/test/AsyncOps.java-4;504; 0.000;NO
src/java/test/org/apache/zookeeper/test/AsyncOpsTest.java-4;178; 0.000;NO
src/java/test/org/apache/zookeeper/test/AsyncTest.java-4;275; 0.000;NO
src/java/test/org/apache/zookeeper/test/ClientBase.java-4;377; 0.000;NO
src/java/test/org/apache/zookeeper/test/ClientTest.java-4;793; 0.000;NO
src/java/test/org/apache/zookeeper/test/CreateModeTest.java-4;81; 0.000;NO
src/java/test/org/apache/zookeeper/test/DataTreeTest.java-4;62; 0.000;NO
src/java/test/org/apache/zookeeper/test/DBSizeTest.java-4;84; 0.000;NO
src/java/test/org/apache/zookeeper/test/DisconnectableZooKeeper.java-4;54; 0.000;NO
src/java/test/org/apache/zookeeper/test/EventTypeTest.java-4;50; 0.000;NO
src/java/test/org/apache/zookeeper/test/FLENewEpochTest.java-4;179; 0.000;NO
src/java/test/org/apache/zookeeper/test/FLETest.java-4;316; 0.000;NO
src/java/test/org/apache/zookeeper/test/IntegrityCheck.java-4;232; 0.000;NO
src/java/test/org/apache/zookeeper/test/KeeperStateTest.java-4;76; 0.000;NO
src/java/test/org/apache/zookeeper/test/LETest.java-4;129; 0.000;NO
src/java/test/org/apache/zookeeper/test/NullDataTest.java-4;72; 0.000;NO
src/java/test/org/apache/zookeeper/test/OOMTest.java-4;149; 0.000;NO
src/java/test/org/apache/zookeeper/test/PurgeTxnTest.java-4;86; 0.000;NO
src/java/test/org/apache/zookeeper/test/QuorumBase.java-4;147; 0.000;NO
src/java/test/org/apache/zookeeper/test/QuorumQuotaTest.java-4;74; 0.000;NO
src/java/test/org/apache/zookeeper/test/QuorumTest.java-4;91; 0.000;NO
src/java/test/org/apache/zookeeper/test/RecoveryTest.java-4;210; 0.000;NO
src/java/test/org/apache/zookeeper/test/RepeatStartupTest.java-4;72; 0.000;NO
src/java/test/org/apache/zookeeper/test/SessionTest.java-4;234; 0.000;NO
src/java/test/org/apache/zookeeper/test/SledgeHammer.java-4;115; 0.000;NO
src/java/test/org/apache/zookeeper/test/StatTest.java-4;205; 0.000;NO
src/java/test/org/apache/zookeeper/test/SyncCallTest.java-4;96; 0.000;NO
src/java/test/org/apache/zookeeper/test/TestHammer.java-4;62; 0.000;NO
src/java/test/org/apache/zookeeper/test/UpgradeTest.java-4;107; 0.000;NO
src/java/test/org/apache/zookeeper/test/WatchedEventTest.java-4;95; 0.000;NO
src/java/test/org/apache/zookeeper/test/WatcherFuncTest.java-4;460; 0.000;NO
src/java/test/org/apache/zookeeper/test/WatcherTest.java-4;344; 0.000;NO
src/java/test/org/apache/zookeeper/test/ZooKeeperQuotaTest.java-4;81; 0.000;NO
src/java/test/org/apache/zookeeper/test/ZooKeeperTestClient.java-4;392; 0.000;NO
src/java/test/org/apache/zookeeper/TestableZooKeeper.java-4;72; 0.000;NO
