Project,Model,HighestC,SumC,Single
ARTEMIS,HP,1,0,0
ARTEMIS,IB1,0,0,1
ARTEMIS,IBk,0,0,1
ARTEMIS,J48,0,0,1
ARTEMIS,LOG,0,0,1
ARTEMIS,NB,0,0,1
ARTEMIS,RF,0,0,1
ARTEMIS,VFI,0,0,1
ARTEMIS,VP,0,0,1
DIRSERVER,HP,1,0,0
DIRSERVER,IB1,1,0,0
DIRSERVER,IBk,1,0,0
DIRSERVER,J48,0,0,1
DIRSERVER,LOG,1,0,0
DIRSERVER,NB,1,0,0
DIRSERVER,RF,1,0,0
DIRSERVER,VFI,0,0,1
DIRSERVER,VP,1,0,0
GROOVY,HP,1,0,0
GROOVY,IB1,1,0,0
GROOVY,IBk,1,0,0
GROOVY,J48,1,0,0
GROOVY,LOG,1,0,0
GROOVY,NB,1,0,0
GROOVY,RF,1,0,0
GROOVY,VFI,1,0,0
GROOVY,VP,1,0,0
MNG,HP,0,1,0
MNG,IB1,1,0,1
MNG,IBk,1,1,1
MNG,J48,0,1,1
MNG,LOG,0,1,1
MNG,NB,0,1,1
MNG,RF,0,1,1
MNG,VFI,0,1,1
MNG,VP,1,0,1
NUTCH,HP,1,0,0
NUTCH,IB1,1,0,1
NUTCH,IBk,1,0,0
NUTCH,J48,0,0,1
NUTCH,LOG,0,0,1
NUTCH,NB,0,0,1
NUTCH,RF,1,0,0
NUTCH,VFI,0,0,1
NUTCH,VP,0,0,1
OPENJPA,HP,0,1,0
OPENJPA,IB1,0,1,1
OPENJPA,IBk,0,1,0
OPENJPA,J48,0,1,1
OPENJPA,LOG,0,1,1
OPENJPA,NB,0,1,1
OPENJPA,RF,0,1,0
OPENJPA,VFI,0,1,0
OPENJPA,VP,0,1,0
QPID,HP,1,0,0
QPID,IB1,1,0,0
QPID,IBk,1,0,0
QPID,J48,1,0,0
QPID,LOG,1,0,0
QPID,NB,1,0,0
QPID,RF,1,0,0
QPID,VFI,1,0,1
QPID,VP,1,1,1
TIKA,HP,1,0,0
TIKA,IB1,1,0,0
TIKA,IBk,1,0,0
TIKA,J48,1,0,0
TIKA,LOG,1,0,0
TIKA,NB,1,0,0
TIKA,RF,1,0,0
TIKA,VFI,1,0,0
TIKA,VP,1,0,0
ZOOKEEPER,HP,0,0,1
ZOOKEEPER,IB1,0,0,1
ZOOKEEPER,IBk,0,0,1
ZOOKEEPER,J48,0,0,1
ZOOKEEPER,LOG,0,0,1
ZOOKEEPER,NB,0,0,1
ZOOKEEPER,RF,0,0,1
ZOOKEEPER,VFI,0,0,1
ZOOKEEPER,VP,0,0,1
