ID;Size;Predicted;Actual
src/main/groovy/lang/Binding.java-4;127; 0.407;NO
src/main/groovy/lang/Closure.java-4;566; 0.838;NO
src/main/groovy/lang/ClosureException.java-4;66; 0.087;NO
src/main/groovy/lang/CompilerConfig.java-4;91; 0.214;NO
src/main/groovy/lang/GroovyClassLoader.java-4;329; 0.789;NO
src/main/groovy/lang/GroovyObject.java-4;84; 0.176;NO
src/main/groovy/lang/GroovyObjectSupport.java-4;83; 0.170;NO
src/main/groovy/lang/GroovyRuntimeException.java-4;104; 0.288;NO
src/main/groovy/lang/GroovyShell.java-4;325; 0.787;NO
src/main/groovy/lang/GString.java-4;201; 0.650;NO
src/main/groovy/lang/IncorrectClosureArgumentsException.java-4;77; 0.140;NO
src/main/groovy/lang/IntRange.java-4;240; 0.714;YES
src/main/groovy/lang/MetaClass.java-4;1489; 0.746;NO
src/main/groovy/lang/MetaClassRegistry.java-4;161; 0.547;NO
src/main/groovy/lang/MetaMethod.java-4;231; 0.702;NO
src/main/groovy/lang/MetaProperty.java-4;95; 0.240;NO
src/main/groovy/lang/MissingClassException.java-4;75; 0.129;NO
src/main/groovy/lang/MissingMethodException.java-4;90; 0.210;NO
src/main/groovy/lang/MissingPropertyException.java-4;95; 0.240;NO
src/main/groovy/lang/NonEmptySequence.java-4;75; 0.129;NO
src/main/groovy/lang/ObjectRange.java-4;307; 0.776;NO
src/main/groovy/lang/Range.java-4;81; 0.160;NO
src/main/groovy/lang/ReadOnlyPropertyException.java-4;60; 0.064;NO
src/main/groovy/lang/Reference.java-4;107; 0.304;NO
src/main/groovy/lang/Script.java-4;142; 0.475;NO
src/main/groovy/lang/Sequence.java-4;251; 0.729;NO
src/main/groovy/lang/StringWriterIOException.java-4;65; 0.083;NO
src/main/groovy/lang/Tuple.java-4;117; 0.360;NO
src/main/groovy/lang/Writable.java-4;67; 0.091;NO
src/main/groovy/mock/ClosureConstraintMatcher.java-4;36; 0.008;NO
src/main/groovy/mock/GroovyMock.java-4;79; 0.148;NO
src/main/groovy/model/ClosureModel.java-4;108; 0.313;NO
src/main/groovy/model/DefaultTableColumn.java-4;107; 0.304;NO
src/main/groovy/model/DefaultTableModel.java-4;215; 0.678;NO
src/main/groovy/model/FormModel.java-4;76; 0.134;NO
src/main/groovy/model/NestedValueModel.java-4;57; 0.052;NO
src/main/groovy/model/PropertyModel.java-4;104; 0.288;NO
src/main/groovy/model/ValueHolder.java-4;123; 0.390;NO
src/main/groovy/model/ValueModel.java-4;59; 0.059;NO
src/main/groovy/servlet/GroovyServlet.java-4;162; 0.550;NO
src/main/groovy/sql/DataSet.java-4;204; 0.656;NO
src/main/groovy/sql/GroovyResultSet.java-4;168; 0.569;NO
src/main/groovy/sql/Sql.java-4;703; 0.838;YES
src/main/groovy/sql/SqlWhereVisitor.java-4;75; 0.129;NO
src/main/groovy/swing/impl/ComponentFacade.java-4;59; 0.059;NO
src/main/groovy/swing/impl/ContainerFacade.java-4;59; 0.059;NO
src/main/groovy/swing/impl/DefaultAction.java-4;79; 0.148;NO
src/main/groovy/swing/impl/Factory.java-4;62; 0.070;NO
src/main/groovy/swing/impl/Startable.java-4;58; 0.056;NO
src/main/groovy/swing/impl/TableLayout.java-4;109; 0.317;NO
src/main/groovy/swing/impl/TableLayoutCell.java-4;231; 0.702;NO
src/main/groovy/swing/impl/TableLayoutRow.java-4;111; 0.325;NO
src/main/groovy/swing/SwingBuilder.java-4;543; 0.837;NO
src/main/groovy/text/SimpleTemplateEngine.java-4;216; 0.678;NO
src/main/groovy/text/Template.java-4;48; 0.028;NO
src/main/groovy/text/TemplateEngine.java-4;66; 0.087;NO
src/main/groovy/ui/ConsoleSupport.java-4;124; 0.394;NO
src/main/groovy/ui/InteractiveShell.java-4;527; 0.836;NO
src/main/groovy/util/AntBuilder.java-4;463; 0.829;NO
src/main/groovy/util/Bitwise.java-4;17; 0.000;NO
src/main/groovy/util/BuilderSupport.java-4;167; 0.565;NO
src/main/groovy/util/CharsetToolkit.java-4;387; 0.812;NO
src/main/groovy/util/ClosureComparator.java-4;72; 0.113;NO
src/main/groovy/util/Expando.java-4;127; 0.407;NO
src/main/groovy/util/GroovyLog.java-4;87; 0.193;NO
src/main/groovy/util/GroovyMBean.java-4;162; 0.550;NO
src/main/groovy/util/GroovyScriptEngine.java-4;248; 0.725;NO
src/main/groovy/util/GroovyTestCase.java-4;236; 0.709;NO
src/main/groovy/util/GroovyTestSuite.java-4;105; 0.296;NO
src/main/groovy/util/IndentPrinter.java-4;118; 0.364;NO
src/main/groovy/util/MapEntry.java-4;112; 0.334;NO
src/main/groovy/util/Node.java-4;255; 0.733;NO
src/main/groovy/util/NodeBuilder.java-4;82; 0.166;NO
src/main/groovy/util/NodePrinter.java-4;160; 0.543;NO
src/main/groovy/util/OrderBy.java-4;106; 0.300;NO
src/main/groovy/util/Proxy.java-4;185; 0.617;NO
src/main/groovy/util/ResourceConnector.java-4;46; 0.023;NO
src/main/groovy/util/ResourceException.java-4;74; 0.123;NO
src/main/groovy/util/ScriptException.java-4;73; 0.118;NO
src/main/groovy/util/XmlParser.java-4;261; 0.738;NO
src/main/groovy/xml/DOMBuilder.java-4;166; 0.561;NO
src/main/groovy/xml/MarkupBuilder.java-4;219; 0.683;NO
src/main/groovy/xml/Namespace.java-4;95; 0.240;NO
src/main/groovy/xml/NamespaceBuilder.java-4;72; 0.113;NO
src/main/groovy/xml/QName.java-4;280; 0.756;YES
src/main/groovy/xml/SAXBuilder.java-4;164; 0.558;NO
src/main/org/codehaus/groovy/ant/FileIterator.java-4;194; 0.635;NO
src/main/org/codehaus/groovy/ant/FileScanner.java-4;126; 0.403;NO
src/main/org/codehaus/groovy/ant/Groovyc.java-4;409; 0.818;NO
src/main/org/codehaus/groovy/ast/ASTNode.java-4;110; 0.321;NO
src/main/org/codehaus/groovy/ast/ClassNode.java-4;667; 0.839;YES
src/main/org/codehaus/groovy/ast/CodeVisitorSupport.java-4;296; 0.769;NO
src/main/org/codehaus/groovy/ast/CompileUnit.java-4;136; 0.450;NO
src/main/org/codehaus/groovy/ast/ConstructorNode.java-4;98; 0.256;NO
src/main/org/codehaus/groovy/ast/expr/ArgumentListExpression.java-4;86; 0.186;YES
src/main/org/codehaus/groovy/ast/expr/ArrayExpression.java-4;139; 0.463;NO
src/main/org/codehaus/groovy/ast/expr/BinaryExpression.java-4;110; 0.321;NO
src/main/org/codehaus/groovy/ast/expr/BooleanExpression.java-4;79; 0.148;NO
src/main/org/codehaus/groovy/ast/expr/CastExpression.java-4;90; 0.210;NO
src/main/org/codehaus/groovy/ast/expr/ClassExpression.java-4;84; 0.176;NO
src/main/org/codehaus/groovy/ast/expr/ClosureExpression.java-4;105; 0.296;NO
src/main/org/codehaus/groovy/ast/expr/ConstantExpression.java-4;92; 0.221;NO
src/main/org/codehaus/groovy/ast/expr/ConstructorCallExpression.java-4;92; 0.221;NO
src/main/org/codehaus/groovy/ast/expr/Expression.java-4;80; 0.154;NO
src/main/org/codehaus/groovy/ast/expr/ExpressionTransformer.java-4;61; 0.067;NO
src/main/org/codehaus/groovy/ast/expr/FieldExpression.java-4;89; 0.203;NO
src/main/org/codehaus/groovy/ast/expr/GStringExpression.java-4;134; 0.442;NO
src/main/org/codehaus/groovy/ast/expr/ListExpression.java-4;111; 0.325;NO
src/main/org/codehaus/groovy/ast/expr/MapEntryExpression.java-4;86; 0.186;NO
src/main/org/codehaus/groovy/ast/expr/MapExpression.java-4;94; 0.232;NO
src/main/org/codehaus/groovy/ast/expr/MethodCallExpression.java-4;142; 0.475;NO
src/main/org/codehaus/groovy/ast/expr/NamedArgumentListExpression.java-4;69; 0.100;NO
src/main/org/codehaus/groovy/ast/expr/NegationExpression.java-4;66; 0.087;NO
src/main/org/codehaus/groovy/ast/expr/NotExpression.java-4;52; 0.037;NO
src/main/org/codehaus/groovy/ast/expr/PostfixExpression.java-4;95; 0.240;NO
src/main/org/codehaus/groovy/ast/expr/PrefixExpression.java-4;95; 0.240;NO
src/main/org/codehaus/groovy/ast/expr/PropertyExpression.java-4;104; 0.288;NO
src/main/org/codehaus/groovy/ast/expr/RangeExpression.java-4;90; 0.210;NO
src/main/org/codehaus/groovy/ast/expr/RegexExpression.java-4;77; 0.140;NO
src/main/org/codehaus/groovy/ast/expr/StaticMethodCallExpression.java-4;95; 0.240;NO
src/main/org/codehaus/groovy/ast/expr/TernaryExpression.java-4;106; 0.300;NO
src/main/org/codehaus/groovy/ast/expr/TupleExpression.java-4;117; 0.360;NO
src/main/org/codehaus/groovy/ast/expr/VariableExpression.java-4;104; 0.288;NO
src/main/org/codehaus/groovy/ast/FieldNode.java-4;129; 0.420;NO
src/main/org/codehaus/groovy/ast/GroovyClassVisitor.java-4;62; 0.070;NO
src/main/org/codehaus/groovy/ast/GroovyCodeVisitor.java-4;106; 0.300;NO
src/main/org/codehaus/groovy/ast/ImportNode.java-4;86; 0.186;NO
src/main/org/codehaus/groovy/ast/InnerClassNode.java-4;87; 0.193;NO
src/main/org/codehaus/groovy/ast/MetadataNode.java-4;103; 0.284;NO
src/main/org/codehaus/groovy/ast/MethodNode.java-4;131; 0.429;NO
src/main/org/codehaus/groovy/ast/MixinNode.java-4;75; 0.129;NO
src/main/org/codehaus/groovy/ast/ModuleNode.java-4;285; 0.761;YES
src/main/org/codehaus/groovy/ast/Parameter.java-4;129; 0.420;NO
src/main/org/codehaus/groovy/ast/PropertyNode.java-4;119; 0.368;NO
src/main/org/codehaus/groovy/ast/stmt/AssertStatement.java-4;87; 0.193;NO
src/main/org/codehaus/groovy/ast/stmt/BlockStatement.java-4;119; 0.368;NO
src/main/org/codehaus/groovy/ast/stmt/BreakStatement.java-4;76; 0.134;NO
src/main/org/codehaus/groovy/ast/stmt/CaseStatement.java-4;83; 0.170;NO
src/main/org/codehaus/groovy/ast/stmt/CatchStatement.java-4;84; 0.176;NO
src/main/org/codehaus/groovy/ast/stmt/ContinueStatement.java-4;76; 0.134;NO
src/main/org/codehaus/groovy/ast/stmt/DoWhileStatement.java-4;79; 0.148;NO
src/main/org/codehaus/groovy/ast/stmt/EmptyStatement.java-4;67; 0.091;NO
src/main/org/codehaus/groovy/ast/stmt/ExpressionStatement.java-4;85; 0.183;NO
src/main/org/codehaus/groovy/ast/stmt/ForStatement.java-4;92; 0.221;NO
src/main/org/codehaus/groovy/ast/stmt/IfStatement.java-4;86; 0.186;NO
src/main/org/codehaus/groovy/ast/stmt/ReturnStatement.java-4;81; 0.160;NO
src/main/org/codehaus/groovy/ast/stmt/Statement.java-4;76; 0.134;NO
src/main/org/codehaus/groovy/ast/stmt/SwitchStatement.java-4;109; 0.317;NO
src/main/org/codehaus/groovy/ast/stmt/SynchronizedStatement.java-4;79; 0.148;NO
src/main/org/codehaus/groovy/ast/stmt/ThrowStatement.java-4;73; 0.118;NO
src/main/org/codehaus/groovy/ast/stmt/TryCatchStatement.java-4;100; 0.267;NO
src/main/org/codehaus/groovy/ast/stmt/WhileStatement.java-4;79; 0.148;NO
src/main/org/codehaus/groovy/ast/Type.java-4;83; 0.170;NO
src/main/org/codehaus/groovy/ast/VariableScope.java-4;159; 0.539;NO
src/main/org/codehaus/groovy/bsf/CachingGroovyEngine.java-4;138; 0.459;NO
src/main/org/codehaus/groovy/bsf/GroovyEngine.java-4;202; 0.653;NO
src/main/org/codehaus/groovy/classgen/BlockScope.java-4;82; 0.166;NO
src/main/org/codehaus/groovy/classgen/BytecodeExpression.java-4;67; 0.091;NO
src/main/org/codehaus/groovy/classgen/BytecodeHelper.java-4;338; 0.794;NO
src/main/org/codehaus/groovy/classgen/ClassGenerator.java-4;2887; 0.462;NO
src/main/org/codehaus/groovy/classgen/ClassGeneratorException.java-4;64; 0.079;NO
src/main/org/codehaus/groovy/classgen/CodeVisitor.java-4;12; 0.000;NO
src/main/org/codehaus/groovy/classgen/CompilerFacade.java-4;175; 0.590;NO
src/main/org/codehaus/groovy/classgen/GeneratorContext.java-4;73; 0.118;NO
src/main/org/codehaus/groovy/classgen/MethodCaller.java-4;110; 0.321;NO
src/main/org/codehaus/groovy/classgen/ReflectorGenerator.java-4;290; 0.764;NO
src/main/org/codehaus/groovy/classgen/Variable.java-4;113; 0.338;NO
src/main/org/codehaus/groovy/classgen/VariableScopeCodeVisitor.java-4;183; 0.610;NO
src/main/org/codehaus/groovy/classgen/Verifier.java-4;508; 0.834;YES
src/main/org/codehaus/groovy/classgen/VerifierCodeVisitor.java-4;84; 0.176;NO
src/main/org/codehaus/groovy/GroovyException.java-4;79; 0.148;NO
src/main/org/codehaus/groovy/runtime/BigDecimalMath.java-4;62; 0.070;NO
src/main/org/codehaus/groovy/runtime/BigIntegerMath.java-4;38; 0.010;NO
src/main/org/codehaus/groovy/runtime/ClassExtender.java-4;117; 0.360;NO
src/main/org/codehaus/groovy/runtime/ClosureListener.java-4;95; 0.240;NO
src/main/org/codehaus/groovy/runtime/DefaultGroovyMethods.java-4;3653; 0.321;YES
src/main/org/codehaus/groovy/runtime/DefaultMethodKey.java-4;59; 0.059;NO
src/main/org/codehaus/groovy/runtime/FloatingPointMath.java-4;42; 0.016;NO
src/main/org/codehaus/groovy/runtime/IntegerMath.java-4;48; 0.028;NO
src/main/org/codehaus/groovy/runtime/Invoker.java-4;769; 0.835;NO
src/main/org/codehaus/groovy/runtime/InvokerHelper.java-4;493; 0.833;NO
src/main/org/codehaus/groovy/runtime/InvokerInvocationException.java-4;64; 0.079;NO
src/main/org/codehaus/groovy/runtime/IteratorClosureAdapter.java-4;40; 0.013;NO
src/main/org/codehaus/groovy/runtime/LongMath.java-4;48; 0.028;NO
src/main/org/codehaus/groovy/runtime/MethodClosure.java-4;47; 0.025;NO
src/main/org/codehaus/groovy/runtime/MethodHelper.java-4;68; 0.095;NO
src/main/org/codehaus/groovy/runtime/MethodKey.java-4;139; 0.463;NO
src/main/org/codehaus/groovy/runtime/NewStaticMetaMethod.java-4;102; 0.280;NO
src/main/org/codehaus/groovy/runtime/NumberMath.java-4;153; 0.520;YES
src/main/org/codehaus/groovy/runtime/ReflectionMetaMethod.java-4;58; 0.056;NO
src/main/org/codehaus/groovy/runtime/Reflector.java-4;56; 0.050;NO
src/main/org/codehaus/groovy/runtime/ScriptReference.java-4;74; 0.123;NO
src/main/org/codehaus/groovy/runtime/StringBufferWriter.java-4;120; 0.373;NO
src/main/org/codehaus/groovy/runtime/TemporaryMethodKey.java-4;66; 0.087;NO
src/main/org/codehaus/groovy/runtime/TransformMetaMethod.java-4;58; 0.056;NO
src/main/org/codehaus/groovy/syntax/AbstractTokenStream.java-4;197; 0.641;NO
src/main/org/codehaus/groovy/syntax/lexer/AbstractCharStream.java-4;22; 0.001;NO
src/main/org/codehaus/groovy/syntax/lexer/CharStream.java-4;85; 0.183;NO
src/main/org/codehaus/groovy/syntax/lexer/FileCharStream.java-4;58; 0.056;NO
src/main/org/codehaus/groovy/syntax/lexer/InputStreamCharStream.java-4;54; 0.044;NO
src/main/org/codehaus/groovy/syntax/lexer/Lexer.java-4;1087; 0.806;NO
src/main/org/codehaus/groovy/syntax/lexer/LexerException.java-4;67; 0.091;NO
src/main/org/codehaus/groovy/syntax/lexer/LexerTokenStream.java-4;46; 0.023;NO
src/main/org/codehaus/groovy/syntax/lexer/ReaderCharStream.java-4;54; 0.044;NO
src/main/org/codehaus/groovy/syntax/lexer/StringCharStream.java-4;35; 0.007;NO
src/main/org/codehaus/groovy/syntax/lexer/UnexpectedCharacterException.java-4;46; 0.023;NO
src/main/org/codehaus/groovy/syntax/lexer/UnterminatedStringLiteralException.java-4;7; 0.000;NO
src/main/org/codehaus/groovy/syntax/LookAheadExhaustionError.java-4;28; 0.003;NO
src/main/org/codehaus/groovy/syntax/parser/ASTBuilder.java-4;1354; 0.769;NO
src/main/org/codehaus/groovy/syntax/parser/CSTNode.java-4;224; 0.693;NO
src/main/org/codehaus/groovy/syntax/parser/Parser.java-4;3388; 0.364;NO
src/main/org/codehaus/groovy/syntax/parser/ParserException.java-4;11; 0.000;NO
src/main/org/codehaus/groovy/syntax/parser/RuntimeParserException.java-4;41; 0.015;NO
src/main/org/codehaus/groovy/syntax/parser/UnexpectedTokenException.java-4;84; 0.176;NO
src/main/org/codehaus/groovy/syntax/ReadException.java-4;46; 0.023;NO
src/main/org/codehaus/groovy/syntax/SyntaxException.java-4;111; 0.325;NO
src/main/org/codehaus/groovy/syntax/Token.java-4;1341; 0.770;NO
src/main/org/codehaus/groovy/syntax/TokenException.java-4;34; 0.007;YES
src/main/org/codehaus/groovy/syntax/TokenMismatchException.java-4;20; 0.000;NO
src/main/org/codehaus/groovy/syntax/TokenStream.java-4;146; 0.492;NO
src/main/org/codehaus/groovy/tools/CompilationFailuresException.java-4;253; 0.731;NO
src/main/org/codehaus/groovy/tools/Compiler.java-4;361; 0.803;NO
src/main/org/codehaus/groovy/tools/CompilerBugException.java-4;68; 0.095;NO
src/main/org/codehaus/groovy/tools/CompilerClassLoader.java-4;23; 0.001;NO
src/main/org/codehaus/groovy/tools/ErrorReporter.java-4;590; 0.839;NO
src/main/org/codehaus/groovy/tools/ExceptionCollector.java-4;326; 0.787;NO
src/main/org/codehaus/groovy/tools/FileSystemCompiler.java-4;234; 0.707;NO
src/main/org/codehaus/groovy/tools/Grok.java-4;15; 0.000;NO
src/main/org/codehaus/groovy/tools/GroovyClass.java-4;27; 0.002;NO
src/main/org/codehaus/groovy/tools/MultiException.java-4;79; 0.148;NO
src/main/org/codehaus/groovy/tools/StringCompiler.java-4;32; 0.005;NO
src/main/org/codehaus/groovy/tools/xml/DomToGroovy.java-4;340; 0.794;NO
src/main/org/codehaus/groovy/wiki/TestCaseRenderEngine.java-4;149; 0.504;NO
src/main/org/codehaus/groovy/wiki/Wiki2Markup.java-4;362; 0.803;NO
src/main/org/codehaus/groovy/wiki/Wiki2TestCase.java-4;80; 0.154;NO
src/test/groovy/bugs/ClassInScriptBug.java-4;61; 0.067;NO
src/test/groovy/bugs/ClosuresInScriptBug.java-4;61; 0.067;NO
src/test/groovy/bugs/IanMaceysBug.java-4;67; 0.091;NO
src/test/groovy/bugs/MarkupInScriptBug.java-4;60; 0.064;NO
src/test/groovy/bugs/SeansBug.java-4;93; 0.225;NO
src/test/groovy/bugs/SimpleModel.java-4;68; 0.095;NO
src/test/groovy/bugs/TestSupport.java-4;83; 0.170;NO
src/test/groovy/DummyInterface.java-4;6; 0.000;NO
src/test/groovy/j2ee/J2eeConsole.java-4;109; 0.317;NO
src/test/groovy/lang/DerivedScript.java-4;50; 0.033;NO
src/test/groovy/lang/DummyGString.java-4;88; 0.200;NO
src/test/groovy/lang/GroovyShellTest.java-4;98; 0.256;NO
src/test/groovy/lang/GStringTest.java-4;122; 0.386;NO
src/test/groovy/lang/IntRangeTest.java-4;150; 0.508;NO
src/test/groovy/lang/MetaClassTest.java-4;93; 0.225;NO
src/test/groovy/lang/MockWriter.java-4;81; 0.160;NO
src/test/groovy/lang/RangeTest.java-4;149; 0.504;NO
src/test/groovy/lang/ScriptPrintTest.java-4;64; 0.079;NO
src/test/groovy/lang/SequenceTest.java-4;104; 0.288;NO
src/test/groovy/lang/TupleTest.java-4;114; 0.343;NO
src/test/groovy/swing/Demo.java-4;65; 0.083;NO
src/test/groovy/swing/MyTableModel.java-4;106; 0.300;NO
src/test/groovy/text/TemplateTest.java-4;62; 0.070;NO
src/test/groovy/tree/NodePrinterTest.java-4;96; 0.244;NO
src/test/groovy/txn/TransactionBean.java-4;37; 0.009;NO
src/test/groovy/txn/TransactionBuilder.java-4;24; 0.001;NO
src/test/groovy/util/Dummy.java-4;94; 0.232;NO
src/test/groovy/util/DummyMBean.java-4;57; 0.052;NO
src/test/groovy/util/EmptyScriptTest.java-4;60; 0.064;NO
src/test/groovy/util/MBeanTest.java-4;84; 0.176;NO
src/test/groovy/util/NodeTest.java-4;138; 0.459;NO
src/test/groovy/xml/TestXmlSupport.java-4;83; 0.170;NO
src/test/groovy/xml/XmlTest.java-4;64; 0.079;NO
src/test/org/codehaus/groovy/ast/ClassNodeTest.java-4;83; 0.170;NO
src/test/org/codehaus/groovy/ast/ModuleNodeTest.java-4;72; 0.113;NO
src/test/org/codehaus/groovy/bsf/BSFTest.java-4;138; 0.459;NO
src/test/org/codehaus/groovy/bsf/CacheBSFTest.java-4;127; 0.407;NO
src/test/org/codehaus/groovy/classgen/BytecodeHelperTest.java-4;72; 0.113;NO
src/test/org/codehaus/groovy/classgen/CapitalizeTest.java-4;66; 0.087;NO
src/test/org/codehaus/groovy/classgen/ConstructorTest.java-4;64; 0.079;NO
src/test/org/codehaus/groovy/classgen/DerivedBean.java-4;67; 0.091;NO
src/test/org/codehaus/groovy/classgen/DummyReflector.java-4;98; 0.256;NO
src/test/org/codehaus/groovy/classgen/DummyTestDerivation.java-4;60; 0.064;NO
src/test/org/codehaus/groovy/classgen/DumpClass.java-4;255; 0.733;NO
src/test/org/codehaus/groovy/classgen/DumpClass2.java-4;94; 0.232;NO
src/test/org/codehaus/groovy/classgen/DumpClass3.java-4;102; 0.280;NO
src/test/org/codehaus/groovy/classgen/DumpClass4.java-4;155; 0.527;NO
src/test/org/codehaus/groovy/classgen/DumpingClassLoader.java-4;109; 0.317;NO
src/test/org/codehaus/groovy/classgen/ForTest.java-4;100; 0.267;NO
src/test/org/codehaus/groovy/classgen/GetPropertyTest.java-4;71; 0.109;NO
src/test/org/codehaus/groovy/classgen/GroovyClassLoaderTest.java-4;84; 0.176;NO
src/test/org/codehaus/groovy/classgen/GStringTest.java-4;132; 0.433;NO
src/test/org/codehaus/groovy/classgen/IfElseTest.java-4;119; 0.368;NO
src/test/org/codehaus/groovy/classgen/MainTest.java-4;64; 0.079;NO
src/test/org/codehaus/groovy/classgen/MethodTest.java-4;102; 0.280;NO
src/test/org/codehaus/groovy/classgen/PropertyTest.java-4;109; 0.317;NO
src/test/org/codehaus/groovy/classgen/ReflectorGeneratorTest.java-4;116; 0.355;NO
src/test/org/codehaus/groovy/classgen/RunBugsTest.java-4;132; 0.433;NO
src/test/org/codehaus/groovy/classgen/RunClosureTest.java-4;111; 0.325;NO
src/test/org/codehaus/groovy/classgen/RunGroovyTest.java-4;97; 0.248;NO
src/test/org/codehaus/groovy/classgen/SimpleBean.java-4;79; 0.148;NO
src/test/org/codehaus/groovy/classgen/TestSupport.java-4;199; 0.647;NO
src/test/org/codehaus/groovy/classgen/TupleListTest.java-4;134; 0.442;NO
src/test/org/codehaus/groovy/dummy/FooHandler.java-4;11; 0.000;NO
src/test/org/codehaus/groovy/runtime/DefaultGroovyMethodsTest.java-4;89; 0.203;NO
src/test/org/codehaus/groovy/runtime/DummyBean.java-4;136; 0.450;NO
src/test/org/codehaus/groovy/runtime/InheritedInterfaceMethodTest.java-4;66; 0.087;NO
src/test/org/codehaus/groovy/runtime/InvokeConstructorTest.java-4;100; 0.267;NO
src/test/org/codehaus/groovy/runtime/InvokeGroovyMethodTest.java-4;120; 0.373;NO
src/test/org/codehaus/groovy/runtime/InvokeMethodTest.java-4;448; 0.826;NO
src/test/org/codehaus/groovy/runtime/InvokerTest.java-4;168; 0.569;NO
src/test/org/codehaus/groovy/runtime/MethodFailureTest.java-4;104; 0.288;NO
src/test/org/codehaus/groovy/runtime/MethodKeyTest.java-4;92; 0.221;NO
src/test/org/codehaus/groovy/runtime/MockGroovyObject.java-4;68; 0.095;NO
src/test/org/codehaus/groovy/runtime/NewStaticMetaMethodTest.java-4;98; 0.256;NO
src/test/org/codehaus/groovy/runtime/PropertyTest.java-4;255; 0.733;NO
src/test/org/codehaus/groovy/runtime/TupleListTest.java-4;94; 0.232;NO
src/test/org/codehaus/groovy/syntax/AbstractTokenStreamTest.java-4;257; 0.735;NO
src/test/org/codehaus/groovy/syntax/lexer/AbstractCharStreamTest.java-4;137; 0.454;NO
src/test/org/codehaus/groovy/syntax/lexer/LexerTest.java-4;704; 0.838;NO
src/test/org/codehaus/groovy/syntax/lexer/LexerTokenStreamTest.java-4;48; 0.028;NO
src/test/org/codehaus/groovy/syntax/lexer/StringCharStreamTest.java-4;41; 0.015;NO
src/test/org/codehaus/groovy/syntax/parser/ASTBuilderTest.java-4;512; 0.834;NO
src/test/org/codehaus/groovy/syntax/parser/CompilerErrorTest.java-4;114; 0.343;NO
src/test/org/codehaus/groovy/syntax/parser/CSTNodeTest.java-4;60; 0.064;NO
src/test/org/codehaus/groovy/syntax/parser/ParserTest.java-4;1103; 0.804;NO
src/test/org/codehaus/groovy/syntax/parser/TestParserSupport.java-4;67; 0.091;NO
src/test/org/codehaus/groovy/syntax/TokenTest.java-4;750; 0.836;NO
src/test/org/codehaus/groovy/tools/CompilerTest.java-4;90; 0.210;NO
src/test/org/codehaus/groovy/tools/DocGeneratorMain.java-4;20; 0.000;NO
src/test/org/codehaus/groovy/tools/FileSystemCompilerTest.java-4;87; 0.193;NO
src/test/org/codehaus/groovy/tools/FindAllTestsSuite.java-4;138; 0.459;NO
src/test/org/codehaus/groovy/tools/xml/DomToGroovyTest.java-4;107; 0.304;NO
src/test/org/codehaus/groovy/wiki/RunHtml2WikiTest.java-4;71; 0.109;NO
src/test/org/codehaus/groovy/wiki/RunWikiTest.java-4;69; 0.100;NO
src/test/org/codehaus/groovy/wiki/TestCaseRenderEngineTest.java-4;86; 0.186;NO
src/main/groovy/lang/Binding.java-5;127; 0.407;NO
src/main/groovy/lang/Closure.java-5;612; 0.839;NO
src/main/groovy/lang/ClosureException.java-5;66; 0.087;NO
src/main/groovy/lang/GroovyClassLoader.java-5;501; 0.833;NO
src/main/groovy/lang/GroovyCodeSource.java-5;119; 0.368;NO
src/main/groovy/lang/GroovyObject.java-5;84; 0.176;NO
src/main/groovy/lang/GroovyObjectSupport.java-5;83; 0.170;NO
src/main/groovy/lang/GroovyRuntimeException.java-5;104; 0.288;NO
src/main/groovy/lang/GroovyShell.java-5;399; 0.816;NO
src/main/groovy/lang/GString.java-5;199; 0.647;NO
src/main/groovy/lang/IncorrectClosureArgumentsException.java-5;77; 0.140;NO
src/main/groovy/lang/IntRange.java-5;240; 0.714;NO
src/main/groovy/lang/MetaClass.java-5;1686; 0.711;NO
src/main/groovy/lang/MetaClassRegistry.java-5;174; 0.586;NO
src/main/groovy/lang/MetaMethod.java-5;236; 0.709;NO
src/main/groovy/lang/MetaProperty.java-5;95; 0.240;NO
src/main/groovy/lang/MissingClassException.java-5;75; 0.129;NO
src/main/groovy/lang/MissingMethodException.java-5;92; 0.221;NO
src/main/groovy/lang/MissingPropertyException.java-5;95; 0.240;NO
src/main/groovy/lang/NonEmptySequence.java-5;75; 0.129;NO
src/main/groovy/lang/ObjectRange.java-5;307; 0.776;NO
src/main/groovy/lang/Range.java-5;81; 0.160;NO
src/main/groovy/lang/ReadOnlyPropertyException.java-5;60; 0.064;NO
src/main/groovy/lang/Reference.java-5;107; 0.304;NO
src/main/groovy/lang/Script.java-5;176; 0.590;NO
src/main/groovy/lang/Sequence.java-5;251; 0.729;NO
src/main/groovy/lang/StringWriterIOException.java-5;65; 0.083;NO
src/main/groovy/lang/Tuple.java-5;117; 0.360;NO
src/main/groovy/lang/Writable.java-5;67; 0.091;NO
src/main/groovy/mock/ClosureConstraintMatcher.java-5;36; 0.008;NO
src/main/groovy/mock/GroovyMock.java-5;79; 0.148;NO
src/main/groovy/model/ClosureModel.java-5;108; 0.313;NO
src/main/groovy/model/DefaultTableColumn.java-5;107; 0.304;NO
src/main/groovy/model/DefaultTableModel.java-5;215; 0.678;NO
src/main/groovy/model/FormModel.java-5;76; 0.134;NO
src/main/groovy/model/NestedValueModel.java-5;57; 0.052;NO
src/main/groovy/model/PropertyModel.java-5;104; 0.288;NO
src/main/groovy/model/ValueHolder.java-5;123; 0.390;NO
src/main/groovy/model/ValueModel.java-5;59; 0.059;NO
src/main/groovy/security/GroovyCodeSourcePermission.java-5;22; 0.001;NO
src/main/groovy/servlet/GroovyServlet.java-5;165; 0.558;NO
src/main/groovy/servlet/ServletCategory.java-5;41; 0.015;NO
src/main/groovy/servlet/TemplateServlet.java-5;548; 0.837;NO
src/main/groovy/sql/DataSet.java-5;207; 0.662;NO
src/main/groovy/sql/GroovyResultSet.java-5;2600; 0.523;NO
src/main/groovy/sql/Sql.java-5;722; 0.837;NO
src/main/groovy/sql/SqlWhereVisitor.java-5;76; 0.134;NO
src/main/groovy/swing/impl/ComponentFacade.java-5;59; 0.059;NO
src/main/groovy/swing/impl/ContainerFacade.java-5;59; 0.059;NO
src/main/groovy/swing/impl/DefaultAction.java-5;79; 0.148;NO
src/main/groovy/swing/impl/Factory.java-5;62; 0.070;NO
src/main/groovy/swing/impl/Startable.java-5;58; 0.056;NO
src/main/groovy/swing/impl/TableLayout.java-5;109; 0.317;NO
src/main/groovy/swing/impl/TableLayoutCell.java-5;231; 0.702;NO
src/main/groovy/swing/impl/TableLayoutRow.java-5;111; 0.325;NO
src/main/groovy/swing/SwingBuilder.java-5;578; 0.838;NO
src/main/groovy/text/GStringTemplateEngine.java-5;263; 0.740;NO
src/main/groovy/text/SimpleTemplateEngine.java-5;219; 0.683;NO
src/main/groovy/text/Template.java-5;48; 0.028;NO
src/main/groovy/text/TemplateEngine.java-5;66; 0.087;NO
src/main/groovy/ui/ConsoleSupport.java-5;124; 0.394;NO
src/main/groovy/ui/InteractiveShell.java-5;509; 0.834;NO
src/main/groovy/util/AntBuilder.java-5;469; 0.830;NO
src/main/groovy/util/BuilderSupport.java-5;198; 0.644;NO
src/main/groovy/util/CharsetToolkit.java-5;387; 0.812;NO
src/main/groovy/util/ClosureComparator.java-5;72; 0.113;NO
src/main/groovy/util/Expando.java-5;127; 0.407;NO
src/main/groovy/util/GroovyLog.java-5;87; 0.193;NO
src/main/groovy/util/GroovyMBean.java-5;162; 0.550;NO
src/main/groovy/util/GroovyScriptEngine.java-5;256; 0.733;NO
src/main/groovy/util/GroovyTestCase.java-5;259; 0.737;NO
src/main/groovy/util/GroovyTestSuite.java-5;105; 0.296;NO
src/main/groovy/util/IndentPrinter.java-5;118; 0.364;NO
src/main/groovy/util/MapEntry.java-5;112; 0.334;NO
src/main/groovy/util/Node.java-5;259; 0.737;NO
src/main/groovy/util/NodeBuilder.java-5;86; 0.186;NO
src/main/groovy/util/NodePrinter.java-5;160; 0.543;NO
src/main/groovy/util/OrderBy.java-5;106; 0.300;NO
src/main/groovy/util/Proxy.java-5;185; 0.617;NO
src/main/groovy/util/ResourceConnector.java-5;46; 0.023;NO
src/main/groovy/util/ResourceException.java-5;74; 0.123;NO
src/main/groovy/util/ScriptException.java-5;73; 0.118;NO
src/main/groovy/util/XmlParser.java-5;290; 0.764;NO
src/main/groovy/xml/dom/DOMCategory.java-5;76; 0.134;NO
src/main/groovy/xml/DOMBuilder.java-5;213; 0.672;NO
src/main/groovy/xml/MarkupBuilder.java-5;224; 0.693;NO
src/main/groovy/xml/Namespace.java-5;99; 0.260;NO
src/main/groovy/xml/NamespaceBuilder.java-5;72; 0.113;NO
src/main/groovy/xml/QName.java-5;280; 0.756;NO
src/main/groovy/xml/SAXBuilder.java-5;184; 0.613;NO
src/main/org/codehaus/groovy/ant/FileIterator.java-5;194; 0.635;NO
src/main/org/codehaus/groovy/ant/FileScanner.java-5;126; 0.403;NO
src/main/org/codehaus/groovy/ant/Groovyc.java-5;439; 0.824;NO
src/main/org/codehaus/groovy/ast/ASTNode.java-5;110; 0.321;NO
src/main/org/codehaus/groovy/ast/ClassNode.java-5;767; 0.835;NO
src/main/org/codehaus/groovy/ast/CodeVisitorSupport.java-5;297; 0.769;NO
src/main/org/codehaus/groovy/ast/CompileUnit.java-5;205; 0.659;NO
src/main/org/codehaus/groovy/ast/ConstructorNode.java-5;98; 0.256;NO
src/main/org/codehaus/groovy/ast/expr/ArgumentListExpression.java-5;86; 0.186;NO
src/main/org/codehaus/groovy/ast/expr/ArrayExpression.java-5;139; 0.463;NO
src/main/org/codehaus/groovy/ast/expr/BinaryExpression.java-5;144; 0.483;NO
src/main/org/codehaus/groovy/ast/expr/BooleanExpression.java-5;79; 0.148;NO
src/main/org/codehaus/groovy/ast/expr/CastExpression.java-5;90; 0.210;NO
src/main/org/codehaus/groovy/ast/expr/ClassExpression.java-5;84; 0.176;NO
src/main/org/codehaus/groovy/ast/expr/ClosureExpression.java-5;105; 0.296;NO
src/main/org/codehaus/groovy/ast/expr/ConstantExpression.java-5;92; 0.221;NO
src/main/org/codehaus/groovy/ast/expr/ConstructorCallExpression.java-5;92; 0.221;NO
src/main/org/codehaus/groovy/ast/expr/Expression.java-5;80; 0.154;NO
src/main/org/codehaus/groovy/ast/expr/ExpressionTransformer.java-5;61; 0.067;NO
src/main/org/codehaus/groovy/ast/expr/FieldExpression.java-5;89; 0.203;NO
src/main/org/codehaus/groovy/ast/expr/GStringExpression.java-5;134; 0.442;NO
src/main/org/codehaus/groovy/ast/expr/ListExpression.java-5;111; 0.325;NO
src/main/org/codehaus/groovy/ast/expr/MapEntryExpression.java-5;86; 0.186;NO
src/main/org/codehaus/groovy/ast/expr/MapExpression.java-5;94; 0.232;NO
src/main/org/codehaus/groovy/ast/expr/MethodCallExpression.java-5;142; 0.475;NO
src/main/org/codehaus/groovy/ast/expr/NamedArgumentListExpression.java-5;69; 0.100;NO
src/main/org/codehaus/groovy/ast/expr/NegationExpression.java-5;66; 0.087;NO
src/main/org/codehaus/groovy/ast/expr/NotExpression.java-5;52; 0.037;NO
src/main/org/codehaus/groovy/ast/expr/PostfixExpression.java-5;95; 0.240;NO
src/main/org/codehaus/groovy/ast/expr/PrefixExpression.java-5;95; 0.240;NO
src/main/org/codehaus/groovy/ast/expr/PropertyExpression.java-5;104; 0.288;NO
src/main/org/codehaus/groovy/ast/expr/RangeExpression.java-5;90; 0.210;NO
src/main/org/codehaus/groovy/ast/expr/RegexExpression.java-5;77; 0.140;NO
src/main/org/codehaus/groovy/ast/expr/StaticMethodCallExpression.java-5;95; 0.240;NO
src/main/org/codehaus/groovy/ast/expr/TernaryExpression.java-5;106; 0.300;NO
src/main/org/codehaus/groovy/ast/expr/TupleExpression.java-5;117; 0.360;NO
src/main/org/codehaus/groovy/ast/expr/VariableExpression.java-5;107; 0.304;NO
src/main/org/codehaus/groovy/ast/FieldNode.java-5;133; 0.437;NO
src/main/org/codehaus/groovy/ast/GroovyClassVisitor.java-5;62; 0.070;NO
src/main/org/codehaus/groovy/ast/GroovyCodeVisitor.java-5;106; 0.300;NO
src/main/org/codehaus/groovy/ast/ImportNode.java-5;86; 0.186;NO
src/main/org/codehaus/groovy/ast/InnerClassNode.java-5;87; 0.193;NO
src/main/org/codehaus/groovy/ast/MetadataNode.java-5;103; 0.284;NO
src/main/org/codehaus/groovy/ast/MethodNode.java-5;139; 0.463;NO
src/main/org/codehaus/groovy/ast/MixinNode.java-5;75; 0.129;NO
src/main/org/codehaus/groovy/ast/ModuleNode.java-5;301; 0.772;NO
src/main/org/codehaus/groovy/ast/Parameter.java-5;129; 0.420;NO
src/main/org/codehaus/groovy/ast/PropertyNode.java-5;119; 0.368;NO
src/main/org/codehaus/groovy/ast/stmt/AssertStatement.java-5;87; 0.193;NO
src/main/org/codehaus/groovy/ast/stmt/BlockStatement.java-5;119; 0.368;NO
src/main/org/codehaus/groovy/ast/stmt/BreakStatement.java-5;76; 0.134;NO
src/main/org/codehaus/groovy/ast/stmt/CaseStatement.java-5;83; 0.170;NO
src/main/org/codehaus/groovy/ast/stmt/CatchStatement.java-5;84; 0.176;NO
src/main/org/codehaus/groovy/ast/stmt/ContinueStatement.java-5;76; 0.134;NO
src/main/org/codehaus/groovy/ast/stmt/DoWhileStatement.java-5;79; 0.148;NO
src/main/org/codehaus/groovy/ast/stmt/EmptyStatement.java-5;67; 0.091;NO
src/main/org/codehaus/groovy/ast/stmt/ExpressionStatement.java-5;85; 0.183;NO
src/main/org/codehaus/groovy/ast/stmt/ForStatement.java-5;92; 0.221;NO
src/main/org/codehaus/groovy/ast/stmt/IfStatement.java-5;86; 0.186;NO
src/main/org/codehaus/groovy/ast/stmt/ReturnStatement.java-5;81; 0.160;NO
src/main/org/codehaus/groovy/ast/stmt/Statement.java-5;76; 0.134;NO
src/main/org/codehaus/groovy/ast/stmt/SwitchStatement.java-5;109; 0.317;NO
src/main/org/codehaus/groovy/ast/stmt/SynchronizedStatement.java-5;79; 0.148;NO
src/main/org/codehaus/groovy/ast/stmt/ThrowStatement.java-5;73; 0.118;NO
src/main/org/codehaus/groovy/ast/stmt/TryCatchStatement.java-5;100; 0.267;NO
src/main/org/codehaus/groovy/ast/stmt/WhileStatement.java-5;79; 0.148;NO
src/main/org/codehaus/groovy/ast/Type.java-5;83; 0.170;NO
src/main/org/codehaus/groovy/ast/VariableScope.java-5;159; 0.539;NO
src/main/org/codehaus/groovy/bsf/CachingGroovyEngine.java-5;146; 0.492;NO
src/main/org/codehaus/groovy/bsf/GroovyEngine.java-5;202; 0.653;NO
src/main/org/codehaus/groovy/classgen/BlockScope.java-5;91; 0.214;NO
src/main/org/codehaus/groovy/classgen/BytecodeExpression.java-5;67; 0.091;NO
src/main/org/codehaus/groovy/classgen/BytecodeHelper.java-5;341; 0.795;NO
src/main/org/codehaus/groovy/classgen/ClassGenerator.java-5;3246; 0.390;NO
src/main/org/codehaus/groovy/classgen/ClassGeneratorException.java-5;64; 0.079;NO
src/main/org/codehaus/groovy/classgen/CodeVisitor.java-5;12; 0.000;NO
src/main/org/codehaus/groovy/classgen/GeneratorContext.java-5;73; 0.118;NO
src/main/org/codehaus/groovy/classgen/MethodCaller.java-5;110; 0.321;NO
src/main/org/codehaus/groovy/classgen/ReflectorGenerator.java-5;290; 0.764;NO
src/main/org/codehaus/groovy/classgen/Variable.java-5;114; 0.343;NO
src/main/org/codehaus/groovy/classgen/VariableScopeCodeVisitor.java-5;185; 0.617;NO
src/main/org/codehaus/groovy/classgen/Verifier.java-5;514; 0.835;NO
src/main/org/codehaus/groovy/classgen/VerifierCodeVisitor.java-5;84; 0.176;NO
src/main/org/codehaus/groovy/control/CompilationFailedException.java-5;124; 0.394;NO
src/main/org/codehaus/groovy/control/CompilationUnit.java-5;977; 0.818;NO
src/main/org/codehaus/groovy/control/CompilerClassLoader.java-5;23; 0.001;NO
src/main/org/codehaus/groovy/control/CompilerConfiguration.java-5;487; 0.832;NO
src/main/org/codehaus/groovy/control/ConfigurationException.java-5;123; 0.390;NO
src/main/org/codehaus/groovy/control/HasCleanup.java-5;68; 0.095;NO
src/main/org/codehaus/groovy/control/io/AbstractReaderSource.java-5;177; 0.593;NO
src/main/org/codehaus/groovy/control/io/FileReaderSource.java-5;109; 0.317;NO
src/main/org/codehaus/groovy/control/io/InputStreamReaderSource.java-5;119; 0.368;NO
src/main/org/codehaus/groovy/control/io/NullWriter.java-5;69; 0.100;NO
src/main/org/codehaus/groovy/control/io/ReaderSource.java-5;101; 0.272;NO
src/main/org/codehaus/groovy/control/io/StringReaderSource.java-5;97; 0.248;NO
src/main/org/codehaus/groovy/control/io/URLReaderSource.java-5;97; 0.248;NO
src/main/org/codehaus/groovy/control/Janitor.java-5;89; 0.203;NO
src/main/org/codehaus/groovy/control/messages/ExceptionMessage.java-5;65; 0.083;NO
src/main/org/codehaus/groovy/control/messages/LocatedMessage.java-5;61; 0.067;NO
src/main/org/codehaus/groovy/control/messages/Message.java-5;84; 0.176;NO
src/main/org/codehaus/groovy/control/messages/SimpleMessage.java-5;60; 0.064;NO
src/main/org/codehaus/groovy/control/messages/SyntaxErrorMessage.java-5;67; 0.091;NO
src/main/org/codehaus/groovy/control/messages/WarningMessage.java-5;102; 0.280;NO
src/main/org/codehaus/groovy/control/Phases.java-5;101; 0.272;NO
src/main/org/codehaus/groovy/control/ProcessingUnit.java-5;511; 0.834;NO
src/main/org/codehaus/groovy/control/SourceUnit.java-5;445; 0.825;NO
src/main/org/codehaus/groovy/GroovyBugError.java-5;40; 0.013;NO
src/main/org/codehaus/groovy/GroovyException.java-5;79; 0.148;NO
src/main/org/codehaus/groovy/GroovyExceptionInterface.java-5;58; 0.056;NO
src/main/org/codehaus/groovy/runtime/BigDecimalMath.java-5;65; 0.083;NO
src/main/org/codehaus/groovy/runtime/BigIntegerMath.java-5;53; 0.040;NO
src/main/org/codehaus/groovy/runtime/ClassExtender.java-5;117; 0.360;NO
src/main/org/codehaus/groovy/runtime/ClosureListener.java-5;95; 0.240;NO
src/main/org/codehaus/groovy/runtime/DefaultGroovyMethods.java-5;3852; 0.287;NO
src/main/org/codehaus/groovy/runtime/DefaultGroovyStaticMethods.java-5;78; 0.145;NO
src/main/org/codehaus/groovy/runtime/DefaultMethodKey.java-5;59; 0.059;NO
src/main/org/codehaus/groovy/runtime/FloatingPointMath.java-5;50; 0.033;NO
src/main/org/codehaus/groovy/runtime/FlushingStreamWriter.java-5;40; 0.013;NO
src/main/org/codehaus/groovy/runtime/GroovyCategorySupport.java-5;225; 0.693;NO
src/main/org/codehaus/groovy/runtime/IntegerMath.java-5;75; 0.129;NO
src/main/org/codehaus/groovy/runtime/Invoker.java-5;839; 0.830;NO
src/main/org/codehaus/groovy/runtime/InvokerHelper.java-5;550; 0.837;NO
src/main/org/codehaus/groovy/runtime/InvokerInvocationException.java-5;64; 0.079;NO
src/main/org/codehaus/groovy/runtime/IteratorClosureAdapter.java-5;40; 0.013;NO
src/main/org/codehaus/groovy/runtime/LongMath.java-5;75; 0.129;NO
src/main/org/codehaus/groovy/runtime/MethodClosure.java-5;47; 0.025;NO
src/main/org/codehaus/groovy/runtime/MethodHelper.java-5;68; 0.095;NO
src/main/org/codehaus/groovy/runtime/MethodKey.java-5;139; 0.463;NO
src/main/org/codehaus/groovy/runtime/NewInstanceMetaMethod.java-5;101; 0.272;NO
src/main/org/codehaus/groovy/runtime/NewStaticMetaMethod.java-5;98; 0.256;NO
src/main/org/codehaus/groovy/runtime/NumberMath.java-5;233; 0.705;NO
src/main/org/codehaus/groovy/runtime/ReflectionMetaMethod.java-5;65; 0.083;NO
src/main/org/codehaus/groovy/runtime/Reflector.java-5;56; 0.050;NO
src/main/org/codehaus/groovy/runtime/ScriptReference.java-5;74; 0.123;NO
src/main/org/codehaus/groovy/runtime/StringBufferWriter.java-5;120; 0.373;NO
src/main/org/codehaus/groovy/runtime/TemporaryMethodKey.java-5;66; 0.087;NO
src/main/org/codehaus/groovy/runtime/TransformMetaMethod.java-5;58; 0.056;NO
src/main/org/codehaus/groovy/runtime/WritableFile.java-5;258; 0.735;NO
src/main/org/codehaus/groovy/sandbox/markup/BaseMarkupBuilder.java-5;149; 0.504;NO
src/main/org/codehaus/groovy/sandbox/markup/Builder.java-5;107; 0.304;NO
src/main/org/codehaus/groovy/sandbox/markup/StreamingMarkupWriter.java-5;193; 0.635;NO
src/main/org/codehaus/groovy/syntax/AbstractTokenStream.java-5;218; 0.683;NO
src/main/org/codehaus/groovy/syntax/CSTNode.java-5;613; 0.839;NO
src/main/org/codehaus/groovy/syntax/lexer/AbstractCharStream.java-5;22; 0.001;NO
src/main/org/codehaus/groovy/syntax/lexer/CharStream.java-5;85; 0.183;NO
src/main/org/codehaus/groovy/syntax/lexer/Delimiter.java-5;38; 0.010;NO
src/main/org/codehaus/groovy/syntax/lexer/FileCharStream.java-5;58; 0.056;NO
src/main/org/codehaus/groovy/syntax/lexer/GroovyExpressionLexer.java-5;232; 0.702;NO
src/main/org/codehaus/groovy/syntax/lexer/GroovyLexer.java-5;267; 0.744;NO
src/main/org/codehaus/groovy/syntax/lexer/GroovyLexerBase.java-5;871; 0.828;NO
src/main/org/codehaus/groovy/syntax/lexer/GStringLexer.java-5;319; 0.783;NO
src/main/org/codehaus/groovy/syntax/lexer/HereDocLexer.java-5;271; 0.748;NO
src/main/org/codehaus/groovy/syntax/lexer/InputStreamCharStream.java-5;54; 0.044;NO
src/main/org/codehaus/groovy/syntax/lexer/Lexer.java-5;151; 0.512;NO
src/main/org/codehaus/groovy/syntax/lexer/LexerBase.java-5;467; 0.829;NO
src/main/org/codehaus/groovy/syntax/lexer/LexerException.java-5;67; 0.091;NO
src/main/org/codehaus/groovy/syntax/lexer/LexerTokenStream.java-5;46; 0.023;NO
src/main/org/codehaus/groovy/syntax/lexer/ReaderCharStream.java-5;54; 0.044;NO
src/main/org/codehaus/groovy/syntax/lexer/StringCharStream.java-5;35; 0.007;NO
src/main/org/codehaus/groovy/syntax/lexer/StringLexer.java-5;396; 0.815;NO
src/main/org/codehaus/groovy/syntax/lexer/TextLexerBase.java-5;124; 0.394;NO
src/main/org/codehaus/groovy/syntax/lexer/UnexpectedCharacterException.java-5;60; 0.064;NO
src/main/org/codehaus/groovy/syntax/lexer/UnterminatedStringLiteralException.java-5;7; 0.000;NO
src/main/org/codehaus/groovy/syntax/Numbers.java-5;325; 0.787;YES
src/main/org/codehaus/groovy/syntax/parser/ASTBuilder.java-5;2275; 0.589;NO
src/main/org/codehaus/groovy/syntax/parser/ExpressionStack.java-5;478; 0.831;NO
src/main/org/codehaus/groovy/syntax/parser/ExpressionSupport.java-5;294; 0.767;NO
src/main/org/codehaus/groovy/syntax/parser/Parser.java-5;4004; 0.267;NO
src/main/org/codehaus/groovy/syntax/parser/ParserException.java-5;11; 0.000;NO
src/main/org/codehaus/groovy/syntax/parser/RuntimeParserException.java-5;41; 0.015;NO
src/main/org/codehaus/groovy/syntax/parser/UnexpectedTokenException.java-5;106; 0.300;NO
src/main/org/codehaus/groovy/syntax/ReadException.java-5;46; 0.023;NO
src/main/org/codehaus/groovy/syntax/Reduction.java-5;298; 0.770;NO
src/main/org/codehaus/groovy/syntax/SyntaxException.java-5;111; 0.325;NO
src/main/org/codehaus/groovy/syntax/Token.java-5;425; 0.822;NO
src/main/org/codehaus/groovy/syntax/TokenException.java-5;34; 0.007;NO
src/main/org/codehaus/groovy/syntax/TokenMismatchException.java-5;20; 0.000;NO
src/main/org/codehaus/groovy/syntax/TokenStream.java-5;146; 0.492;NO
src/main/org/codehaus/groovy/syntax/Types.java-5;1402; 0.761;NO
src/main/org/codehaus/groovy/tools/Compiler.java-5;149; 0.504;NO
src/main/org/codehaus/groovy/tools/ErrorReporter.java-5;260; 0.738;NO
src/main/org/codehaus/groovy/tools/FileSystemCompiler.java-5;220; 0.685;NO
src/main/org/codehaus/groovy/tools/Grok.java-5;15; 0.000;NO
src/main/org/codehaus/groovy/tools/GroovyClass.java-5;27; 0.002;NO
src/main/org/codehaus/groovy/tools/Utilities.java-5;36; 0.008;NO
src/main/org/codehaus/groovy/tools/xml/DomToGroovy.java-5;340; 0.794;NO
src/main/org/codehaus/groovy/wiki/TestCaseRenderEngine.java-5;157; 0.531;NO
src/main/org/codehaus/groovy/wiki/Wiki2Markup.java-5;362; 0.803;NO
src/main/org/codehaus/groovy/wiki/Wiki2TestCase.java-5;80; 0.154;NO
src/test/groovy/bugs/ClassInScriptBug.java-5;61; 0.067;NO
src/test/groovy/bugs/ClosuresInScriptBug.java-5;61; 0.067;NO
src/test/groovy/bugs/IanMaceysBug.java-5;67; 0.091;NO
src/test/groovy/bugs/MarkupInScriptBug.java-5;60; 0.064;NO
src/test/groovy/bugs/ScriptBug.java-5;61; 0.067;NO
src/test/groovy/bugs/SeansBug.java-5;93; 0.225;NO
src/test/groovy/bugs/SimpleModel.java-5;68; 0.095;NO
src/test/groovy/bugs/TestSupport.java-5;83; 0.170;NO
src/test/groovy/DummyInterface.java-5;6; 0.000;NO
src/test/groovy/j2ee/J2eeConsole.java-5;109; 0.317;NO
src/test/groovy/lang/DerivedScript.java-5;50; 0.033;NO
src/test/groovy/lang/DummyGString.java-5;88; 0.200;NO
src/test/groovy/lang/GroovyShellTest.java-5;112; 0.334;NO
src/test/groovy/lang/GStringTest.java-5;122; 0.386;NO
src/test/groovy/lang/IntRangeTest.java-5;150; 0.508;NO
src/test/groovy/lang/MetaClassTest.java-5;213; 0.672;NO
src/test/groovy/lang/MockWriter.java-5;81; 0.160;NO
src/test/groovy/lang/RangeTest.java-5;149; 0.504;NO
src/test/groovy/lang/ScriptPrintTest.java-5;64; 0.079;NO
src/test/groovy/lang/SequenceTest.java-5;104; 0.288;NO
src/test/groovy/lang/TupleTest.java-5;114; 0.343;NO
src/test/groovy/security/RunAllGroovyScriptsSuite.java-5;67; 0.091;NO
src/test/groovy/security/RunOneGroovyScript.java-5;34; 0.007;NO
src/test/groovy/security/SecurityTest.java-5;94; 0.232;NO
src/test/groovy/security/SecurityTestSupport.java-5;275; 0.751;NO
src/test/groovy/security/SignedJarTest.java-5;43; 0.018;NO
src/test/groovy/swing/Demo.java-5;65; 0.083;NO
src/test/groovy/swing/MyTableModel.java-5;106; 0.300;NO
src/test/groovy/text/TemplateTest.java-5;72; 0.113;NO
src/test/groovy/tree/NodePrinterTest.java-5;96; 0.244;NO
src/test/groovy/txn/TransactionBean.java-5;37; 0.009;NO
src/test/groovy/txn/TransactionBuilder.java-5;24; 0.001;NO
src/test/groovy/util/Dummy.java-5;94; 0.232;NO
src/test/groovy/util/DummyMBean.java-5;57; 0.052;NO
src/test/groovy/util/EmptyScriptTest.java-5;60; 0.064;NO
src/test/groovy/util/MBeanTest.java-5;84; 0.176;NO
src/test/groovy/util/NodeTest.java-5;138; 0.459;NO
src/test/groovy/xml/TestXmlSupport.java-5;83; 0.170;NO
src/test/groovy/xml/XmlTest.java-5;64; 0.079;NO
src/test/org/codehaus/groovy/ast/ClassNodeTest.java-5;83; 0.170;NO
src/test/org/codehaus/groovy/ast/ModuleNodeTest.java-5;72; 0.113;NO
src/test/org/codehaus/groovy/bsf/BSFTest.java-5;150; 0.508;NO
src/test/org/codehaus/groovy/bsf/CacheBSFTest.java-5;127; 0.407;NO
src/test/org/codehaus/groovy/classgen/BytecodeHelperTest.java-5;72; 0.113;NO
src/test/org/codehaus/groovy/classgen/CapitalizeTest.java-5;66; 0.087;NO
src/test/org/codehaus/groovy/classgen/ConstructorTest.java-5;64; 0.079;NO
src/test/org/codehaus/groovy/classgen/DerivedBean.java-5;67; 0.091;NO
src/test/org/codehaus/groovy/classgen/DummyReflector.java-5;98; 0.256;NO
src/test/org/codehaus/groovy/classgen/DummyTestDerivation.java-5;60; 0.064;NO
src/test/org/codehaus/groovy/classgen/DumpClass.java-5;255; 0.733;NO
src/test/org/codehaus/groovy/classgen/DumpClass2.java-5;94; 0.232;NO
src/test/org/codehaus/groovy/classgen/DumpClass3.java-5;102; 0.280;NO
src/test/org/codehaus/groovy/classgen/DumpClass4.java-5;155; 0.527;NO
src/test/org/codehaus/groovy/classgen/DumpingClassLoader.java-5;112; 0.334;NO
src/test/org/codehaus/groovy/classgen/ForTest.java-5;100; 0.267;NO
src/test/org/codehaus/groovy/classgen/GetPropertyTest.java-5;71; 0.109;NO
src/test/org/codehaus/groovy/classgen/GroovyClassLoaderTest.java-5;84; 0.176;NO
src/test/org/codehaus/groovy/classgen/GStringTest.java-5;132; 0.433;NO
src/test/org/codehaus/groovy/classgen/IfElseTest.java-5;119; 0.368;NO
src/test/org/codehaus/groovy/classgen/MainTest.java-5;64; 0.079;NO
src/test/org/codehaus/groovy/classgen/MethodTest.java-5;102; 0.280;NO
src/test/org/codehaus/groovy/classgen/PropertyTest.java-5;109; 0.317;NO
src/test/org/codehaus/groovy/classgen/ReflectorGeneratorTest.java-5;116; 0.355;NO
src/test/org/codehaus/groovy/classgen/RunBugsTest.java-5;152; 0.516;NO
src/test/org/codehaus/groovy/classgen/RunClosureTest.java-5;111; 0.325;NO
src/test/org/codehaus/groovy/classgen/RunGroovyTest.java-5;97; 0.248;NO
src/test/org/codehaus/groovy/classgen/SimpleBean.java-5;79; 0.148;NO
src/test/org/codehaus/groovy/classgen/TestSupport.java-5;218; 0.683;NO
src/test/org/codehaus/groovy/classgen/TupleListTest.java-5;134; 0.442;NO
src/test/org/codehaus/groovy/dummy/FooHandler.java-5;11; 0.000;NO
src/test/org/codehaus/groovy/runtime/DefaultGroovyMethodsTest.java-5;89; 0.203;NO
src/test/org/codehaus/groovy/runtime/DummyBean.java-5;136; 0.450;NO
src/test/org/codehaus/groovy/runtime/InheritedInterfaceMethodTest.java-5;66; 0.087;NO
src/test/org/codehaus/groovy/runtime/InvokeConstructorTest.java-5;100; 0.267;NO
src/test/org/codehaus/groovy/runtime/InvokeGroovyMethodTest.java-5;120; 0.373;NO
src/test/org/codehaus/groovy/runtime/InvokeMethodTest.java-5;460; 0.828;NO
src/test/org/codehaus/groovy/runtime/InvokerTest.java-5;168; 0.569;NO
src/test/org/codehaus/groovy/runtime/MethodFailureTest.java-5;104; 0.288;NO
src/test/org/codehaus/groovy/runtime/MethodKeyTest.java-5;92; 0.221;NO
src/test/org/codehaus/groovy/runtime/MockGroovyObject.java-5;68; 0.095;NO
src/test/org/codehaus/groovy/runtime/NewStaticMetaMethodTest.java-5;98; 0.256;NO
src/test/org/codehaus/groovy/runtime/PropertyTest.java-5;255; 0.733;NO
src/test/org/codehaus/groovy/runtime/TupleListTest.java-5;94; 0.232;NO
src/test/org/codehaus/groovy/syntax/AbstractTokenStreamTest.java-5;254; 0.731;NO
src/test/org/codehaus/groovy/syntax/lexer/AbstractCharStreamTest.java-5;137; 0.454;NO
src/test/org/codehaus/groovy/syntax/lexer/LexerTest.java-5;716; 0.838;NO
src/test/org/codehaus/groovy/syntax/lexer/LexerTokenStreamTest.java-5;56; 0.050;NO
src/test/org/codehaus/groovy/syntax/lexer/StringCharStreamTest.java-5;47; 0.025;NO
src/test/org/codehaus/groovy/syntax/parser/ASTBuilderTest.java-5;592; 0.839;NO
src/test/org/codehaus/groovy/syntax/parser/CompilerErrorTest.java-5;119; 0.368;NO
src/test/org/codehaus/groovy/syntax/parser/CSTNodeTest.java-5;67; 0.091;NO
src/test/org/codehaus/groovy/syntax/parser/ParserTest.java-5;1112; 0.802;NO
src/test/org/codehaus/groovy/syntax/parser/TestParserSupport.java-5;58; 0.056;NO
src/test/org/codehaus/groovy/syntax/TokenTest.java-5;758; 0.836;NO
src/test/org/codehaus/groovy/tools/CompilerTest.java-5;92; 0.221;NO
src/test/org/codehaus/groovy/tools/DocGeneratorMain.java-5;20; 0.000;NO
src/test/org/codehaus/groovy/tools/FileSystemCompilerTest.java-5;93; 0.225;NO
src/test/org/codehaus/groovy/tools/FindAllTestsSuite.java-5;136; 0.450;NO
src/test/org/codehaus/groovy/tools/xml/DomToGroovyTest.java-5;107; 0.304;NO
src/test/org/codehaus/groovy/wiki/RunHtml2WikiTest.java-5;71; 0.109;NO
src/test/org/codehaus/groovy/wiki/RunWikiTest.java-5;69; 0.100;NO
src/test/org/codehaus/groovy/wiki/TestCaseRenderEngineTest.java-5;86; 0.186;NO
