ID;Size;Predicted;Actual
src/java/org/apache/nutch/analysis/AnalyzerFactory.java-3;105; 0.761;NO
src/java/org/apache/nutch/analysis/CharStream.java-3;110; 0.412;NO
src/java/org/apache/nutch/analysis/CommonGrams.java-3;254; 0.878;NO
src/java/org/apache/nutch/analysis/FastCharStream.java-3;120; 0.425;NO
src/java/org/apache/nutch/analysis/NutchAnalysis.java-3;903; 0.942;NO
src/java/org/apache/nutch/analysis/NutchAnalysisConstants.java-3;52; 0.303;NO
src/java/org/apache/nutch/analysis/NutchAnalysisTokenManager.java-3;460; 0.913;NO
src/java/org/apache/nutch/analysis/NutchAnalyzer.java-3;45; 0.284;NO
src/java/org/apache/nutch/analysis/NutchDocumentAnalyzer.java-3;108; 0.806;NO
src/java/org/apache/nutch/analysis/NutchDocumentTokenizer.java-3;83; 0.369;NO
src/java/org/apache/nutch/analysis/ParseException.java-3;192; 0.500;NO
src/java/org/apache/nutch/analysis/Token.java-3;81; 0.365;NO
src/java/org/apache/nutch/analysis/TokenManager.java-3;17; 0.175;NO
src/java/org/apache/nutch/analysis/TokenMgrError.java-3;133; 0.442;NO
src/java/org/apache/nutch/clustering/HitsCluster.java-3;65; 0.762;NO
src/java/org/apache/nutch/clustering/OnlineClusterer.java-3;55; 0.742;NO
src/java/org/apache/nutch/clustering/OnlineClustererFactory.java-3;108; 0.816;NO
src/java/org/apache/nutch/crawl/Crawl.java-3;126; 0.699;YES
src/java/org/apache/nutch/crawl/CrawlDatum.java-3;335; 0.789;YES
src/java/org/apache/nutch/crawl/CrawlDb.java-3;107; 0.700;YES
src/java/org/apache/nutch/crawl/CrawlDbReader.java-3;275; 0.810;YES
src/java/org/apache/nutch/crawl/CrawlDbReducer.java-3;120; 0.646;YES
src/java/org/apache/nutch/crawl/Generator.java-3;284; 0.813;YES
src/java/org/apache/nutch/crawl/Injector.java-3;142; 0.737;YES
src/java/org/apache/nutch/crawl/Inlink.java-3;77; 0.579;YES
src/java/org/apache/nutch/crawl/Inlinks.java-3;99; 0.682;YES
src/java/org/apache/nutch/crawl/LinkDb.java-3;216; 0.785;YES
src/java/org/apache/nutch/crawl/LinkDbReader.java-3;127; 0.723;YES
src/java/org/apache/nutch/crawl/MapWritable.java-3;471; 0.639;YES
src/java/org/apache/nutch/crawl/MD5Signature.java-3;37; 0.424;YES
src/java/org/apache/nutch/crawl/PartitionUrlByHost.java-3;54; 0.523;YES
src/java/org/apache/nutch/crawl/Signature.java-3;36; 0.420;YES
src/java/org/apache/nutch/crawl/SignatureComparator.java-3;47; 0.289;YES
src/java/org/apache/nutch/crawl/SignatureFactory.java-3;54; 0.484;YES
src/java/org/apache/nutch/crawl/TextProfileSignature.java-3;183; 0.671;YES
src/java/org/apache/nutch/fetcher/Fetcher.java-3;404; 0.911;NO
src/java/org/apache/nutch/fetcher/FetcherOutput.java-3;91; 0.789;NO
src/java/org/apache/nutch/fetcher/FetcherOutputFormat.java-3;104; 0.681;YES
src/java/org/apache/nutch/html/Entities.java-3;327; 0.584;NO
src/java/org/apache/nutch/indexer/DeleteDuplicates.java-3;366; 0.906;NO
src/java/org/apache/nutch/indexer/FsDirectory.java-3;244; 0.538;NO
src/java/org/apache/nutch/indexer/HighFreqTerms.java-3;102; 0.801;NO
src/java/org/apache/nutch/indexer/Indexer.java-3;297; 0.807;YES
src/java/org/apache/nutch/indexer/IndexingException.java-3;37; 0.259;NO
src/java/org/apache/nutch/indexer/IndexingFilter.java-3;48; 0.713;NO
src/java/org/apache/nutch/indexer/IndexingFilters.java-3;69; 0.758;NO
src/java/org/apache/nutch/indexer/IndexMerger.java-3;152; 0.843;NO
src/java/org/apache/nutch/indexer/IndexSorter.java-3;298; 0.716;YES
src/java/org/apache/nutch/indexer/NutchSimilarity.java-3;46; 0.286;NO
src/java/org/apache/nutch/metadata/CreativeCommons.java-3;35; 0.252;NO
src/java/org/apache/nutch/metadata/DublinCore.java-3;163; 0.474;NO
src/java/org/apache/nutch/metadata/HttpHeaders.java-3;48; 0.292;NO
src/java/org/apache/nutch/metadata/Metadata.java-3;334; 0.766;YES
src/java/org/apache/nutch/metadata/Nutch.java-3;33; 0.245;YES
src/java/org/apache/nutch/metadata/Office.java-3;51; 0.300;NO
src/java/org/apache/nutch/net/BasicUrlNormalizer.java-3;188; 0.856;NO
src/java/org/apache/nutch/net/protocols/HttpDateFormat.java-3;125; 0.820;NO
src/java/org/apache/nutch/net/protocols/ProtocolException.java-3;43; 0.278;NO
src/java/org/apache/nutch/net/protocols/Response.java-3;46; 0.709;NO
src/java/org/apache/nutch/net/RegexUrlNormalizer.java-3;179; 0.852;NO
src/java/org/apache/nutch/net/URLFilter.java-3;33; 0.661;NO
src/java/org/apache/nutch/net/URLFilterChecker.java-3;138; 0.830;NO
src/java/org/apache/nutch/net/URLFilterException.java-3;37; 0.259;NO
src/java/org/apache/nutch/net/URLFilters.java-3;87; 0.784;NO
src/java/org/apache/nutch/net/UrlNormalizer.java-3;29; 0.643;NO
src/java/org/apache/nutch/net/UrlNormalizerFactory.java-3;54; 0.728;NO
src/java/org/apache/nutch/ontology/Ontology.java-3;33; 0.245;NO
src/java/org/apache/nutch/ontology/OntologyFactory.java-3;94; 0.792;NO
src/java/org/apache/nutch/parse/HTMLMetaTags.java-3;203; 0.509;NO
src/java/org/apache/nutch/parse/HtmlParseFilter.java-3;35; 0.670;NO
src/java/org/apache/nutch/parse/HtmlParseFilters.java-3;67; 0.754;NO
src/java/org/apache/nutch/parse/Outlink.java-3;78; 0.772;NO
src/java/org/apache/nutch/parse/OutlinkExtractor.java-3;235; 0.832;NO
src/java/org/apache/nutch/parse/Parse.java-3;30; 0.580;NO
src/java/org/apache/nutch/parse/ParseData.java-3;239; 0.875;NO
src/java/org/apache/nutch/parse/ParseException.java-3;37; 0.259;NO
src/java/org/apache/nutch/parse/ParseImpl.java-3;82; 0.777;NO
src/java/org/apache/nutch/parse/ParseOutputFormat.java-3;137; 0.718;YES
src/java/org/apache/nutch/parse/ParsePluginList.java-3;72; 0.687;NO
src/java/org/apache/nutch/parse/ParsePluginsReader.java-3;267; 0.835;NO
src/java/org/apache/nutch/parse/Parser.java-3;32; 0.657;NO
src/java/org/apache/nutch/parse/ParserChecker.java-3;106; 0.804;NO
src/java/org/apache/nutch/parse/ParserFactory.java-3;385; 0.908;NO
src/java/org/apache/nutch/parse/ParserNotFound.java-3;41; 0.650;NO
src/java/org/apache/nutch/parse/ParseSegment.java-3;123; 0.704;YES
src/java/org/apache/nutch/parse/ParseStatus.java-3;250; 0.862;NO
src/java/org/apache/nutch/parse/ParseText.java-3;102; 0.801;NO
src/java/org/apache/nutch/parse/ParseUtil.java-3;134; 0.752;YES
src/java/org/apache/nutch/plugin/CircularDependencyException.java-3;35; 0.252;NO
src/java/org/apache/nutch/plugin/Extension.java-3;190; 0.857;NO
src/java/org/apache/nutch/plugin/ExtensionPoint.java-3;121; 0.749;NO
src/java/org/apache/nutch/plugin/MissingDependencyException.java-3;35; 0.252;NO
src/java/org/apache/nutch/plugin/Plugin.java-3;93; 0.791;NO
src/java/org/apache/nutch/plugin/PluginClassLoader.java-3;42; 0.275;NO
src/java/org/apache/nutch/plugin/PluginDescriptor.java-3;330; 0.895;NO
src/java/org/apache/nutch/plugin/PluginManifestParser.java-3;312; 0.896;NO
src/java/org/apache/nutch/plugin/PluginRepository.java-3;436; 0.913;NO
src/java/org/apache/nutch/plugin/PluginRuntimeException.java-3;33; 0.245;NO
src/java/org/apache/nutch/protocol/Content.java-3;237; 0.874;NO
src/java/org/apache/nutch/protocol/Protocol.java-3;31; 0.652;NO
src/java/org/apache/nutch/protocol/ProtocolException.java-3;37; 0.677;NO
src/java/org/apache/nutch/protocol/ProtocolFactory.java-3;96; 0.794;NO
src/java/org/apache/nutch/protocol/ProtocolNotFound.java-3;32; 0.241;NO
src/java/org/apache/nutch/protocol/ProtocolOutput.java-3;53; 0.305;NO
src/java/org/apache/nutch/protocol/ProtocolStatus.java-3;249; 0.860;NO
src/java/org/apache/nutch/searcher/DistributedSearch.java-3;366; 0.904;NO
src/java/org/apache/nutch/searcher/FetchedSegments.java-3;230; 0.873;NO
src/java/org/apache/nutch/searcher/FieldQueryFilter.java-3;113; 0.816;NO
src/java/org/apache/nutch/searcher/Hit.java-3;115; 0.812;NO
src/java/org/apache/nutch/searcher/HitContent.java-3;39; 0.689;NO
src/java/org/apache/nutch/searcher/HitDetailer.java-3;29; 0.230;NO
src/java/org/apache/nutch/searcher/HitDetails.java-3;139; 0.835;NO
src/java/org/apache/nutch/searcher/HitInlinks.java-3;31; 0.450;NO
src/java/org/apache/nutch/searcher/Hits.java-3;116; 0.813;NO
src/java/org/apache/nutch/searcher/HitSummarizer.java-3;36; 0.255;NO
src/java/org/apache/nutch/searcher/IndexSearcher.java-3;174; 0.852;NO
src/java/org/apache/nutch/searcher/LinkDbInlinks.java-3;38; 0.482;YES
src/java/org/apache/nutch/searcher/LuceneQueryOptimizer.java-3;185; 0.859;NO
src/java/org/apache/nutch/searcher/NutchBean.java-3;389; 0.906;NO
src/java/org/apache/nutch/searcher/OpenSearchServlet.java-3;279; 0.886;NO
src/java/org/apache/nutch/searcher/Query.java-3;471; 0.918;NO
src/java/org/apache/nutch/searcher/QueryException.java-3;23; 0.205;NO
src/java/org/apache/nutch/searcher/QueryFilter.java-3;34; 0.666;NO
src/java/org/apache/nutch/searcher/QueryFilters.java-3;118; 0.815;NO
src/java/org/apache/nutch/searcher/RawFieldQueryFilter.java-3;96; 0.802;NO
src/java/org/apache/nutch/searcher/Searcher.java-3;32; 0.661;NO
src/java/org/apache/nutch/searcher/Summarizer.java-3;331; 0.895;NO
src/java/org/apache/nutch/searcher/Summary.java-3;92; 0.785;NO
src/java/org/apache/nutch/segment/SegmentReader.java-3;237; 0.880;NO
src/java/org/apache/nutch/servlet/Cached.java-3;109; 0.807;NO
src/java/org/apache/nutch/tools/DmozParser.java-3;383; 0.766;YES
src/java/org/apache/nutch/tools/PruneIndexTool.java-3;523; 0.922;NO
src/java/org/apache/nutch/util/CommandRunner.java-3;294; 0.885;NO
src/java/org/apache/nutch/util/FibonacciHeap.java-3;278; 0.884;NO
src/java/org/apache/nutch/util/GZIPUtils.java-3;144; 0.454;NO
src/java/org/apache/nutch/util/mime/MimeType.java-3;351; 0.881;NO
src/java/org/apache/nutch/util/mime/MimeTypeException.java-3;41; 0.272;NO
src/java/org/apache/nutch/util/mime/MimeTypes.java-3;297; 0.870;NO
src/java/org/apache/nutch/util/mime/MimeTypesReader.java-3;179; 0.489;NO
src/java/org/apache/nutch/util/NutchConfiguration.java-3;91; 0.605;YES
src/java/org/apache/nutch/util/NutchJob.java-3;30; 0.234;YES
src/java/org/apache/nutch/util/PrefixStringMatcher.java-3;120; 0.425;NO
src/java/org/apache/nutch/util/StringUtil.java-3;199; 0.861;NO
src/java/org/apache/nutch/util/SuffixStringMatcher.java-3;117; 0.421;NO
src/java/org/apache/nutch/util/ThreadPool.java-3;132; 0.826;NO
src/java/org/apache/nutch/util/TrieStringMatcher.java-3;207; 0.512;NO
src/plugin/analysis-de/src/java/org/apache/nutch/analysis/de/GermanAnalyzer.java-3;48; 0.292;NO
src/plugin/analysis-fr/src/java/org/apache/nutch/analysis/fr/FrenchAnalyzer.java-3;48; 0.292;NO
src/plugin/clustering-carrot2/src/java/org/apache/nutch/clustering/carrot2/Clusterer.java-3;166; 0.477;NO
src/plugin/clustering-carrot2/src/java/org/apache/nutch/clustering/carrot2/HitsClusterAdapter.java-3;113; 0.416;NO
src/plugin/clustering-carrot2/src/java/org/apache/nutch/clustering/carrot2/LocalNutchInputComponent.java-3;158; 0.469;NO
src/plugin/clustering-carrot2/src/java/org/apache/nutch/clustering/carrot2/NutchDocument.java-3;57; 0.315;NO
src/plugin/clustering-carrot2/src/test/org/apache/nutch/clustering/carrot2/ClustererTest.java-3;167; 0.854;NO
src/plugin/creativecommons/src/java/org/creativecommons/nutch/CCDeleteUnlicensedTool.java-3;101; 0.805;NO
src/plugin/creativecommons/src/java/org/creativecommons/nutch/CCIndexingFilter.java-3;118; 0.821;NO
src/plugin/creativecommons/src/java/org/creativecommons/nutch/CCParseFilter.java-3;284; 0.886;NO
src/plugin/creativecommons/src/java/org/creativecommons/nutch/CCQueryFilter.java-3;41; 0.701;NO
src/plugin/creativecommons/src/test/org/creativecommons/nutch/TestCCParseFilter.java-3;72; 0.768;NO
src/plugin/index-basic/src/java/org/apache/nutch/indexer/basic/BasicIndexingFilter.java-3;101; 0.805;NO
src/plugin/index-more/src/java/org/apache/nutch/indexer/more/MoreIndexingFilter.java-3;287; 0.890;NO
src/plugin/languageidentifier/src/java/org/apache/nutch/analysis/lang/HTMLLanguageParser.java-3;210; 0.865;NO
src/plugin/languageidentifier/src/java/org/apache/nutch/analysis/lang/LanguageIdentifier.java-3;464; 0.916;NO
src/plugin/languageidentifier/src/java/org/apache/nutch/analysis/lang/LanguageIndexingFilter.java-3;107; 0.779;NO
src/plugin/languageidentifier/src/java/org/apache/nutch/analysis/lang/LanguageQueryFilter.java-3;39; 0.695;NO
src/plugin/languageidentifier/src/java/org/apache/nutch/analysis/lang/NGramProfile.java-3;740; 0.934;NO
src/plugin/languageidentifier/src/test/org/apache/nutch/analysis/lang/TestHTMLLanguageParser.java-3;126; 0.825;NO
src/plugin/languageidentifier/src/test/org/apache/nutch/analysis/lang/TestLanguageIdentifier.java-3;243; 0.835;NO
src/plugin/languageidentifier/src/test/org/apache/nutch/analysis/lang/TestNGramProfile.java-3;144; 0.756;NO
src/plugin/lib-http/src/java/org/apache/nutch/protocol/http/api/HttpBase.java-3;465; 0.770;YES
src/plugin/lib-http/src/java/org/apache/nutch/protocol/http/api/HttpException.java-3;40; 0.268;NO
src/plugin/lib-http/src/java/org/apache/nutch/protocol/http/api/RobotRulesParser.java-3;489; 0.751;YES
src/plugin/lib-http/src/test/org/apache/nutch/protocol/http/api/TestRobotRulesParser.java-3;246; 0.539;NO
src/plugin/lib-parsems/src/java/org/apache/nutch/parse/ms/MSBaseParser.java-3;161; 0.472;YES
src/plugin/lib-parsems/src/java/org/apache/nutch/parse/ms/MSExtractor.java-3;199; 0.506;YES
src/plugin/lib-regex-filter/src/java/org/apache/nutch/urlfilter/api/RegexRule.java-3;63; 0.329;NO
src/plugin/lib-regex-filter/src/java/org/apache/nutch/urlfilter/api/RegexURLFilterBase.java-3;217; 0.519;NO
src/plugin/lib-regex-filter/src/test/org/apache/nutch/urlfilter/api/RegexURLFilterBaseTest.java-3;142; 0.452;NO
src/plugin/microformats-reltag/src/java/org/apache/nutch/microformats/reltag/RelTagIndexingFilter.java-3;82; 0.367;YES
src/plugin/microformats-reltag/src/java/org/apache/nutch/microformats/reltag/RelTagParser.java-3;153; 0.464;YES
src/plugin/microformats-reltag/src/java/org/apache/nutch/microformats/reltag/RelTagQueryFilter.java-3;58; 0.318;NO
src/plugin/ontology/src/java/org/apache/nutch/ontology/jena/OntologyImpl.java-3;360; 0.599;NO
src/plugin/ontology/src/java/org/apache/nutch/ontology/jena/OwlParser.java-3;146; 0.456;NO
src/plugin/ontology/src/java/org/apache/nutch/ontology/jena/Parser.java-3;32; 0.241;NO
src/plugin/ontology/src/test/org/apache/nutch/ontology/jena/TestOntology.java-3;97; 0.393;NO
src/plugin/parse-ext/src/java/org/apache/nutch/parse/ext/ExtParser.java-3;172; 0.850;NO
src/plugin/parse-ext/src/test/org/apache/nutch/parse/ext/TestExtParser.java-3;125; 0.825;NO
src/plugin/parse-html/src/java/org/apache/nutch/parse/html/DOMBuilder.java-3;737; 0.886;NO
src/plugin/parse-html/src/java/org/apache/nutch/parse/html/DOMContentUtils.java-3;341; 0.897;NO
src/plugin/parse-html/src/java/org/apache/nutch/parse/html/HTMLMetaProcessor.java-3;207; 0.845;NO
src/plugin/parse-html/src/java/org/apache/nutch/parse/html/HtmlParser.java-3;294; 0.894;NO
src/plugin/parse-html/src/java/org/apache/nutch/parse/html/XMLCharacterRecognizer.java-3;112; 0.699;NO
src/plugin/parse-html/src/test/org/apache/nutch/parse/html/TestDOMContentUtils.java-3;338; 0.896;NO
src/plugin/parse-html/src/test/org/apache/nutch/parse/html/TestRobotsMetaProcessor.java-3;181; 0.853;NO
src/plugin/parse-js/src/java/org/apache/nutch/parse/js/JSParseFilter.java-3;245; 0.860;NO
src/plugin/parse-mp3/src/java/org/apache/nutch/parse/mp3/MetadataCollector.java-3;107; 0.808;NO
src/plugin/parse-mp3/src/java/org/apache/nutch/parse/mp3/MP3Parser.java-3;148; 0.838;NO
src/plugin/parse-mp3/src/test/org/apache/nutch/parse/mp3/TestMP3Parser.java-3;142; 0.836;NO
src/plugin/parse-msexcel/src/java/org/apache/nutch/parse/msexcel/ExcelExtractor.java-3;92; 0.385;YES
src/plugin/parse-msexcel/src/java/org/apache/nutch/parse/msexcel/MSExcelParser.java-3;50; 0.297;YES
src/plugin/parse-msexcel/src/test/org/apache/nutch/parse/msexcel/TestMSExcelParser.java-3;72; 0.348;NO
src/plugin/parse-mspowerpoint/src/java/org/apache/nutch/parse/mspowerpoint/ContentReaderListener.java-3;414; 0.872;NO
src/plugin/parse-mspowerpoint/src/java/org/apache/nutch/parse/mspowerpoint/FilteredStringWriter.java-3;69; 0.690;NO
src/plugin/parse-mspowerpoint/src/java/org/apache/nutch/parse/mspowerpoint/MSPowerPointParser.java-3;54; 0.655;NO
src/plugin/parse-mspowerpoint/src/java/org/apache/nutch/parse/mspowerpoint/PPTConstants.java-3;62; 0.327;NO
src/plugin/parse-mspowerpoint/src/java/org/apache/nutch/parse/mspowerpoint/PPTExtractor.java-3;56; 0.661;NO
src/plugin/parse-mspowerpoint/src/java/org/apache/nutch/parse/mspowerpoint/Slide.java-3;73; 0.350;NO
src/plugin/parse-mspowerpoint/src/java/org/apache/nutch/parse/mspowerpoint/TextBox.java-3;88; 0.378;NO
src/plugin/parse-mspowerpoint/src/test/org/apache/nutch/parse/mspowerpoint/AllTests.java-3;87; 0.376;NO
src/plugin/parse-mspowerpoint/src/test/org/apache/nutch/parse/mspowerpoint/FileExtensionFilter.java-3;55; 0.310;NO
src/plugin/parse-mspowerpoint/src/test/org/apache/nutch/parse/mspowerpoint/TestMSPowerPointParser.java-3;260; 0.841;NO
src/plugin/parse-msword/src/java/org/apache/nutch/parse/msword/chp/Word6CHPBinTable.java-3;77; 0.358;NO
src/plugin/parse-msword/src/java/org/apache/nutch/parse/msword/FastSavedException.java-3;24; 0.617;NO
src/plugin/parse-msword/src/java/org/apache/nutch/parse/msword/MSWordParser.java-3;53; 0.727;NO
src/plugin/parse-msword/src/java/org/apache/nutch/parse/msword/PasswordProtectedException.java-3;24; 0.617;NO
src/plugin/parse-msword/src/java/org/apache/nutch/parse/msword/Test.java-3;53; 0.305;NO
src/plugin/parse-msword/src/java/org/apache/nutch/parse/msword/Word6Extractor.java-3;229; 0.871;NO
src/plugin/parse-msword/src/java/org/apache/nutch/parse/msword/WordExtractor.java-3;230; 0.872;NO
src/plugin/parse-msword/src/java/org/apache/nutch/parse/msword/WordTextBuffer.java-3;66; 0.336;NO
src/plugin/parse-msword/src/java/org/apache/nutch/parse/msword/WordTextPiece.java-3;54; 0.308;NO
src/plugin/parse-msword/src/test/org/apache/nutch/parse/msword/TestMSWordParser.java-3;78; 0.777;NO
src/plugin/parse-pdf/src/java/org/apache/nutch/parse/pdf/PdfParser.java-3;196; 0.860;NO
src/plugin/parse-pdf/src/test/org/apache/nutch/parse/pdf/TestPdfParser.java-3;79; 0.778;NO
src/plugin/parse-rss/src/java/org/apache/nutch/parse/rss/FeedParserListenerImpl.java-3;127; 0.773;NO
src/plugin/parse-rss/src/java/org/apache/nutch/parse/rss/RSSParser.java-3;240; 0.852;NO
src/plugin/parse-rss/src/java/org/apache/nutch/parse/rss/structs/RSSChannel.java-3;188; 0.497;NO
src/plugin/parse-rss/src/java/org/apache/nutch/parse/rss/structs/RSSItem.java-3;150; 0.461;NO
src/plugin/parse-rss/src/test/org/apache/nutch/parse/rss/TestRSSParser.java-3;129; 0.781;NO
src/plugin/parse-rtf/src/java/org/apache/nutch/parse/rtf/RTFParseFactory.java-3;96; 0.797;NO
src/plugin/parse-rtf/src/java/org/apache/nutch/parse/rtf/RTFParserDelegateImpl.java-3;131; 0.828;NO
src/plugin/parse-rtf/src/test/org/apache/nutch/parse/rtf/TestRTFParser.java-3;91; 0.793;NO
src/plugin/parse-swf/src/java/org/apache/nutch/parse/swf/SWFParser.java-3;703; 0.696;YES
src/plugin/parse-swf/src/test/org/apache/nutch/parse/swf/TestSWFParser.java-3;97; 0.393;NO
src/plugin/parse-text/src/java/org/apache/nutch/parse/text/TextParser.java-3;61; 0.745;NO
src/plugin/parse-zip/src/java/org/apache/nutch/parse/zip/ZipParser.java-3;116; 0.752;NO
src/plugin/parse-zip/src/java/org/apache/nutch/parse/zip/ZipTextExtractor.java-3;116; 0.752;NO
src/plugin/parse-zip/src/test/org/apache/nutch/parse/zip/TestZipParser.java-3;77; 0.709;NO
src/plugin/protocol-file/src/java/org/apache/nutch/protocol/file/File.java-3;168; 0.848;NO
src/plugin/protocol-file/src/java/org/apache/nutch/protocol/file/FileError.java-3;32; 0.241;NO
src/plugin/protocol-file/src/java/org/apache/nutch/protocol/file/FileException.java-3;39; 0.265;NO
src/plugin/protocol-file/src/java/org/apache/nutch/protocol/file/FileResponse.java-3;252; 0.881;NO
src/plugin/protocol-ftp/src/java/org/apache/nutch/protocol/ftp/Client.java-3;573; 0.926;NO
src/plugin/protocol-ftp/src/java/org/apache/nutch/protocol/ftp/Ftp.java-3;243; 0.876;NO
src/plugin/protocol-ftp/src/java/org/apache/nutch/protocol/ftp/FtpError.java-3;32; 0.241;NO
src/plugin/protocol-ftp/src/java/org/apache/nutch/protocol/ftp/FtpException.java-3;45; 0.284;NO
src/plugin/protocol-ftp/src/java/org/apache/nutch/protocol/ftp/FtpExceptionBadSystResponse.java-3;28; 0.226;NO
src/plugin/protocol-ftp/src/java/org/apache/nutch/protocol/ftp/FtpExceptionCanNotHaveDataConnection.java-3;28; 0.226;NO
src/plugin/protocol-ftp/src/java/org/apache/nutch/protocol/ftp/FtpExceptionControlClosedByForcedDataClose.java-3;29; 0.230;NO
src/plugin/protocol-ftp/src/java/org/apache/nutch/protocol/ftp/FtpExceptionUnknownForcedDataClose.java-3;29; 0.230;NO
src/plugin/protocol-ftp/src/java/org/apache/nutch/protocol/ftp/FtpResponse.java-3;475; 0.915;NO
src/plugin/protocol-ftp/src/java/org/apache/nutch/protocol/ftp/PrintCommandListener.java-3;65; 0.334;NO
src/plugin/protocol-http/src/java/org/apache/nutch/protocol/http/Http.java-3;64; 0.749;NO
src/plugin/protocol-http/src/java/org/apache/nutch/protocol/http/HttpResponse.java-3;432; 0.911;NO
src/plugin/protocol-httpclient/src/java/org/apache/nutch/protocol/httpclient/DummySSLProtocolSocketFactory.java-3;129; 0.805;NO
src/plugin/protocol-httpclient/src/java/org/apache/nutch/protocol/httpclient/DummyX509TrustManager.java-3;70; 0.737;NO
src/plugin/protocol-httpclient/src/java/org/apache/nutch/protocol/httpclient/Http.java-3;139; 0.809;NO
src/plugin/protocol-httpclient/src/java/org/apache/nutch/protocol/httpclient/HttpAuthentication.java-3;33; 0.245;NO
src/plugin/protocol-httpclient/src/java/org/apache/nutch/protocol/httpclient/HttpAuthenticationException.java-3;52; 0.303;NO
src/plugin/protocol-httpclient/src/java/org/apache/nutch/protocol/httpclient/HttpAuthenticationFactory.java-3;121; 0.797;NO
src/plugin/protocol-httpclient/src/java/org/apache/nutch/protocol/httpclient/HttpBasicAuthentication.java-3;166; 0.827;NO
src/plugin/protocol-httpclient/src/java/org/apache/nutch/protocol/httpclient/HttpResponse.java-3;163; 0.826;NO
src/plugin/query-basic/src/java/org/apache/nutch/searcher/basic/BasicQueryFilter.java-3;186; 0.859;NO
src/plugin/query-more/src/java/org/apache/nutch/searcher/more/DateQueryFilter.java-3;105; 0.809;NO
src/plugin/query-more/src/java/org/apache/nutch/searcher/more/TypeQueryFilter.java-3;44; 0.711;NO
src/plugin/query-site/src/java/org/apache/nutch/searcher/site/SiteQueryFilter.java-3;39; 0.695;NO
src/plugin/query-url/src/java/org/apache/nutch/searcher/url/URLQueryFilter.java-3;40; 0.688;NO
src/plugin/urlfilter-automaton/src/java/org/apache/nutch/urlfilter/automaton/AutomatonURLFilter.java-3;97; 0.393;NO
src/plugin/urlfilter-automaton/src/test/org/apache/nutch/urlfilter/automaton/TestAutomatonURLFilter.java-3;70; 0.344;NO
src/plugin/urlfilter-prefix/src/java/org/apache/nutch/urlfilter/prefix/PrefixURLFilter.java-3;164; 0.475;NO
src/plugin/urlfilter-regex/src/java/org/apache/nutch/urlfilter/regex/RegexURLFilter.java-3;90; 0.381;NO
src/plugin/urlfilter-regex/src/test/org/apache/nutch/urlfilter/regex/TestRegexURLFilter.java-3;70; 0.344;NO
src/test/org/apache/nutch/analysis/TestQueryParser.java-3;94; 0.784;NO
src/test/org/apache/nutch/crawl/DummyWritable.java-3;31; 0.238;NO
src/test/org/apache/nutch/crawl/TestMapWritable.java-3;182; 0.491;NO
src/test/org/apache/nutch/metadata/TestMetadata.java-3;268; 0.553;NO
src/test/org/apache/nutch/net/TestBasicUrlNormalizer.java-3;94; 0.792;NO
src/test/org/apache/nutch/net/TestRegexUrlNormalizer.java-3;50; 0.718;NO
src/test/org/apache/nutch/parse/TestOutlinkExtractor.java-3;80; 0.714;NO
src/test/org/apache/nutch/parse/TestParseData.java-3;54; 0.730;NO
src/test/org/apache/nutch/parse/TestParserFactory.java-3;101; 0.731;NO
src/test/org/apache/nutch/parse/TestParseText.java-3;37; 0.677;NO
src/test/org/apache/nutch/plugin/HelloWorldExtension.java-3;32; 0.241;NO
src/test/org/apache/nutch/plugin/ITestExtension.java-3;25; 0.214;NO
src/test/org/apache/nutch/plugin/SimpleTestPlugin.java-3;57; 0.735;NO
src/test/org/apache/nutch/plugin/TestPluginSystem.java-3;268; 0.881;NO
src/test/org/apache/nutch/protocol/TestContent.java-3;108; 0.808;NO
src/test/org/apache/nutch/searcher/TestHitDetails.java-3;57; 0.740;NO
src/test/org/apache/nutch/searcher/TestQuery.java-3;112; 0.810;NO
src/test/org/apache/nutch/util/mime/TestMimeType.java-3;209; 0.827;NO
src/test/org/apache/nutch/util/mime/TestMimeTypes.java-3;158; 0.469;NO
src/test/org/apache/nutch/util/TestFibonacciHeap.java-3;180; 0.490;NO
src/test/org/apache/nutch/util/TestGZIPUtils.java-3;247; 0.540;NO
src/test/org/apache/nutch/util/TestPrefixStringMatcher.java-3;120; 0.425;NO
src/test/org/apache/nutch/util/TestStringUtil.java-3;61; 0.325;NO
src/test/org/apache/nutch/util/TestSuffixStringMatcher.java-3;120; 0.425;NO
src/test/org/apache/nutch/util/WritableTestUtils.java-3;49; 0.295;NO
