Project,Model,HighestC,SumC,StandardProbability
ARTEMIS,HP,1,0,0
ARTEMIS,IB1,1,0,0
ARTEMIS,IBk,1,0,0
ARTEMIS,J48,0,0,1
ARTEMIS,LOG,1,0,0
ARTEMIS,NB,0,0,1
ARTEMIS,RF,1,0,0
ARTEMIS,VFI,0,0,1
ARTEMIS,VP,1,0,0
DIRSERVER,HP,0,0,1
DIRSERVER,IB1,0,0,1
DIRSERVER,IBk,0,0,1
DIRSERVER,J48,0,0,1
DIRSERVER,LOG,0,0,1
DIRSERVER,NB,1,0,0
DIRSERVER,RF,0,0,1
DIRSERVER,VFI,0,0,1
DIRSERVER,VP,0,0,1
GROOVY,HP,1,0,0
GROOVY,IB1,0,0,1
GROOVY,IBk,0,0,1
GROOVY,J48,0,0,1
GROOVY,LOG,0,0,1
GROOVY,NB,1,0,0
GROOVY,RF,1,0,0
GROOVY,VFI,1,0,0
GROOVY,VP,0,0,1
MNG,HP,0,0,1
MNG,IB1,1,0,1
MNG,IBk,1,0,1
MNG,J48,0,0,1
MNG,LOG,0,0,1
MNG,NB,0,0,1
MNG,RF,0,0,1
MNG,VFI,0,0,1
MNG,VP,1,0,1
NUTCH,HP,1,0,0
NUTCH,IB1,0,1,0
NUTCH,IBk,0,1,0
NUTCH,J48,0,0,1
NUTCH,LOG,0,1,1
NUTCH,NB,0,1,1
NUTCH,RF,0,1,0
NUTCH,VFI,0,1,1
NUTCH,VP,0,1,0
OPENJPA,HP,1,0,0
OPENJPA,IB1,1,0,0
OPENJPA,IBk,1,0,0
OPENJPA,J48,1,0,0
OPENJPA,LOG,1,0,0
OPENJPA,NB,1,0,0
OPENJPA,RF,1,0,0
OPENJPA,VFI,1,0,0
OPENJPA,VP,1,0,0
QPID,HP,0,1,0
QPID,IB1,0,1,1
QPID,IBk,0,1,1
QPID,J48,0,1,0
QPID,LOG,1,0,1
QPID,NB,1,1,0
QPID,RF,1,1,1
QPID,VFI,1,0,1
QPID,VP,0,1,0
TIKA,HP,1,0,0
TIKA,IB1,1,0,0
TIKA,IBk,1,0,0
TIKA,J48,1,0,0
TIKA,LOG,1,0,0
TIKA,NB,1,0,0
TIKA,RF,1,0,0
TIKA,VFI,1,0,0
TIKA,VP,1,0,0
ZOOKEEPER,HP,1,0,0
ZOOKEEPER,IB1,0,0,1
ZOOKEEPER,IBk,0,0,1
ZOOKEEPER,J48,0,0,1
ZOOKEEPER,LOG,1,0,0
ZOOKEEPER,NB,0,0,1
ZOOKEEPER,RF,0,0,1
ZOOKEEPER,VFI,1,0,0
ZOOKEEPER,VP,0,0,1
