ID;Size;Predicted;Actual
src/main/java/org/apache/tika/cli/TikaCLI.java#private_ContentHandler_getTextContentHandler()-3;16; 0.000;NO
src/main/java/org/apache/tika/config/TikaConfig.java#private_DocumentBuilder_getBuilder()-3;40; 0.000;NO
src/main/java/org/apache/tika/cli/TikaCLI.java#private_ContentHandler_getMetadataContentHandler()-3;67; 0.000;NO
src/main/java/org/apache/tika/cli/TikaCLI.java#private_ContentHandler_getXmlContentHandler()-3;76; 0.000;NO
src/main/java/org/apache/tika/cli/TikaCLI.java#public_TikaCLI()-3;21; 0.000;NO
src/main/java/org/apache/tika/config/TikaConfig.java#private_Element_getChild(Element,String)-3;72; 0.000;NO
src/main/java/org/apache/tika/cli/TikaCLI.java#private_ContentHandler_getHtmlContentHandler()-3;76; 0.000;NO
src/main/java/org/apache/tika/cli/TikaCLI.java#private_void_usage()-3;198; 0.000;NO
src/main/java/org/apache/tika/cli/TikaCLI.java#public_void_process(String)-3;385; 0.000;NO
src/main/java/org/apache/tika/cli/TikaCLI.java#public_void_main(String[])-3;96; 0.000;NO
src/main/java/org/apache/tika/config/TikaConfig.java#public_Parser_getParser(String)-3;22; 0.000;NO
src/main/java/org/apache/tika/config/TikaConfig.java#public_MimeTypes_getMimeRepository()-3;10; 0.000;NO
src/main/java/org/apache/tika/config/TikaConfig.java#public_TikaConfig(String)-3;23; 0.000;NO
src/main/java/org/apache/tika/config/TikaConfig.java#public_TikaConfig(URL)-3;30; 0.000;NO
src/main/java/org/apache/tika/config/TikaConfig.java#public_Map[String,Parser]_getParsers()-3;15; 0.000;NO
src/main/java/org/apache/tika/config/TikaConfig.java#public_TikaConfig(Document)-3;21; 0.000;NO
src/main/java/org/apache/tika/config/TikaConfig.java#public_TikaConfig(InputStream)-3;26; 0.000;NO
src/main/java/org/apache/tika/config/TikaConfig.java#public_TikaConfig(Element)-3;186; 0.000;NO
src/main/java/org/apache/tika/config/TikaConfig.java#private_String_getText(Node)-3;110; 0.000;NO
src/main/java/org/apache/tika/config/TikaConfig.java#public_TikaConfig(File)-3;26; 0.000;NO
src/main/java/org/apache/tika/detect/CompositeDetector.java#public_MediaType_detect(InputStream,Metadata)-3;60; 0.000;NO
src/main/java/org/apache/tika/detect/NameDetector.java#public_MediaType_detect(InputStream,Metadata)-3;266; 0.000;NO
src/main/java/org/apache/tika/detect/Detector.java#MediaType_detect(InputStream,Metadata)-3;19; 0.000;NO
src/main/java/org/apache/tika/config/TikaConfig.java#public_TikaConfig_getDefaultConfig()-3;69; 0.000;NO
src/main/java/org/apache/tika/detect/MagicDetector.java#public_MediaType_detect(InputStream,Metadata)-3;316; 0.000;NO
src/main/java/org/apache/tika/detect/NameDetector.java#public_NameDetector(Map[Pattern,MediaType])-3;23; 0.000;NO
src/main/java/org/apache/tika/detect/CompositeDetector.java#public_CompositeDetector(List[Detector])-3;17; 0.000;NO
src/main/java/org/apache/tika/detect/MagicDetector.java#public_MagicDetector(MediaType,byte[])-3;27; 0.000;NO
src/main/java/org/apache/tika/detect/MagicDetector.java#public_MagicDetector(MediaType,byte[],byte[],long,long)-3;198; 1.000;NO
src/main/java/org/apache/tika/exception/TikaException.java#public_TikaException(String)-3;13; 0.000;NO
src/main/java/org/apache/tika/exception/TikaException.java#public_TikaException(String,Throwable)-3;18; 0.000;NO
src/main/java/org/apache/tika/gui/ParsingTransferHandler.java#public_int_getSourceActions(JComponent)-3;17; 0.000;NO
src/main/java/org/apache/tika/detect/MagicDetector.java#public_MagicDetector(MediaType,byte[],long)-3;35; 0.000;NO
src/main/java/org/apache/tika/gui/ParsingTransferHandler.java#public_Icon_getVisualRepresentation(Transferable)-3;17; 0.000;NO
src/main/java/org/apache/tika/gui/ParsingTransferHandler.java#public_ParsingTransferHandler(TransferHandler,TikaGUI)-3;23; 0.000;NO
src/main/java/org/apache/tika/detect/TextDetector.java#public_MediaType_detect(InputStream,Metadata)-3;117; 0.000;NO
src/main/java/org/apache/tika/gui/ParsingTransferHandler.java#private_List[File]_uriToFileList(String)-3;98; 0.000;NO
src/main/java/org/apache/tika/detect/TypeDetector.java#public_MediaType_detect(InputStream,Metadata)-3;64; 0.000;NO
src/main/java/org/apache/tika/gui/ParsingTransferHandler.java#public_boolean_canImport(JComponent,DataFlavor[])-3;49; 0.000;NO
src/main/java/org/apache/tika/gui/TikaGUI.java#private_ContentHandler_getHtmlHandler(Writer)-3;217; 0.000;NO
src/main/java/org/apache/tika/gui/TikaGUI.java#private_ContentHandler_getTextContentHandler(Writer)-3;16; 0.000;NO
src/main/java/org/apache/tika/gui/ParsingTransferHandler.java#public_boolean_importData(JComponent,Transferable)-3;112; 0.000;NO
src/main/java/org/apache/tika/gui/TikaGUI.java#public_TikaGUI(Parser)-3;98; 0.000;NO
src/main/java/org/apache/tika/gui/ParsingTransferHandler.java#public_void_exportAsDrag(JComponent,InputEvent,int)-3;26; 0.000;NO
src/main/java/org/apache/tika/gui/ParsingTransferHandler.java#public_void_exportToClipboard(JComponent,Clipboard,int)-3;28; 0.000;NO
src/main/java/org/apache/tika/gui/TikaGUI.java#private_ContentHandler_getXmlContentHandler(Writer)-3;61; 0.000;NO
src/main/java/org/apache/tika/gui/TikaGUI.java#private_JEditorPane_createEditor(String,String)-3;60; 0.000;NO
src/main/java/org/apache/tika/metadata/Metadata.java#public_boolean_isMultiValued(String)-3;36; 0.000;NO
src/main/java/org/apache/tika/gui/TikaGUI.java#public_void_main(String[])-3;63; 0.000;NO
src/main/java/org/apache/tika/metadata/Metadata.java#public_String_toString()-3;108; 0.000;NO
src/main/java/org/apache/tika/metadata/Metadata.java#public_int_size()-3;18; 0.000;NO
src/main/java/org/apache/tika/gui/TikaGUI.java#private_void_setText(JEditorPane,String)-3;26; 0.000;NO
src/main/java/org/apache/tika/metadata/Metadata.java#public_String_get(String)-3;47; 0.000;NO
src/main/java/org/apache/tika/metadata/Metadata.java#public_boolean_equals(Object)-3;174; 0.000;NO
src/main/java/org/apache/tika/metadata/Metadata.java#public_Metadata()-3;23; 0.000;NO
src/main/java/org/apache/tika/metadata/Metadata.java#private_String[]__getValues(String)-3;42; 0.000;NO
src/main/java/org/apache/tika/metadata/SpellCheckedMetadata.java#public_void_remove(String)-3;21; 0.000;NO
src/main/java/org/apache/tika/metadata/Metadata.java#public_void_add(String,String)-3;96; 0.000;NO
src/main/java/org/apache/tika/metadata/Metadata.java#public_void_setAll(Properties)-3;64; 0.000;NO
src/main/java/org/apache/tika/metadata/SpellCheckedMetadata.java#private_String_normalize(String)-3;86; 0.000;NO
src/main/java/org/apache/tika/metadata/Metadata.java#public_String[]_getValues(String)-3;23; 0.000;NO
src/main/java/org/apache/tika/metadata/SpellCheckedMetadata.java#public_void_add(String,String)-3;27; 0.000;NO
src/main/java/org/apache/tika/metadata/Metadata.java#public_String[]_names()-3;28; 0.000;NO
src/main/java/org/apache/tika/metadata/Metadata.java#public_void_set(String,String)-3;32; 0.000;NO
src/main/java/org/apache/tika/metadata/Metadata.java#public_void_remove(String)-3;20; 0.000;NO
src/main/java/org/apache/tika/mime/Magic.java#int_getPriority()-3;9; 0.000;NO
src/main/java/org/apache/tika/metadata/SpellCheckedMetadata.java#public_void_set(String,String)-3;27; 0.000;NO
src/main/java/org/apache/tika/mime/HexCoDec.java#private_int_hexCharToNibble(char)-3;88; 0.000;NO
src/main/java/org/apache/tika/metadata/SpellCheckedMetadata.java#public_String_get(String)-3;22; 0.000;NO
src/main/java/org/apache/tika/metadata/SpellCheckedMetadata.java#public_String[]_getValues(String)-3;24; 0.000;NO
src/main/java/org/apache/tika/mime/HexCoDec.java#public_byte[]_decode(char[])-3;31; 0.000;NO
src/main/java/org/apache/tika/metadata/SpellCheckedMetadata.java#public_String_getNormalizedName(String)-3;124; 0.000;NO
src/main/java/org/apache/tika/mime/Clause.java#public_int_size()-3;9; 0.000;NO
src/main/java/org/apache/tika/mime/HexCoDec.java#public_char[]_encode(byte[],int,int)-3;97; 0.000;NO
src/main/java/org/apache/tika/mime/MagicClause.java#MagicClause(Operator,Clause,Clause)-3;47; 0.000;NO
src/main/java/org/apache/tika/mime/Magic.java#Magic()-3;10; 0.000;NO
src/main/java/org/apache/tika/mime/Clause.java#public_boolean_eval(byte[])-3;13; 0.000;NO
src/main/java/org/apache/tika/mime/Magic.java#public_boolean_eval(byte[])-3;19; 0.000;NO
src/main/java/org/apache/tika/mime/Magic.java#public_int_compareTo(Magic)-3;64; 0.000;NO
src/main/java/org/apache/tika/mime/HexCoDec.java#public_byte[]_decode(String)-3;27; 0.000;NO
src/main/java/org/apache/tika/mime/HexCoDec.java#public_char[]_encode(byte[])-3;31; 0.000;NO
src/main/java/org/apache/tika/mime/HexCoDec.java#public_byte[]_decode(char[],int,int)-3;105; 0.000;NO
src/main/java/org/apache/tika/mime/Magic.java#MimeType_getType()-3;9; 0.000;NO
src/main/java/org/apache/tika/mime/Magic.java#void_setType(MimeType)-3;14; 0.000;NO
src/main/java/org/apache/tika/mime/Magic.java#Magic(int)-3;13; 0.000;NO
src/main/java/org/apache/tika/mime/MediaType.java#private_Map[String,String]_union(Map[String,String],Map[String,String])-3;93; 0.000;NO
src/main/java/org/apache/tika/mime/MagicClause.java#public_boolean_eval(byte[])-3;31; 0.000;NO
src/main/java/org/apache/tika/mime/MagicMatch.java#MagicMatch(int,int,String,String,String)-3;130; 0.000;NO
src/main/java/org/apache/tika/mime/Magic.java#public_String_toString()-3;49; 0.000;NO
src/main/java/org/apache/tika/mime/MagicMatch.java#private_byte[]_decodeString(String)-3;283; 0.000;NO
src/main/java/org/apache/tika/mime/Magic.java#void_setClause(Clause)-3;14; 0.000;NO
src/main/java/org/apache/tika/mime/MagicClause.java#public_String_toString()-3;52; 0.000;NO
src/main/java/org/apache/tika/mime/Magic.java#public_int_size()-3;14; 0.000;NO
src/main/java/org/apache/tika/mime/MagicMatch.java#public_String_toString()-3;30; 0.000;NO
src/main/java/org/apache/tika/mime/MagicClause.java#public_int_size()-3;10; 0.000;NO
src/main/java/org/apache/tika/mime/MediaType.java#public_String_getSubtype()-3;10; 0.000;NO
src/main/java/org/apache/tika/mime/MediaType.java#public_boolean_equals(Object)-3;59; 0.000;NO
src/main/java/org/apache/tika/mime/MediaType.java#public_Map[String,String]_getParameters()-3;20; 0.000;NO
src/main/java/org/apache/tika/mime/MagicMatch.java#public_int_size()-3;10; 0.000;NO
src/main/java/org/apache/tika/mime/MediaType.java#public_int_hashCode()-3;51; 0.000;NO
src/main/java/org/apache/tika/mime/MagicMatch.java#public_boolean_eval(byte[])-3;116; 0.000;NO
src/main/java/org/apache/tika/mime/MediaType.java#public_MediaType(MediaType,Map[String,String])-3;36; 0.000;NO
src/main/java/org/apache/tika/mime/MagicMatch.java#private_byte[]_decodeValue(String,String)-3;406; 0.000;NO
src/main/java/org/apache/tika/mime/MediaType.java#public_MediaType_parse(String)-3;128; 0.000;NO
src/main/java/org/apache/tika/mime/MediaType.java#public_boolean_isSpecializationOf(MediaType)-3;125; 0.000;NO
src/main/java/org/apache/tika/mime/MimeType.java#public_boolean_hasMagic()-3;18; 0.000;NO
src/main/java/org/apache/tika/mime/MediaType.java#public_String_getType()-3;10; 0.000;NO
src/main/java/org/apache/tika/mime/MediaTypeRegistry.java#public_void_addAlias(MediaType,MediaType)-3;21; 0.000;NO
src/main/java/org/apache/tika/mime/MediaType.java#public_MediaType_getBaseType()-3;32; 0.000;NO
src/main/java/org/apache/tika/mime/MediaTypeRegistry.java#public_MediaType_unalias(MediaType)-3;50; 0.000;NO
src/main/java/org/apache/tika/mime/MimeType.java#boolean_hasRootXML()-3;17; 0.000;NO
src/main/java/org/apache/tika/mime/MediaType.java#public_MediaType(String,String,Map[String,String])-3;108; 0.000;NO
src/main/java/org/apache/tika/mime/MediaType.java#public_MediaType(String,String)-3;20; 0.000;NO
src/main/java/org/apache/tika/mime/MimeType.java#MimeType(MimeTypes,String)-3;73; 0.000;NO
src/main/java/org/apache/tika/mime/MediaType.java#public_String_toString()-3;153; 0.000;NO
src/main/java/org/apache/tika/mime/MimeType.java#public_String_getName()-3;14; 0.000;NO
src/main/java/org/apache/tika/mime/MimeType.java#public_boolean_isDescendantOf(MimeType)-3;63; 0.000;NO
src/main/java/org/apache/tika/mime/MimeType.java#public_boolean_matchesMagic(byte[])-3;58; 0.000;NO
src/main/java/org/apache/tika/mime/MimeType.java#public_int_compareTo(MimeType)-3;115; 0.000;NO
src/main/java/org/apache/tika/mime/MimeType.java#int_getMinLength()-3;9; 0.000;NO
src/main/java/org/apache/tika/mime/MimeType.java#Magic[]_getMagics()-3;19; 0.000;NO
src/main/java/org/apache/tika/mime/MimeType.java#public_boolean_matches(byte[])-3;22; 0.000;NO
src/main/java/org/apache/tika/mime/MimeType.java#public_String_getDescription()-3;14; 0.000;NO
src/main/java/org/apache/tika/mime/MimeType.java#public_boolean_isValid(String)-3;175; 0.000;NO
src/main/java/org/apache/tika/mime/MimeType.java#boolean_matchesXML(byte[])-3;70; 0.000;NO
src/main/java/org/apache/tika/mime/MimeTypeException.java#public_MimeTypeException(Throwable)-3;17; 0.000;NO
src/main/java/org/apache/tika/mime/MimeType.java#public_String_toString()-3;14; 0.000;NO
src/main/java/org/apache/tika/mime/MimeType.java#public_void_setSuperType(MimeType)-3;161; 0.000;NO
src/main/java/org/apache/tika/mime/MimeType.java#public_void_setDescription(String)-3;34; 0.000;NO
src/main/java/org/apache/tika/mime/MimeTypeException.java#public_MimeTypeException(String)-3;17; 0.000;NO
src/main/java/org/apache/tika/mime/MimeType.java#public_void_addAlias(String)-3;81; 0.000;NO
src/main/java/org/apache/tika/mime/MimeType.java#RootXML[]_getRootXMLs()-3;19; 0.000;NO
src/main/java/org/apache/tika/mime/MimeType.java#public_SortedSet[MimeType]_getSubTypes()-3;18; 0.000;NO
src/main/java/org/apache/tika/mime/MimeType.java#public_SortedSet[String]_getAliases()-3;22; 0.000;NO
src/main/java/org/apache/tika/mime/MimeType.java#public_MimeType_getSuperType()-3;14; 0.000;NO
src/main/java/org/apache/tika/mime/MimeTypes.java#public_MimeType_getMimeType(String,byte[])-3;47; 0.000;NO
src/main/java/org/apache/tika/mime/MimeTypes.java#private_byte[]_readMagicHeader(InputStream)-3;130; 0.000;NO
src/main/java/org/apache/tika/mime/MimeTypes.java#public_MimeTypes()-3;78; 0.000;NO
src/main/java/org/apache/tika/mime/MimeTypes.java#public_int_getMinLength()-3;16; 0.000;NO
src/main/java/org/apache/tika/mime/MimeType.java#void_addRootXML(String,String)-3;31; 0.000;NO
src/main/java/org/apache/tika/mime/MimeTypes.java#public_MimeType_getMimeType(String)-3;65; 0.000;NO
src/main/java/org/apache/tika/mime/MimeType.java#void_addMagic(Magic)-3;25; 0.000;NO
src/main/java/org/apache/tika/mime/MimeTypeException.java#public_MimeTypeException()-3;13; 0.000;NO
src/main/java/org/apache/tika/mime/MimeTypes.java#public_MediaType_detect(InputStream,Metadata)-3;180; 0.000;NO
src/main/java/org/apache/tika/mime/MimeTypes.java#public_MimeType_forName(String)-3;117; 0.000;NO
src/main/java/org/apache/tika/mime/MimeTypesFactory.java#public_MimeTypes_create(Document)-3;35; 0.000;NO
src/main/java/org/apache/tika/mime/MimeTypes.java#public_MimeType_getMimeType(String,InputStream)-3;33; 0.000;NO
src/main/java/org/apache/tika/mime/MimeTypes.java#public_MimeType_getMimeType(URL)-3;24; 0.000;NO
src/main/java/org/apache/tika/mime/MimeTypes.java#public_MimeType_getMimeType(File)-3;24; 0.000;NO
src/main/java/org/apache/tika/mime/MimeTypesFactory.java#public_MimeTypes_create()-3;18; 0.000;NO
src/main/java/org/apache/tika/mime/MimeTypes.java#public_MimeType_getMimeType(InputStream)-3;27; 0.000;NO
src/main/java/org/apache/tika/mime/MimeTypes.java#public_String_getType(URL)-3;73; 0.000;NO
src/main/java/org/apache/tika/mime/MimeTypesFactory.java#public_MimeTypes_create(InputStream)-3;35; 0.000;NO
src/main/java/org/apache/tika/mime/MimeTypes.java#public_MimeType_getMimeType(byte[])-3;130; 0.000;NO
src/main/java/org/apache/tika/mime/MimeTypes.java#public_void_addPattern(MimeType,String)-3;31; 0.000;NO
src/main/java/org/apache/tika/mime/MimeTypesReader.java#private_void_readRootXML(Element,MimeType)-3;34; 0.000;NO
src/main/java/org/apache/tika/mime/MimeTypes.java#public_String_getType(String,String,byte[])-3;98; 0.000;NO
src/main/java/org/apache/tika/mime/MimeTypesFactory.java#public_MimeTypes_create(String)-3;28; 0.000;NO
src/main/java/org/apache/tika/mime/MimeTypes.java#void_add(MimeType)-3;55; 0.000;NO
src/main/java/org/apache/tika/mime/MimeTypes.java#void_addAlias(MimeType,String)-3;53; 0.000;NO
src/main/java/org/apache/tika/mime/MimeTypesReader.java#MimeTypesReader(MimeTypes)-3;14; 0.000;NO
src/main/java/org/apache/tika/mime/MimeTypesReader.java#private_void_readMimeType(Element)-3;357; 0.000;NO
src/main/java/org/apache/tika/mime/MimeTypesReader.java#MimeTypesReader(MimeTypes,Log)-3;48; 0.000;NO
src/main/java/org/apache/tika/mime/MimeTypesFactory.java#public_MimeTypes_create(URL)-3;42; 0.000;NO
src/main/java/org/apache/tika/mime/MimeTypesReader.java#void_read(Document)-3;131; 0.000;NO
src/main/java/org/apache/tika/mime/MimeTypesReader.java#void_read(InputStream)-3;78; 0.000;NO
src/main/java/org/apache/tika/mime/MimeTypes.java#public_void_addPattern(MimeType,String,boolean)-3;35; 0.000;NO
src/main/java/org/apache/tika/mime/Operator.java#boolean_eval(boolean,boolean)-3;16; 0.000;NO
src/main/java/org/apache/tika/mime/Patterns.java#public_void_add(String,boolean,MimeType)-3;162; 0.000;NO
src/main/java/org/apache/tika/mime/Patterns.java#public_MimeType_matches(String)-3;158; 0.000;NO
src/main/java/org/apache/tika/mime/MimeTypesReader.java#private_MagicMatch_readMatch(Element)-3;263; 0.000;NO
src/main/java/org/apache/tika/mime/MimeTypesReader.java#private_void_readMagic(Element,MimeType)-3;79; 0.000;NO
src/main/java/org/apache/tika/mime/Patterns.java#private_String_compile(String)-3;138; 0.000;NO
src/main/java/org/apache/tika/mime/MimeTypesReader.java#void_read(String)-3;24; 0.000;NO
src/main/java/org/apache/tika/parser/asm/ClassParser.java#public_void_parse(InputStream,ContentHandler,Metadata)-3;100; 0.000;NO
src/main/java/org/apache/tika/mime/Patterns.java#public_void_add(String,MimeType)-3;25; 0.000;NO
src/main/java/org/apache/tika/parser/asm/XHTMLClassVisitor.java#private_void_writeAccess(int)-3;121; 0.000;NO
src/main/java/org/apache/tika/parser/asm/XHTMLClassVisitor.java#private_void_writeSemicolon()-3;16; 0.000;NO
src/main/java/org/apache/tika/mime/MimeTypesReader.java#private_Clause_readMatches(Element)-3;188; 0.000;NO
src/main/java/org/apache/tika/parser/asm/XHTMLClassVisitor.java#private_void_writeNewline()-3;16; 0.000;NO
src/main/java/org/apache/tika/mime/Patterns.java#private_void_addName(String,MimeType)-3;76; 0.000;NO
src/main/java/org/apache/tika/mime/Patterns.java#private_void_addGlob(String,MimeType)-3;76; 0.000;NO
src/main/java/org/apache/tika/parser/asm/XHTMLClassVisitor.java#private_void_writeAccess(int,int,String)-3;40; 0.000;NO
src/main/java/org/apache/tika/parser/asm/XHTMLClassVisitor.java#private_boolean_isSet(int,int)-3;22; 0.000;NO
src/main/java/org/apache/tika/parser/asm/XHTMLClassVisitor.java#private_void_writeType(Type)-3;89; 0.000;NO
src/main/java/org/apache/tika/parser/asm/XHTMLClassVisitor.java#public_FieldVisitor_visitField(int,String,String,String,Object)-3;132; 0.000;NO
src/main/java/org/apache/tika/parser/asm/XHTMLClassVisitor.java#private_void_writeSpace()-3;16; 0.000;NO
src/main/java/org/apache/tika/parser/asm/XHTMLClassVisitor.java#public_void_visitOuterClass(String,String,String)-3;18; 0.000;NO
src/main/java/org/apache/tika/mime/Patterns.java#private_void_addExtension(String,MimeType)-3;107; 0.000;NO
src/main/java/org/apache/tika/parser/asm/XHTMLClassVisitor.java#public_void_visitInnerClass(String,String,String,int)-3;21; 0.000;NO
src/main/java/org/apache/tika/parser/asm/XHTMLClassVisitor.java#private_void_writeKeyword(String)-3;36; 0.000;NO
src/main/java/org/apache/tika/parser/asm/XHTMLClassVisitor.java#public_AnnotationVisitor_visitAnnotation(String,boolean)-3;18; 0.000;NO
src/main/java/org/apache/tika/parser/asm/XHTMLClassVisitor.java#private_void_writeInterfaces(String,String[])-3;74; 0.000;NO
src/main/java/org/apache/tika/parser/asm/XHTMLClassVisitor.java#public_MethodVisitor_visitMethod(int,String,String,String,String[])-3;224; 0.000;NO
src/main/java/org/apache/tika/parser/asm/XHTMLClassVisitor.java#public_XHTMLClassVisitor(ContentHandler,Metadata)-3;29; 0.000;NO
src/main/java/org/apache/tika/parser/asm/XHTMLClassVisitor.java#public_void_visitSource(String,String)-3;15; 0.000;NO
src/main/java/org/apache/tika/parser/AutoDetectParser.java#public_void_setMimeTypes(MimeTypes)-3;15; 0.000;NO
src/main/java/org/apache/tika/parser/asm/XHTMLClassVisitor.java#private_void_writeIdentifier(String)-3;36; 0.000;NO
src/main/java/org/apache/tika/parser/AutoDetectParser.java#public_void_setConfig(TikaConfig)-3;27; 0.000;NO
src/main/java/org/apache/tika/parser/audio/MidiParser.java#public_void_parse(InputStream,ContentHandler,Metadata)-3;370; 0.000;NO
src/main/java/org/apache/tika/parser/asm/XHTMLClassVisitor.java#public_void_visitEnd()-3;44; 0.000;NO
src/main/java/org/apache/tika/parser/asm/XHTMLClassVisitor.java#public_void_visitAttribute(Attribute)-3;12; 0.000;NO
src/main/java/org/apache/tika/parser/AutoDetectParser.java#public_AutoDetectParser()-3;35; 0.000;NO
src/main/java/org/apache/tika/parser/audio/AudioParser.java#public_void_parse(InputStream,ContentHandler,Metadata)-3;236; 0.000;NO
src/main/java/org/apache/tika/parser/CompositeParser.java#protected_Parser_getParser(Metadata)-3;46; 0.000;NO
src/main/java/org/apache/tika/parser/ExternalParser.java#private_void_ignoreError(Process)-3;73; 0.000;NO
src/main/java/org/apache/tika/parser/CompositeParser.java#public_Map[String,Parser]_getParsers()-3;19; 0.000;NO
src/main/java/org/apache/tika/parser/ExternalParser.java#private_void_extractOutput(Process,XHTMLContentHandler)-3;123; 0.000;NO
src/main/java/org/apache/tika/parser/CompositeParser.java#public_void_parse(InputStream,ContentHandler,Metadata)-3;38; 0.000;NO
src/main/java/org/apache/tika/parser/asm/XHTMLClassVisitor.java#public_void_visit(int,int,String,String,String,String[])-3;325; 0.000;NO
src/main/java/org/apache/tika/parser/AutoDetectParser.java#public_void_parse(InputStream,ContentHandler,Metadata)-3;78; 0.000;NO
src/main/java/org/apache/tika/parser/CompositeParser.java#public_void_setFallback(Parser)-3;19; 0.000;NO
src/main/java/org/apache/tika/parser/AutoDetectParser.java#public_MimeTypes_getMimeTypes()-3;10; 0.000;NO
src/main/java/org/apache/tika/parser/CompositeParser.java#public_Parser_getFallback()-3;14; 0.000;NO
src/main/java/org/apache/tika/parser/ExternalParser.java#private_void_sendInput(Process,InputStream)-3;75; 0.000;NO
src/main/java/org/apache/tika/parser/ExternalParser.java#public_void_parse(InputStream,ContentHandler,Metadata)-3;91; 0.000;NO
src/main/java/org/apache/tika/parser/html/XHTMLDowngradeHandler.java#public_void_startPrefixMapping(String,String)-3;13; 0.000;NO
src/main/java/org/apache/tika/parser/html/XHTMLDowngradeHandler.java#public_void_startElement(String,String,String,Attributes)-3;168; 0.000;NO
src/main/java/org/apache/tika/parser/html/HtmlParser.java#private_ContentHandler_getMetaHandler(Metadata)-3;103; 0.000;NO
src/main/java/org/apache/tika/parser/AutoDetectParser.java#public_AutoDetectParser(TikaConfig)-3;13; 0.000;NO
src/main/java/org/apache/tika/parser/ErrorParser.java#public_void_parse(InputStream,ContentHandler,Metadata)-3;24; 0.000;NO
src/main/java/org/apache/tika/parser/html/HtmlParser.java#private_ContentHandler_getTitleHandler(Metadata)-3;47; 0.000;NO
src/main/java/org/apache/tika/parser/EmptyParser.java#public_void_parse(InputStream,ContentHandler,Metadata)-3;40; 0.000;NO
src/main/java/org/apache/tika/parser/html/HtmlParser.java#private_ContentHandler_getBodyHandler(XHTMLContentHandler)-3;292; 0.000;NO
src/main/java/org/apache/tika/parser/html/XHTMLDowngradeHandler.java#public_XHTMLDowngradeHandler(ContentHandler)-3;13; 0.000;NO
src/main/java/org/apache/tika/parser/image/ImageParser.java#public_void_parse(InputStream,ContentHandler,Metadata)-3;156; 0.000;NO
src/main/java/org/apache/tika/parser/microsoft/LinkedCell.java#public_void_render(XHTMLContentHandler)-3;36; 0.000;NO
src/main/java/org/apache/tika/parser/microsoft/LinkedCell.java#public_LinkedCell(Cell,String)-3;22; 0.000;NO
src/main/java/org/apache/tika/parser/microsoft/CellDecorator.java#public_CellDecorator(Cell)-3;14; 0.000;NO
src/main/java/org/apache/tika/parser/html/XHTMLDowngradeHandler.java#public_void_endPrefixMapping(String)-3;10; 0.000;NO
src/main/java/org/apache/tika/parser/CompositeParser.java#public_void_setParsers(Map[String,Parser])-3;24; 0.000;NO
src/main/java/org/apache/tika/parser/microsoft/CellDecorator.java#public_void_render(XHTMLContentHandler)-3;18; 0.000;NO
src/main/java/org/apache/tika/parser/html/XHTMLDowngradeHandler.java#public_void_endElement(String,String,String)-3;40; 0.000;NO
src/main/java/org/apache/tika/parser/microsoft/Cell.java#void_render(XHTMLContentHandler)-3;14; 0.000;NO
src/main/java/org/apache/tika/parser/microsoft/NumberCell.java#public_NumberCell(double)-3;19; 0.000;NO
src/main/java/org/apache/tika/parser/microsoft/OfficeParser.java#public_void_parse(DocumentEntry,Metadata)-3;122; 0.000;NO
src/main/java/org/apache/tika/parser/microsoft/NumberCell.java#public_NumberCell(double,NumberFormat)-3;23; 0.000;NO
src/main/java/org/apache/tika/parser/microsoft/OfficeParser.java#private_void_setType(Metadata,String)-3;23; 0.000;NO
src/main/java/org/apache/tika/parser/microsoft/ExcelExtractor.java#public_void_setListenForAllRecords(boolean)-3;19; 0.000;NO
src/main/java/org/apache/tika/parser/microsoft/OfficeParser.java#private_void_parse(DocumentSummaryInformation,Metadata)-3;42; 0.000;NO
src/main/java/org/apache/tika/parser/html/HtmlParser.java#public_void_parse(InputStream,ContentHandler,Metadata)-3;157; 0.000;NO
src/main/java/org/apache/tika/parser/microsoft/ExcelExtractor.java#public_boolean_isListenForAllRecords()-3;13; 0.000;NO
src/main/java/org/apache/tika/parser/microsoft/OfficeParser.java#private_void_parse(SummaryInformation,Metadata)-3;267; 0.000;NO
src/main/java/org/apache/tika/parser/microsoft/NumberCell.java#public_void_render(XHTMLContentHandler)-3;23; 0.000;NO
src/main/java/org/apache/tika/parser/microsoft/OfficeParser.java#public_void_parse(InputStream,ContentHandler,Metadata)-3;362; 0.000;NO
src/main/java/org/apache/tika/parser/microsoft/ooxml/MetadataExtractor.java#private_void_extractMetadata(CoreProperties,Metadata)-3;276; 0.000;NO
src/main/java/org/apache/tika/parser/microsoft/ooxml/AbstractOOXMLExtractor.java#protected_void_buildXHTML(XHTMLContentHandler)-3;18; 0.000;NO
src/main/java/org/apache/tika/parser/microsoft/OfficeParser.java#private_void_set(Metadata,String,String)-3;32; 0.000;NO
src/main/java/org/apache/tika/parser/microsoft/ooxml/MetadataExtractor.java#private_void_addProperty(Metadata,String,String)-3;32; 0.000;NO
src/main/java/org/apache/tika/parser/microsoft/ExcelExtractor.java#protected_void_parse(POIFSFileSystem,XHTMLContentHandler)-3;250; 0.000;NO
src/main/java/org/apache/tika/parser/microsoft/OfficeParser.java#private_void_set(Metadata,String,long)-3;37; 0.000;NO
src/main/java/org/apache/tika/parser/microsoft/ooxml/AbstractOOXMLExtractor.java#public_MetadataExtractor_getMetadataExtractor()-3;17; 0.000;NO
src/main/java/org/apache/tika/parser/microsoft/ooxml/AbstractOOXMLExtractor.java#public_POIXMLDocument_getDocument()-3;17; 0.000;YES
src/main/java/org/apache/tika/parser/microsoft/ooxml/AbstractOOXMLExtractor.java#public_AbstractOOXMLExtractor(POIXMLTextExtractor)-3;14; 0.000;NO
src/main/java/org/apache/tika/parser/microsoft/ooxml/MetadataExtractor.java#private_void_extractMetadata(ExtendedProperties,Metadata)-3;246; 0.000;NO
src/main/java/org/apache/tika/parser/microsoft/OfficeParser.java#private_void_set(Metadata,String,Date)-3;36; 0.000;NO
src/main/java/org/apache/tika/parser/microsoft/ooxml/MetadataExtractor.java#public_MetadataExtractor(POIXMLTextExtractor)-3;14; 0.000;NO
src/main/java/org/apache/tika/parser/microsoft/ooxml/POIXMLTextExtractorDecorator.java#public_POIXMLTextExtractorDecorator(POIXMLTextExtractor)-3;13; 0.000;NO
src/main/java/org/apache/tika/parser/microsoft/ooxml/POIXMLTextExtractorDecorator.java#protected_void_buildXHTML(XHTMLContentHandler)-3;25; 0.000;NO
src/main/java/org/apache/tika/parser/microsoft/ooxml/MetadataExtractor.java#private_void_addProperty(Metadata,String,Nullable[.java#])-3;47; 0.000;NO
src/main/java/org/apache/tika/parser/microsoft/ooxml/MetadataExtractor.java#private_void_addProperty(Metadata,String,long)-3;37; 0.000;NO
src/main/java/org/apache/tika/parser/microsoft/ooxml/OOXMLExtractor.java#MetadataExtractor_getMetadataExtractor()-3;8; 0.000;NO
src/main/java/org/apache/tika/parser/microsoft/ooxml/OOXMLExtractor.java#POIXMLDocument_getDocument()-3;9; 0.000;NO
src/main/java/org/apache/tika/parser/microsoft/ooxml/MetadataExtractor.java#public_void_extract(Metadata)-3;84; 0.000;YES
src/main/java/org/apache/tika/parser/microsoft/OutlookExtractor.java#private_String_getChunk(StringChunk)-3;39; 0.000;NO
src/main/java/org/apache/tika/parser/microsoft/ooxml/AbstractOOXMLExtractor.java#public_XHTMLContentHandler_getXHTML(ContentHandler,Metadata)-3;52; 0.000;NO
src/main/java/org/apache/tika/parser/microsoft/ooxml/XSLFPowerPointExtractorDecorator.java#private_void_extractShapeContent(CTGroupShape,XHTMLContentHandler)-3;104; 0.000;NO
src/main/java/org/apache/tika/parser/microsoft/ooxml/XSLFPowerPointExtractorDecorator.java#protected_void_buildXHTML(XHTMLContentHandler)-3;192; 0.000;YES
src/main/java/org/apache/tika/parser/microsoft/ooxml/XWPFWordExtractorDecorator.java#public_XWPFWordExtractorDecorator(XWPFWordExtractor)-3;13; 0.000;NO
src/main/java/org/apache/tika/parser/microsoft/ooxml/OOXMLExtractorFactory.java#public_OOXMLExtractor_createExtractor(POIXMLTextExtractor)-3;85; 0.000;NO
src/main/java/org/apache/tika/parser/microsoft/ooxml/OOXMLParser.java#public_void_parse(InputStream,ContentHandler,Metadata)-3;113; 0.000;NO
src/main/java/org/apache/tika/parser/microsoft/ooxml/XSSFExcelExtractorDecorator.java#private_void_extractHeaderFooter(HeaderFooter,XHTMLContentHandler)-3;45; 0.000;NO
src/main/java/org/apache/tika/parser/opendocument/NSNormalizerContentHandler.java#public_InputSource_resolveEntity(String,String)-3;72; 0.000;NO
src/main/java/org/apache/tika/parser/microsoft/ooxml/XSSFExcelExtractorDecorator.java#protected_void_buildXHTML(XHTMLContentHandler)-3;369; 0.000;YES
src/main/java/org/apache/tika/parser/microsoft/ooxml/XSLFPowerPointExtractorDecorator.java#public_XSLFPowerPointExtractorDecorator(XSLFPowerPointExtractor)-3;13; 0.000;NO
src/main/java/org/apache/tika/parser/microsoft/OutlookExtractor.java#public_OutlookExtractor(POIFSFileSystem)-3;39; 0.000;NO
src/main/java/org/apache/tika/parser/microsoft/OutlookExtractor.java#private_void_header(XHTMLContentHandler,String,String)-3;47; 0.000;NO
src/main/java/org/apache/tika/parser/microsoft/ooxml/OOXMLExtractor.java#XHTMLContentHandler_getXHTML(ContentHandler,Metadata)-3;19; 0.000;NO
src/main/java/org/apache/tika/parser/opendocument/NSNormalizerContentHandler.java#private_String_mapOldNS(String)-3;47; 0.000;NO
src/main/java/org/apache/tika/parser/microsoft/TextCell.java#public_TextCell(String)-3;14; 0.000;NO
src/main/java/org/apache/tika/parser/opendocument/OpenOfficeParser.java#public_Parser_getMetaParser()-3;10; 0.000;NO
src/main/java/org/apache/tika/parser/microsoft/ooxml/XWPFWordExtractorDecorator.java#protected_void_buildXHTML(XHTMLContentHandler)-3;289; 0.000;NO
src/main/java/org/apache/tika/parser/microsoft/TextCell.java#public_void_render(XHTMLContentHandler)-3;18; 0.000;NO
src/main/java/org/apache/tika/parser/microsoft/ooxml/XWPFWordExtractorDecorator.java#private_void_extractTableContent(CTTbl[],XHTMLContentHandler)-3;195; 0.000;NO
src/main/java/org/apache/tika/parser/opendocument/NSNormalizerContentHandler.java#public_void_endElement(String,String,String)-3;32; 0.000;NO
src/main/java/org/apache/tika/parser/opendocument/NSNormalizerContentHandler.java#public_NSNormalizerContentHandler(ContentHandler)-3;13; 0.000;NO
src/main/java/org/apache/tika/parser/microsoft/OutlookExtractor.java#public_void_parse(XHTMLContentHandler,Metadata)-3;162; 0.000;NO
src/main/java/org/apache/tika/parser/opendocument/OpenOfficeParser.java#public_Parser_getContentParser()-3;10; 0.000;NO
src/main/java/org/apache/tika/parser/opendocument/NSNormalizerContentHandler.java#public_void_startPrefixMapping(String,String)-3;27; 0.000;NO
src/main/java/org/apache/tika/parser/microsoft/ooxml/XSSFExcelExtractorDecorator.java#public_XSSFExcelExtractorDecorator(XSSFExcelExtractor)-3;13; 0.000;NO
src/main/java/org/apache/tika/parser/mp3/Mp3Parser.java#public_void_parse(InputStream,ContentHandler,Metadata)-3;308; 0.000;NO
src/main/java/org/apache/tika/parser/opendocument/OpenOfficeParser.java#public_void_setContentParser(Parser)-3;15; 0.000;NO
src/main/java/org/apache/tika/parser/opendocument/OpenOfficeContentParser.java#public_void_parse(InputStream,ContentHandler,Metadata)-3;637; 0.000;NO
src/main/java/org/apache/tika/parser/ParsingReader.java#public_int_read(char[],int,int)-3;81; 0.000;NO
src/main/java/org/apache/tika/parser/opendocument/OpenOfficeParser.java#public_void_parse(InputStream,ContentHandler,Metadata)-3;150; 0.000;NO
src/main/java/org/apache/tika/parser/mp3/Mp3Parser.java#private_String_getString(byte[],int,int)-3;127; 0.000;NO
src/main/java/org/apache/tika/parser/opendocument/NSNormalizerContentHandler.java#public_void_startElement(String,String,String,Attributes)-3;108; 0.000;NO
src/main/java/org/apache/tika/parser/ParsingReader.java#private_Metadata_getMetadata(String)-3;53; 0.000;NO
src/main/java/org/apache/tika/parser/Parser.java#void_parse(InputStream,ContentHandler,Metadata)-3;28; 0.000;NO
src/main/java/org/apache/tika/parser/mp3/Mp3Parser.java#private_byte[]_getSuffix(InputStream,int)-3;152; 0.000;NO
src/main/java/org/apache/tika/parser/ParserDecorator.java#public_ParserDecorator(Parser)-3;18; 0.000;NO
src/main/java/org/apache/tika/parser/pdf/PDF2XHTML.java#protected_void_startDocument(PDDocument)-3;36; 0.000;NO
src/main/java/org/apache/tika/parser/pdf/PDF2XHTML.java#protected_void_endParagraph()-3;35; 0.000;NO
src/main/java/org/apache/tika/parser/opendocument/OpenOfficeParser.java#public_void_setMetaParser(Parser)-3;15; 0.000;NO
src/main/java/org/apache/tika/parser/ParsingReader.java#public_ParsingReader(InputStream)-3;30; 0.000;NO
src/main/java/org/apache/tika/parser/opendocument/OpenOfficeMetaParser.java#protected_ContentHandler_getContentHandler(ContentHandler,Metadata)-3;153; 0.000;NO
src/main/java/org/apache/tika/parser/ParsingReader.java#public_ParsingReader(File)-3;33; 0.000;NO
src/main/java/org/apache/tika/parser/opendocument/OpenOfficeMetaParser.java#private_ContentHandler_getStatistic(ContentHandler,Metadata,String,String)-3;57; 0.000;NO
src/main/java/org/apache/tika/parser/ParsingReader.java#public_ParsingReader(Parser,InputStream,Metadata)-3;153; 0.000;NO
src/main/java/org/apache/tika/parser/ParsingReader.java#public_void_close()-3;20; 0.000;NO
src/main/java/org/apache/tika/parser/pdf/PDFParser.java#private_void_extractMetadata(PDDocument,Metadata)-3;177; 0.000;NO
src/main/java/org/apache/tika/parser/pdf/PDFParser.java#public_void_parse(InputStream,ContentHandler,Metadata)-3;99; 0.000;NO
src/main/java/org/apache/tika/parser/pdf/PDF2XHTML.java#protected_void_startParagraph()-3;35; 0.000;NO
src/main/java/org/apache/tika/parser/ParserPostProcessor.java#public_void_parse(InputStream,ContentHandler,Metadata)-3;122; 0.000;NO
src/main/java/org/apache/tika/parser/opendocument/OpenOfficeMetaParser.java#private_ContentHandler_getMeta(ContentHandler,Metadata,String,String)-3;72; 0.000;NO
src/main/java/org/apache/tika/parser/pdf/PDF2XHTML.java#protected_void_startPage(PDPage)-3;37; 0.000;NO
src/main/java/org/apache/tika/parser/ParsingReader.java#public_ParsingReader(InputStream,String)-3;34; 0.000;NO
src/main/java/org/apache/tika/parser/ParserPostProcessor.java#public_ParserPostProcessor(Parser)-3;17; 0.000;NO
src/main/java/org/apache/tika/parser/pdf/PDF2XHTML.java#public_String_getLineSeparator()-3;31; 0.000;NO
src/main/java/org/apache/tika/parser/pdf/PDF2XHTML.java#public_String_getWordSeparator()-3;31; 0.000;NO
src/main/java/org/apache/tika/parser/pkg/bzip2/CBZip2InputStream.java#private_void_endBlock()-3;93; 0.000;NO
src/main/java/org/apache/tika/parser/pkg/bzip2/CBZip2InputStream.java#private_void_getAndMoveToFrontDecode()-3;1019; 0.000;NO
src/main/java/org/apache/tika/parser/pkg/bzip2/CBZip2InputStream.java#private_char_bsGetUByte()-3;18; 0.000;NO
src/main/java/org/apache/tika/parser/pdf/PDF2XHTML.java#protected_void_endPage(PDPage)-3;37; 0.000;NO
src/main/java/org/apache/tika/parser/ParserDecorator.java#public_void_parse(InputStream,ContentHandler,Metadata)-3;35; 0.000;NO
src/main/java/org/apache/tika/parser/pkg/bzip2/CBZip2InputStream.java#private_boolean_bsGetBit()-3;102; 0.000;NO
src/main/java/org/apache/tika/parser/pdf/PDF2XHTML.java#protected_void_writeCharacters(TextPosition)-3;47; 0.000;NO
src/main/java/org/apache/tika/parser/pdf/PDF2XHTML.java#protected_void_endDocument(PDDocument)-3;36; 0.000;NO
src/main/java/org/apache/tika/parser/pkg/bzip2/CBZip2InputStream.java#private_int_bsR(int)-3;125; 0.000;NO
src/main/java/org/apache/tika/parser/pkg/bzip2/CBZip2InputStream.java#private_void_init()-3;135; 0.000;NO
src/main/java/org/apache/tika/parser/pkg/bzip2/CBZip2InputStream.java#private_int_getAndMoveToFrontDecode0(int)-3;206; 0.000;NO
src/main/java/org/apache/tika/parser/pkg/bzip2/CBZip2InputStream.java#private_void_setupNoRandPartC()-3;72; 0.000;NO
src/main/java/org/apache/tika/parser/pkg/bzip2/CBZip2InputStream.java#private_void_setupNoRandPartB()-3;97; 0.000;NO
src/main/java/org/apache/tika/parser/pdf/PDFParser.java#private_void_addMetadata(Metadata,String,String)-3;32; 0.000;NO
src/main/java/org/apache/tika/parser/pdf/PDF2XHTML.java#private_PDF2XHTML(ContentHandler,Metadata)-3;25; 0.000;NO
src/main/java/org/apache/tika/parser/pkg/bzip2/CBZip2InputStream.java#private_int_bsGetInt()-3;46; 0.000;NO
src/main/java/org/apache/tika/parser/pkg/bzip2/CBZip2InputStream.java#private_void_hbCreateDecodeTables(int[],int[],int[],char[],int,int,int)-3;298; 0.000;NO
src/main/java/org/apache/tika/parser/pdf/PDFParser.java#private_void_addMetadata(Metadata,String,Calendar)-3;40; 0.000;NO
src/main/java/org/apache/tika/parser/pkg/bzip2/CBZip2InputStream.java#private_void_makeMaps()-3;76; 0.000;NO
src/main/java/org/apache/tika/parser/pkg/bzip2/CBZip2InputStream.java#private_void_recvDecodingTables()-3;457; 0.000;NO
src/main/java/org/apache/tika/parser/pkg/bzip2/CRC.java#int_getGlobalCRC()-3;9; 0.000;NO
src/main/java/org/apache/tika/parser/pkg/bzip2/CBZip2InputStream.java#private_void_setupRandPartB()-3;181; 0.000;NO
src/main/java/org/apache/tika/parser/pkg/bzip2/CRC.java#int_getFinalCRC()-3;10; 0.000;NO
src/main/java/org/apache/tika/parser/pkg/bzip2/CBZip2InputStream.java#private_void_createHuffmanDecodingTables(int,int)-3;204; 0.000;NO
src/main/java/org/apache/tika/parser/pdf/PDF2XHTML.java#public_void_process(PDDocument,ContentHandler,Metadata)-3;85; 0.000;NO
src/main/java/org/apache/tika/parser/pkg/bzip2/CBZip2InputStream.java#private_void_initBlock()-3;187; 0.000;NO
src/main/java/org/apache/tika/parser/pkg/bzip2/CBZip2InputStream.java#private_void_setupRandPartA()-3;169; 0.000;NO
src/main/java/org/apache/tika/parser/pkg/bzip2/CBZip2InputStream.java#private_void_complete()-3;45; 0.000;NO
src/main/java/org/apache/tika/parser/pkg/bzip2/CBZip2InputStream.java#public_CBZip2InputStream(InputStream)-3;30; 0.000;NO
src/main/java/org/apache/tika/parser/pkg/tar/TarBuffer.java#private_boolean_readBlock()-3;165; 0.000;NO
src/main/java/org/apache/tika/parser/pkg/bzip2/CBZip2InputStream.java#public_int_read()-3;34; 0.000;NO
src/main/java/org/apache/tika/parser/pkg/bzip2/CRC.java#void_setGlobalCRC(int)-3;12; 0.000;NO
src/main/java/org/apache/tika/parser/pkg/PackageParser.java#public_void_setParser(Parser)-3;19; 0.000;NO
src/main/java/org/apache/tika/parser/pkg/bzip2/CBZip2InputStream.java#private_void_setupNoRandPartA()-3;113; 0.000;NO
src/main/java/org/apache/tika/parser/pkg/bzip2/CBZip2InputStream.java#private_int_read0()-3;106; 0.000;NO
src/main/java/org/apache/tika/parser/pkg/bzip2/CBZip2InputStream.java#private_void_setupRandPartC()-3;69; 0.000;NO
src/main/java/org/apache/tika/parser/pkg/bzip2/CRC.java#void_initialiseCRC()-3;10; 0.000;NO
src/main/java/org/apache/tika/parser/pkg/bzip2/CBZip2InputStream.java#private_void_setupBlock()-3;254; 0.000;NO
src/main/java/org/apache/tika/parser/pkg/bzip2/CRC.java#void_updateCRC(int,int)-3;69; 0.000;NO
src/main/java/org/apache/tika/parser/pkg/tar/TarBuffer.java#public_TarBuffer(InputStream)-3;21; 0.000;NO
src/main/java/org/apache/tika/parser/pkg/tar/TarBuffer.java#public_int_getRecordSize()-3;16; 0.000;NO
src/main/java/org/apache/tika/parser/pkg/Bzip2Parser.java#public_void_parse(InputStream,ContentHandler,Metadata)-3;277; 0.000;NO
src/main/java/org/apache/tika/parser/pkg/tar/TarBuffer.java#private_void_initialize(int,int)-3;96; 0.000;NO
src/main/java/org/apache/tika/parser/pkg/bzip2/CRC.java#CRC()-3;9; 0.000;NO
src/main/java/org/apache/tika/parser/pkg/bzip2/CBZip2InputStream.java#private_void_reportCRCError()-3;19; 0.000;NO
src/main/java/org/apache/tika/parser/pkg/bzip2/CRC.java#void_updateCRC(int)-3;48; 0.000;NO
src/main/java/org/apache/tika/parser/pkg/bzip2/CBZip2InputStream.java#public_void_close()-3;58; 0.000;NO
src/main/java/org/apache/tika/parser/pkg/tar/TarBuffer.java#private_void_flushBlock()-3;54; 0.000;NO
src/main/java/org/apache/tika/parser/pkg/tar/TarBuffer.java#public_TarBuffer(InputStream,int,int)-3;41; 0.000;NO
src/main/java/org/apache/tika/parser/pkg/tar/TarBuffer.java#public_boolean_isEOFRecord(byte[])-3;55; 0.000;NO
src/main/java/org/apache/tika/parser/pkg/PackageParser.java#public_Parser_getParser()-3;36; 0.000;NO
src/main/java/org/apache/tika/parser/pkg/tar/TarBuffer.java#public_void_writeRecord(byte[],int)-3;127; 0.000;NO
src/main/java/org/apache/tika/parser/pkg/tar/TarBuffer.java#public_void_writeRecord(byte[])-3;115; 0.000;NO
src/main/java/org/apache/tika/parser/pkg/tar/TarBuffer.java#public_byte[]_readRecord()-3;107; 0.000;NO
src/main/java/org/apache/tika/parser/pkg/tar/TarBuffer.java#private_void_writeBlock()-3;68; 0.000;NO
src/main/java/org/apache/tika/parser/pkg/tar/TarBuffer.java#public_TarBuffer(InputStream,int)-3;27; 0.000;NO
src/main/java/org/apache/tika/parser/pkg/bzip2/CBZip2InputStream.java#public_int_read(byte[],int,int)-3;176; 0.000;NO
src/main/java/org/apache/tika/parser/pkg/PackageParser.java#protected_void_parseEntry(InputStream,XHTMLContentHandler,Metadata)-3;109; 0.000;NO
src/main/java/org/apache/tika/parser/pkg/tar/TarEntry.java#public_boolean_equals(Object)-3;44; 0.000;NO
src/main/java/org/apache/tika/parser/pkg/tar/TarBuffer.java#public_TarBuffer(OutputStream,int)-3;27; 0.000;NO
src/main/java/org/apache/tika/parser/pkg/tar/TarBuffer.java#public_int_getCurrentRecordNum()-3;16; 0.000;NO
src/main/java/org/apache/tika/parser/pkg/tar/TarEntry.java#public_int_getMode()-3;14; 0.000;NO
src/main/java/org/apache/tika/parser/pkg/tar/TarEntry.java#public_int_getGroupId()-3;14; 0.000;NO
src/main/java/org/apache/tika/parser/pkg/tar/TarBuffer.java#public_TarBuffer(OutputStream,int,int)-3;41; 0.000;NO
src/main/java/org/apache/tika/parser/pkg/tar/TarBuffer.java#public_TarBuffer(OutputStream)-3;21; 0.000;NO
src/main/java/org/apache/tika/parser/pkg/tar/TarEntry.java#private_TarEntry()-3;110; 0.000;NO
src/main/java/org/apache/tika/parser/pkg/tar/TarBuffer.java#public_int_getCurrentBlockNum()-3;14; 0.000;NO
src/main/java/org/apache/tika/parser/pkg/GzipParser.java#public_void_parse(InputStream,ContentHandler,Metadata)-3;300; 0.000;NO
src/main/java/org/apache/tika/parser/pkg/tar/TarEntry.java#public_int_hashCode()-3;20; 0.000;NO
src/main/java/org/apache/tika/parser/pkg/tar/TarEntry.java#public_boolean_isDescendent(TarEntry)-3;28; 0.000;NO
src/main/java/org/apache/tika/parser/pkg/tar/TarEntry.java#public_TarEntry(String)-3;145; 0.000;NO
src/main/java/org/apache/tika/parser/pkg/tar/TarEntry.java#public_TarEntry(File)-3;339; 0.000;NO
src/main/java/org/apache/tika/parser/pkg/tar/TarBuffer.java#public_void_skipRecord()-3;71; 0.000;NO
src/main/java/org/apache/tika/parser/pkg/tar/TarEntry.java#public_boolean_isDirectory()-3;56; 0.000;NO
src/main/java/org/apache/tika/parser/pkg/tar/TarEntry.java#public_boolean_equals(TarEntry)-3;28; 0.000;NO
src/main/java/org/apache/tika/parser/pkg/tar/TarEntry.java#public_int_getUserId()-3;14; 0.000;NO
src/main/java/org/apache/tika/parser/pkg/tar/TarBuffer.java#public_void_setDebug(boolean)-3;19; 0.000;NO
src/main/java/org/apache/tika/parser/pkg/tar/TarBuffer.java#public_int_getBlockSize()-3;16; 0.000;NO
src/main/java/org/apache/tika/parser/pkg/tar/TarEntry.java#public_String_getGroupName()-3;18; 0.000;NO
src/main/java/org/apache/tika/parser/pkg/tar/TarEntry.java#public_void_setName(String)-3;23; 0.000;NO
src/main/java/org/apache/tika/parser/pkg/tar/TarEntry.java#public_void_setModTime(long)-3;19; 0.000;NO
src/main/java/org/apache/tika/parser/pkg/tar/TarEntry.java#public_TarEntry[]_getDirectoryEntries()-3;96; 0.000;NO
src/main/java/org/apache/tika/parser/pkg/tar/TarEntry.java#public_File_getFile()-3;14; 0.000;NO
src/main/java/org/apache/tika/parser/pkg/tar/TarEntry.java#public_String_getLinkName()-3;18; 0.000;NO
src/main/java/org/apache/tika/parser/pkg/tar/TarEntry.java#public_long_getSize()-3;14; 0.000;NO
src/main/java/org/apache/tika/parser/pkg/tar/TarEntry.java#public_TarEntry(String,byte)-3;27; 0.000;NO
src/main/java/org/apache/tika/parser/pkg/tar/TarEntry.java#public_Date_getModTime()-3;20; 0.000;NO
src/main/java/org/apache/tika/parser/pkg/tar/TarBuffer.java#public_void_close()-3;95; 0.000;NO
src/main/java/org/apache/tika/parser/pkg/tar/TarEntry.java#public_void_setGroupId(int)-3;19; 0.000;NO
src/main/java/org/apache/tika/parser/pkg/tar/TarInputStream.java#public_int_read()-3;47; 0.000;NO
src/main/java/org/apache/tika/parser/pkg/tar/TarEntry.java#public_void_setSize(long)-3;19; 0.000;NO
src/main/java/org/apache/tika/parser/pkg/tar/TarEntry.java#public_void_setGroupName(String)-3;23; 0.000;NO
src/main/java/org/apache/tika/parser/pkg/tar/TarInputStream.java#public_int_read(byte[],int,int)-3;312; 0.000;NO
src/main/java/org/apache/tika/parser/pkg/tar/TarEntry.java#public_TarEntry(byte[])-3;23; 0.000;NO
src/main/java/org/apache/tika/parser/pkg/tar/TarEntry.java#public_void_parseTarHeader(byte[])-3;247; 0.000;NO
src/main/java/org/apache/tika/parser/pkg/tar/TarEntry.java#public_void_setNames(String,String)-3;27; 0.000;NO
src/main/java/org/apache/tika/parser/pkg/tar/TarEntry.java#public_String_getUserName()-3;18; 0.000;NO
src/main/java/org/apache/tika/parser/pkg/tar/TarEntry.java#public_boolean_isGNULongNameEntry()-3;27; 0.000;NO
src/main/java/org/apache/tika/parser/pkg/tar/TarInputStream.java#public_void_reset()-3;10; 0.000;NO
src/main/java/org/apache/tika/parser/pkg/tar/TarEntry.java#public_void_setUserName(String)-3;23; 0.000;NO
src/main/java/org/apache/tika/parser/pkg/tar/TarInputStream.java#public_TarEntry_getNextEntry()-3;357; 0.000;NO
src/main/java/org/apache/tika/parser/pkg/tar/TarInputStream.java#public_void_setDebug(boolean)-3;26; 0.000;NO
src/main/java/org/apache/tika/parser/pkg/tar/TarEntry.java#public_void_setModTime(Date)-3;23; 0.000;NO
src/main/java/org/apache/tika/parser/pkg/tar/TarEntry.java#public_void_writeEntryHeader(byte[])-3;281; 0.000;NO
src/main/java/org/apache/tika/parser/pkg/tar/TarEntry.java#public_void_setUserId(int)-3;19; 0.000;NO
src/main/java/org/apache/tika/parser/pkg/tar/TarInputStream.java#public_long_skip(long)-3;94; 0.000;NO
src/main/java/org/apache/tika/parser/pkg/tar/TarEntry.java#public_void_setMode(int)-3;19; 0.000;NO
src/main/java/org/apache/tika/parser/pkg/tar/TarEntry.java#public_String_getName()-3;18; 0.000;NO
src/main/java/org/apache/tika/parser/pkg/tar/TarInputStream.java#public_TarInputStream(InputStream,int)-3;27; 0.000;NO
src/main/java/org/apache/tika/parser/pkg/ZipParser.java#public_void_parse(InputStream,ContentHandler,Metadata)-3;140; 0.000;NO
src/main/java/org/apache/tika/parser/pkg/tar/TarUtils.java#public_int_getLongOctalBytes(long,byte[],int,int)-3;72; 0.000;NO
src/main/java/org/apache/tika/parser/rtf/RTFParser.java#public_void_parse(InputStream,ContentHandler,Metadata)-3;105; 0.000;NO
src/main/java/org/apache/tika/parser/pkg/tar/TarInputStream.java#public_int_getRecordSize()-3;18; 0.000;NO
src/main/java/org/apache/tika/parser/pkg/tar/TarInputStream.java#public_TarInputStream(InputStream,int,int)-3;66; 0.000;NO
src/main/java/org/apache/tika/parser/pkg/tar/TarInputStream.java#public_TarInputStream(InputStream)-3;25; 0.000;NO
src/main/java/org/apache/tika/parser/pkg/tar/TarEntry.java#public_void_setIds(int,int)-3;27; 0.000;NO
src/main/java/org/apache/tika/parser/pkg/tar/TarInputStream.java#public_int_available()-3;41; 0.000;NO
src/main/java/org/apache/tika/parser/pkg/tar/TarUtils.java#public_int_getCheckSumOctalBytes(long,byte[],int,int)-3;70; 0.000;NO
src/main/java/org/apache/tika/parser/pkg/tar/TarUtils.java#public_int_getOctalBytes(long,byte[],int,int)-3;170; 0.000;NO
src/main/java/org/apache/tika/parser/xml/XMLParser.java#protected_ContentHandler_getContentHandler(ContentHandler,Metadata)-3;19; 0.000;NO
src/main/java/org/apache/tika/parser/pkg/tar/TarInputStream.java#public_void_mark(int)-3;13; 0.000;NO
src/main/java/org/apache/tika/parser/xml/XMLParser.java#public_void_parse(InputStream,ContentHandler,Metadata)-3;162; 0.000;NO
src/main/java/org/apache/tika/parser/pkg/tar/TarInputStream.java#public_void_copyEntryContents(OutputStream)-3;68; 0.000;NO
src/main/java/org/apache/tika/parser/pkg/tar/TarUtils.java#public_long_computeCheckSum(byte[])-3;52; 0.000;NO
src/main/java/org/apache/tika/parser/pkg/tar/TarInputStream.java#public_boolean_markSupported()-3;14; 0.000;NO
src/main/java/org/apache/tika/parser/xml/DcXMLParser.java#private_ContentHandler_getDublinCore(ContentHandler,Metadata,String,String)-3;72; 0.000;NO
src/main/java/org/apache/tika/parser/pkg/tar/TarUtils.java#public_int_getNameBytes(StringBuffer,byte[],int,int)-3;98; 0.000;NO
src/main/java/org/apache/tika/parser/txt/TXTParser.java#public_void_parse(InputStream,ContentHandler,Metadata)-3;130; 0.000;NO
src/main/java/org/apache/tika/parser/xml/MetadataHandler.java#public_MetadataHandler(Metadata,String)-3;23; 0.000;NO
src/main/java/org/apache/tika/sax/ContentHandlerDecorator.java#public_void_endElement(String,String,String)-3;28; 0.000;NO
src/main/java/org/apache/tika/parser/pkg/TarParser.java#public_void_parse(InputStream,ContentHandler,Metadata)-3;151; 0.000;NO
src/main/java/org/apache/tika/sax/ContentHandlerDecorator.java#public_void_endPrefixMapping(String)-3;18; 0.000;NO
src/main/java/org/apache/tika/parser/xml/MetadataHandler.java#public_void_addMetadata(String)-3;64; 0.000;NO
src/main/java/org/apache/tika/parser/pkg/tar/TarInputStream.java#public_void_close()-3;19; 0.000;NO
src/main/java/org/apache/tika/sax/BodyContentHandler.java#public_BodyContentHandler(ContentHandler)-3;23; 0.000;NO
src/main/java/org/apache/tika/parser/pkg/tar/TarUtils.java#public_StringBuffer_parseName(byte[],int,int)-3;86; 0.000;NO
src/main/java/org/apache/tika/sax/BodyContentHandler.java#public_BodyContentHandler()-3;17; 0.000;NO
src/main/java/org/apache/tika/parser/xml/DcXMLParser.java#protected_ContentHandler_getContentHandler(ContentHandler,Metadata)-3;206; 0.000;NO
src/main/java/org/apache/tika/sax/BodyContentHandler.java#public_BodyContentHandler(Writer)-3;21; 0.000;NO
src/main/java/org/apache/tika/parser/xml/MetadataHandler.java#public_void_startElement(String,String,String,Attributes)-3;48; 0.000;NO
src/main/java/org/apache/tika/sax/ElementMappingContentHandler.java#public_ElementMappingContentHandler(ContentHandler,Map[QName,TargetElement])-3;27; 0.000;NO
src/main/java/org/apache/tika/sax/ElementMappingContentHandler.java#public_void_endElement(String,String,String)-3;73; 0.000;NO
src/main/java/org/apache/tika/sax/ContentHandlerDecorator.java#public_ContentHandlerDecorator(ContentHandler)-3;18; 0.000;NO
src/main/java/org/apache/tika/sax/ContentHandlerDecorator.java#public_void_processingInstruction(String,String)-3;23; 0.000;NO
src/main/java/org/apache/tika/parser/pkg/tar/TarUtils.java#public_long_parseOctal(byte[],int,int)-3;140; 0.000;NO
src/main/java/org/apache/tika/parser/xml/MetadataHandler.java#public_void_endElement(String,String,String)-3;31; 0.000;NO
src/main/java/org/apache/tika/sax/ContentHandlerDecorator.java#public_void_skippedEntity(String)-3;18; 0.000;NO
src/main/java/org/apache/tika/sax/ContentHandlerDecorator.java#public_void_endDocument()-3;15; 0.000;NO
src/main/java/org/apache/tika/sax/ContentHandlerDecorator.java#public_void_ignorableWhitespace(char[],int,int)-3;30; 0.000;NO
src/main/java/org/apache/tika/sax/BodyContentHandler.java#public_BodyContentHandler(OutputStream)-3;21; 0.000;NO
src/main/java/org/apache/tika/sax/ContentHandlerDecorator.java#public_void_startDocument()-3;15; 0.000;NO
src/main/java/org/apache/tika/sax/EmbeddedContentHandler.java#public_EmbeddedContentHandler(ContentHandler)-3;17; 0.000;NO
src/main/java/org/apache/tika/sax/SafeContentHandler.java#protected_void_writeReplacement(Output)-3;29; 0.000;NO
src/main/java/org/apache/tika/sax/SafeContentHandler.java#public_SafeContentHandler(ContentHandler)-3;13; 0.000;NO
src/main/java/org/apache/tika/parser/xml/MetadataHandler.java#public_void_characters(char[],int,int)-3;28; 0.000;NO
src/main/java/org/apache/tika/sax/ContentHandlerDecorator.java#public_void_characters(char[],int,int)-3;30; 0.000;NO
src/main/java/org/apache/tika/sax/EmbeddedContentHandler.java#public_void_startDocument()-3;11; 0.000;NO
src/main/java/org/apache/tika/sax/ElementMappingContentHandler.java#protected_String_getQNameAsString(QName)-3;53; 0.000;NO
src/main/java/org/apache/tika/sax/ContentHandlerDecorator.java#public_void_setDocumentLocator(Locator)-3;16; 0.000;NO
src/main/java/org/apache/tika/sax/ElementMappingContentHandler.java#public_void_startElement(String,String,String,Attributes)-3;83; 0.000;NO
src/main/java/org/apache/tika/sax/TeeContentHandler.java#public_void_processingInstruction(String,String)-3;33; 0.000;NO
src/main/java/org/apache/tika/sax/TeeContentHandler.java#public_void_setDocumentLocator(Locator)-3;26; 0.000;NO
src/main/java/org/apache/tika/sax/OfflineContentHandler.java#public_InputSource_resolveEntity(String,String)-3;25; 0.000;NO
src/main/java/org/apache/tika/sax/ContentHandlerDecorator.java#public_String_toString()-3;14; 0.000;NO
src/main/java/org/apache/tika/sax/ContentHandlerDecorator.java#public_void_startPrefixMapping(String,String)-3;23; 0.000;NO
src/main/java/org/apache/tika/sax/SafeContentHandler.java#public_void_ignorableWhitespace(char[],int,int)-3;31; 0.000;NO
src/main/java/org/apache/tika/sax/EmbeddedContentHandler.java#public_void_endDocument()-3;11; 0.000;NO
src/main/java/org/apache/tika/sax/TeeContentHandler.java#public_void_characters(char[],int,int)-3;40; 0.000;NO
src/main/java/org/apache/tika/sax/SafeContentHandler.java#protected_boolean_isInvalid(char)-3;43; 0.000;YES
src/main/java/org/apache/tika/sax/TextContentHandler.java#public_void_startDocument()-3;16; 0.000;NO
src/main/java/org/apache/tika/sax/TeeContentHandler.java#public_void_endDocument()-3;25; 0.000;NO
src/main/java/org/apache/tika/sax/TextContentHandler.java#public_void_ignorableWhitespace(char[],int,int)-3;31; 0.000;NO
src/main/java/org/apache/tika/sax/SafeContentHandler.java#public_void_characters(char[],int,int)-3;31; 0.000;NO
src/main/java/org/apache/tika/sax/ContentHandlerDecorator.java#public_void_startElement(String,String,String,Attributes)-3;33; 0.000;NO
src/main/java/org/apache/tika/sax/TeeContentHandler.java#public_void_startDocument()-3;25; 0.000;NO
src/main/java/org/apache/tika/sax/TeeContentHandler.java#public_void_startPrefixMapping(String,String)-3;33; 0.000;NO
src/main/java/org/apache/tika/sax/XHTMLContentHandler.java#public_void_element(String,String)-3;29; 0.000;NO
src/main/java/org/apache/tika/sax/SafeContentHandler.java#private_void_filter(char[],int,int,Output)-3;110; 0.000;NO
src/main/java/org/apache/tika/sax/TextContentHandler.java#public_String_toString()-3;15; 0.000;NO
src/main/java/org/apache/tika/sax/TeeContentHandler.java#public_void_ignorableWhitespace(char[],int,int)-3;40; 0.000;NO
src/main/java/org/apache/tika/sax/XHTMLContentHandler.java#public_void_characters(String)-3;28; 0.000;NO
src/main/java/org/apache/tika/sax/TeeContentHandler.java#public_void_skippedEntity(String)-3;28; 0.000;NO
src/main/java/org/apache/tika/sax/TeeContentHandler.java#public_void_startElement(String,String,String,Attributes)-3;43; 0.000;NO
src/main/java/org/apache/tika/sax/OfflineContentHandler.java#public_OfflineContentHandler(ContentHandler)-3;13; 0.000;NO
src/main/java/org/apache/tika/sax/WriteOutContentHandler.java#public_void_characters(char[],int,int)-3;53; 0.000;NO
src/main/java/org/apache/tika/sax/xpath/ChildMatcher.java#public_ChildMatcher(Matcher)-3;14; 0.000;NO
src/main/java/org/apache/tika/sax/WriteOutContentHandler.java#public_WriteOutContentHandler()-3;17; 0.000;NO
src/main/java/org/apache/tika/sax/TeeContentHandler.java#public_void_endPrefixMapping(String)-3;28; 0.000;NO
src/main/java/org/apache/tika/sax/TextContentHandler.java#public_void_endDocument()-3;16; 0.000;NO
src/main/java/org/apache/tika/sax/xpath/AttributeMatcher.java#public_boolean_matchesAttribute(String,String)-3;15; 0.000;NO
src/main/java/org/apache/tika/sax/WriteOutContentHandler.java#public_String_toString()-3;18; 0.000;NO
src/main/java/org/apache/tika/sax/WriteOutContentHandler.java#public_void_ignorableWhitespace(char[],int,int)-3;53; 0.000;NO
src/main/java/org/apache/tika/sax/WriteOutContentHandler.java#public_void_endDocument()-3;40; 0.000;NO
src/main/java/org/apache/tika/sax/TeeContentHandler.java#public_void_endElement(String,String,String)-3;38; 0.000;NO
src/main/java/org/apache/tika/sax/XHTMLContentHandler.java#public_void_endElement(String)-3;20; 0.000;NO
src/main/java/org/apache/tika/sax/xpath/Matcher.java#public_boolean_matchesText()-3;14; 0.000;NO
src/main/java/org/apache/tika/sax/XHTMLContentHandler.java#public_void_startElement(String)-3;25; 0.000;NO
src/main/java/org/apache/tika/sax/XHTMLContentHandler.java#private_void_lazyStartDocument()-3;86; 0.000;NO
src/main/java/org/apache/tika/sax/xpath/Matcher.java#public_boolean_matchesElement()-3;14; 0.000;NO
src/main/java/org/apache/tika/sax/XHTMLContentHandler.java#public_void_endDocument()-3;38; 0.000;NO
src/main/java/org/apache/tika/sax/TextContentHandler.java#public_void_characters(char[],int,int)-3;31; 0.000;NO
src/main/java/org/apache/tika/sax/XHTMLContentHandler.java#public_void_startDocument()-3;26; 0.000;NO
src/main/java/org/apache/tika/sax/TextContentHandler.java#public_TextContentHandler(ContentHandler)-3;14; 0.000;NO
src/main/java/org/apache/tika/sax/xpath/CompositeMatcher.java#public_boolean_matchesAttribute(String,String)-3;31; 0.000;NO
src/main/java/org/apache/tika/sax/xpath/NamedAttributeMatcher.java#public_boolean_matchesAttribute(String,String)-3;31; 0.000;NO
src/main/java/org/apache/tika/sax/XHTMLContentHandler.java#public_void_endElement(String,String,String)-3;61; 0.000;NO
src/main/java/org/apache/tika/sax/xpath/CompositeMatcher.java#public_CompositeMatcher(Matcher,Matcher)-3;23; 0.000;NO
src/main/java/org/apache/tika/sax/XHTMLContentHandler.java#public_XHTMLContentHandler(ContentHandler,Metadata)-3;22; 0.000;NO
src/main/java/org/apache/tika/sax/xpath/ChildMatcher.java#public_Matcher_descend(String,String)-3;15; 0.000;NO
src/main/java/org/apache/tika/sax/xpath/NamedAttributeMatcher.java#private_boolean_equals(String,String)-3;33; 0.000;NO
src/main/java/org/apache/tika/sax/WriteOutContentHandler.java#public_WriteOutContentHandler(Writer)-3;18; 0.000;NO
src/main/java/org/apache/tika/sax/xpath/CompositeMatcher.java#public_boolean_matchesText()-3;20; 0.000;NO
src/main/java/org/apache/tika/sax/WriteOutContentHandler.java#public_WriteOutContentHandler(OutputStream)-3;21; 0.000;NO
src/main/java/org/apache/tika/sax/xpath/MatchingContentHandler.java#public_MatchingContentHandler(ContentHandler,Matcher)-3;22; 0.000;NO
src/main/java/org/apache/tika/sax/xpath/SubtreeMatcher.java#public_boolean_matchesText()-3;15; 0.000;NO
src/main/java/org/apache/tika/sax/xpath/CompositeMatcher.java#public_boolean_matchesElement()-3;20; 0.000;NO
src/main/java/org/apache/tika/sax/xpath/Matcher.java#public_boolean_matchesAttribute(String,String)-3;21; 0.000;NO
src/main/java/org/apache/tika/sax/xpath/Matcher.java#public_Matcher_descend(String,String)-3;21; 0.000;NO
src/main/java/org/apache/tika/sax/xpath/SubtreeMatcher.java#public_boolean_matchesElement()-3;15; 0.000;NO
src/main/java/org/apache/tika/sax/xpath/MatchingContentHandler.java#public_void_ignorableWhitespace(char[],int,int)-3;40; 0.000;NO
src/main/java/org/apache/tika/sax/xpath/MatchingContentHandler.java#public_void_endElement(String,String,String)-3;46; 0.000;NO
src/main/java/org/apache/tika/sax/XHTMLContentHandler.java#public_void_startElement(String,String,String,Attributes)-3;70; 0.000;NO
src/main/java/org/apache/tika/sax/XHTMLContentHandler.java#public_void_startElement(String,String,String)-3;51; 0.000;NO
src/main/java/org/apache/tika/sax/xpath/NamedElementMatcher.java#private_boolean_equals(String,String)-3;33; 0.000;NO
src/main/java/org/apache/tika/sax/xpath/NamedAttributeMatcher.java#public_NamedAttributeMatcher(String,String)-3;23; 0.000;NO
src/main/java/org/apache/tika/sax/xpath/MatchingContentHandler.java#public_void_characters(char[],int,int)-3;40; 0.000;NO
src/main/java/org/apache/tika/sax/xpath/MatchingContentHandler.java#public_void_startElement(String,String,String,Attributes)-3;183; 0.000;NO
src/main/java/org/apache/tika/sax/xpath/NamedElementMatcher.java#public_Matcher_descend(String,String)-3;50; 0.000;NO
src/main/java/org/apache/tika/utils/ParseUtils.java#public_List[Parser]_getParsersFromZip(URL,TikaConfig)-3;77; 0.000;NO
src/main/java/org/apache/tika/sax/xpath/NodeMatcher.java#public_boolean_matchesAttribute(String,String)-3;16; 0.000;NO
src/main/java/org/apache/tika/utils/ParseUtils.java#public_List[Parser]_getParsersFromZip(File,TikaConfig)-3;77; 0.000;NO
src/main/java/org/apache/tika/sax/xpath/ElementMatcher.java#public_boolean_matchesElement()-3;10; 0.000;NO
src/main/java/org/apache/tika/sax/xpath/CompositeMatcher.java#public_Matcher_descend(String,String)-3;95; 0.000;NO
src/main/java/org/apache/tika/sax/xpath/SubtreeMatcher.java#public_SubtreeMatcher(Matcher)-3;14; 0.000;NO
src/main/java/org/apache/tika/sax/xpath/NamedElementMatcher.java#protected_NamedElementMatcher(String,String,Matcher)-3;31; 0.000;NO
src/main/java/org/apache/tika/sax/xpath/SubtreeMatcher.java#public_Matcher_descend(String,String)-3;52; 0.000;NO
src/main/java/org/apache/tika/sax/xpath/SubtreeMatcher.java#public_boolean_matchesAttribute(String,String)-3;23; 0.000;NO
src/main/java/org/apache/tika/sax/xpath/XPathParser.java#public_Matcher_parse(String)-3;437; 0.000;NO
src/main/java/org/apache/tika/utils/RereadableInputStream.java#private_void_closeStream()-3;39; 0.000;NO
src/main/java/org/apache/tika/sax/xpath/XPathParser.java#public_void_addPrefix(String,String)-3;21; 0.000;NO
src/main/java/org/apache/tika/utils/RegexUtils.java#public_List[String]_extractLinks(String)-3;90; 0.000;NO
src/main/java/org/apache/tika/sax/xpath/MatchingContentHandler.java#public_void_skippedEntity(String)-3;28; 0.000;NO
src/main/java/org/apache/tika/sax/xpath/MatchingContentHandler.java#public_void_processingInstruction(String,String)-3;12; 0.000;NO
src/main/java/org/apache/tika/utils/ParseUtils.java#public_Parser_getParser(String,TikaConfig)-3;30; 0.000;NO
src/main/java/org/apache/tika/sax/xpath/TextMatcher.java#public_boolean_matchesText()-3;10; 0.000;NO
src/main/java/org/apache/tika/utils/ParseUtils.java#public_Parser_getParser(File,TikaConfig)-3;48; 0.000;NO
src/main/java/org/apache/tika/utils/ParseUtils.java#public_String_getStringContent(File,TikaConfig)-3;51; 0.000;NO
src/main/java/org/apache/tika/utils/StringUtil.java#public_String_leftPad(String,int)-3;65; 0.000;NO
src/main/java/org/apache/tika/utils/ParseUtils.java#public_String_getStringContent(File,TikaConfig,String)-3;62; 0.000;NO
src/main/java/org/apache/tika/utils/ParseUtils.java#private_List[Parser]_getParsersFromZip(InputStream,TikaConfig)-3;97; 0.000;NO
src/main/java/org/apache/tika/sax/xpath/NodeMatcher.java#public_boolean_matchesText()-3;11; 0.000;NO
src/main/java/org/apache/tika/sax/xpath/NodeMatcher.java#public_boolean_matchesElement()-3;11; 0.000;NO
src/main/java/org/apache/tika/utils/RereadableInputStream.java#public_int_getSize()-3;14; 0.000;NO
src/main/java/org/apache/tika/utils/StringUtil.java#public_byte[]_fromHexString(String)-3;152; 0.000;NO
src/main/java/org/apache/tika/utils/ParseUtils.java#public_Parser_getParser(URL,TikaConfig)-3;48; 0.000;NO
src/main/java/org/apache/tika/utils/RereadableInputStream.java#private_void_saveByte(int)-3;115; 0.000;NO
src/main/java/org/apache/tika/utils/RereadableInputStream.java#public_RereadableInputStream(InputStream,int,boolean,boolean)-3;60; 0.000;NO
src/main/java/org/apache/tika/utils/RereadableInputStream.java#public_void_close()-3;37; 0.000;NO
src/main/java/org/apache/tika/utils/ParseUtils.java#public_String_getStringContent(URL,TikaConfig,String)-3;58; 0.000;NO
src/test/java/org/apache/tika/detect/MagicDetectorTest.java#private_void_assertDetect(Detector,MediaType,String)-3;115; 0.000;NO
src/main/java/org/apache/tika/sax/xpath/XPathParser.java#public_XPathParser(String,String)-3;18; 0.000;NO
src/main/java/org/apache/tika/sax/xpath/XPathParser.java#public_XPathParser()-3;6; 0.000;NO
src/main/java/org/apache/tika/utils/StringUtil.java#public_String_resolveEncodingAlias(String)-3;61; 0.000;NO
src/main/java/org/apache/tika/utils/Utils.java#public_Reader_getUTF8Reader(InputStream,Metadata)-3;175; 0.000;NO
src/main/java/org/apache/tika/utils/RereadableInputStream.java#public_int_read()-3;37; 0.000;NO
src/main/java/org/apache/tika/utils/StringUtil.java#public_String_parseCharacterEncoding(String)-3;149; 0.000;NO
src/main/java/org/apache/tika/utils/StringUtil.java#public_boolean_isEmpty(String)-3;29; 0.000;NO
src/main/java/org/apache/tika/utils/StringUtil.java#public_String_toHexString(byte[])-3;28; 0.000;NO
src/main/java/org/apache/tika/utils/StringUtil.java#public_String_toHexString(byte[],String,int)-3;160; 0.000;NO
src/main/java/org/apache/tika/utils/ParseUtils.java#public_String_getStringContent(InputStream,TikaConfig,String)-3;85; 0.000;NO
src/main/java/org/apache/tika/utils/ParseUtils.java#public_String_getStringContent(URL,TikaConfig)-3;51; 0.000;NO
src/test/java/org/apache/tika/detect/TextDetectorTest.java#public_void_testDetectNull()-3;28; 0.000;NO
src/main/java/org/apache/tika/utils/StringUtil.java#public_String_rightPad(String,int)-3;59; 0.000;NO
src/test/java/org/apache/tika/detect/MagicDetectorTest.java#public_void_testDetectNull()-3;55; 0.000;NO
src/main/java/org/apache/tika/utils/Utils.java#public_List_unzip(InputStream)-3;192; 0.000;NO
src/test/java/org/apache/tika/detect/MagicDetectorTest.java#public_void_testDetectMask()-3;178; 0.000;NO
src/main/java/org/apache/tika/utils/RereadableInputStream.java#public_void_rewind()-3;87; 0.000;NO
src/main/java/org/apache/tika/utils/StringUtil.java#private_int_charToNibble(char)-3;79; 0.000;NO
src/test/java/org/apache/tika/detect/TextDetectorTest.java#private_void_assertText(byte[])-3;101; 0.000;NO
src/test/java/org/apache/tika/detect/MagicDetectorTest.java#public_void_testDetectSimple()-3;98; 0.000;NO
src/test/java/org/apache/tika/detect/NameDetectorTest.java#private_void_assertDetect(MediaType,String)-3;60; 0.000;NO
src/test/java/org/apache/tika/metadata/TestMetadata.java#public_void_testNames()-3;104; 0.000;NO
src/test/java/org/apache/tika/detect/MagicDetectorTest.java#public_void_testDetectOffsetRange()-3;155; 0.000;NO
src/main/java/org/apache/tika/utils/Utils.java#private_void_saveInputStreamInFile(InputStream,OutputStream)-3;66; 0.000;NO
src/test/java/org/apache/tika/metadata/TestMetadata.java#public_void_testIsMultiValued()-3;66; 0.000;NO
src/test/java/org/apache/tika/detect/TypeDetectorTest.java#private_void_assertDetect(MediaType,String)-3;60; 0.000;NO
src/test/java/org/apache/tika/metadata/TestMetadata.java#public_TestMetadata(String)-3;13; 0.000;NO
src/main/java/org/apache/tika/utils/StringUtil.java#public_void_main(String[])-3;52; 0.000;NO
src/test/java/org/apache/tika/detect/TextDetectorTest.java#public_void_testDetectText()-3;182; 0.000;NO
src/test/java/org/apache/tika/metadata/TestMetadata.java#public_Test_suite()-3;17; 0.000;NO
src/test/java/org/apache/tika/metadata/TestSpellCheckedMetadata.java#public_void_testAdd()-3;184; 0.000;NO
src/test/java/org/apache/tika/detect/TextDetectorTest.java#private_void_assertNotText(byte[])-3;49; 0.000;NO
src/test/java/org/apache/tika/metadata/TestMetadata.java#public_void_testRemove()-3;170; 0.000;NO
src/test/java/org/apache/tika/metadata/TestMetadata.java#public_void_testSetProperties()-3;189; 0.000;NO
src/test/java/org/apache/tika/metadata/TestSpellCheckedMetadata.java#public_SpellCheckedMetadata_constructSpellCheckedMetadata()-3;95; 0.000;NO
src/test/java/org/apache/tika/metadata/TestMetadata.java#public_void_testObject()-3;208; 0.000;NO
src/test/java/org/apache/tika/detect/TypeDetectorTest.java#public_void_testDetect()-3;113; 0.000;NO
src/test/java/org/apache/tika/metadata/TestSpellCheckedMetadata.java#public_void_main(String[])-3;21; 0.000;NO
src/test/java/org/apache/tika/mime/MediaTypeTest.java#public_void_testLowerCase()-3;134; 0.000;NO
src/test/java/org/apache/tika/detect/NameDetectorTest.java#public_void_testDetect()-3;221; 0.000;NO
src/test/java/org/apache/tika/metadata/TestMetadata.java#public_void_testGet()-3;70; 0.000;NO
src/test/java/org/apache/tika/detect/NameDetectorTest.java#protected_void_setUp()-3;69; 0.000;NO
src/test/java/org/apache/tika/metadata/TestSpellCheckedMetadata.java#public_void_testGetNormalizedName()-3;82; 0.000;NO
src/test/java/org/apache/tika/metadata/TestSpellCheckedMetadata.java#public_void_testNames()-3;104; 0.000;NO
src/test/java/org/apache/tika/metadata/TestSpellCheckedMetadata.java#public_void_testGet()-3;70; 0.000;NO
src/test/java/org/apache/tika/metadata/TestSpellCheckedMetadata.java#public_void_testObject()-3;208; 0.000;NO
src/test/java/org/apache/tika/metadata/TestMetadata.java#public_void_testSet()-3;173; 0.000;NO
src/test/java/org/apache/tika/mime/MediaTypeTest.java#public_void_testBasics()-3;134; 0.000;NO
src/test/java/org/apache/tika/metadata/TestMetadata.java#public_void_testAdd()-3;184; 0.000;NO
src/test/java/org/apache/tika/metadata/TestSpellCheckedMetadata.java#public_void_disabledTestHandlingSpeed()-3;69; 0.000;NO
src/test/java/org/apache/tika/mime/MimeTypesTest.java#public_void_testGetMimeType_byteArray()-3;152; 0.000;NO
src/test/java/org/apache/tika/metadata/TestMetadata.java#public_void_main(String[])-3;21; 0.000;NO
src/test/java/org/apache/tika/mime/MediaTypeTest.java#public_void_testTrim()-3;134; 0.000;NO
src/test/java/org/apache/tika/mime/MediaTypeTest.java#public_void_testQuote()-3;73; 0.000;NO
src/test/java/org/apache/tika/metadata/TestSpellCheckedMetadata.java#public_void_testIsMultiValued()-3;66; 0.000;NO
src/test/java/org/apache/tika/mime/MimeTypesTest.java#public_void_testForName()-3;55; 0.000;NO
src/test/java/org/apache/tika/metadata/TestSpellCheckedMetadata.java#public_Test_suite()-3;17; 0.000;NO
src/test/java/org/apache/tika/metadata/TestSpellCheckedMetadata.java#public_void_testSetProperties()-3;189; 0.000;NO
src/test/java/org/apache/tika/mime/MimeTypesTest.java#private_void_assertNotText(byte[])-3;18; 0.000;NO
src/test/java/org/apache/tika/mime/PatternsTest.java#protected_void_setUp()-3;32; 0.000;NO
src/test/java/org/apache/tika/metadata/TestSpellCheckedMetadata.java#public_TestSpellCheckedMetadata(String)-3;13; 0.000;NO
src/test/java/org/apache/tika/mime/MimeTypesTest.java#private_void_assertText(byte[])-3;18; 0.000;NO
src/test/java/org/apache/tika/mime/MimeTypesTest.java#public_void_testIsDescendantOf()-3;119; 0.000;NO
src/test/java/org/apache/tika/mime/MimeTypesTest.java#public_void_testGetMimeType_InputStream()-3;37; 0.000;NO
src/test/java/org/apache/tika/mime/MimeTypeTest.java#public_void_testSetSuperType()-3;34; 0.000;NO
src/test/java/org/apache/tika/metadata/TestSpellCheckedMetadata.java#public_void_testSet()-3;173; 0.000;NO
src/test/java/org/apache/tika/mime/MimeTypesTest.java#public_void_testCompareTo()-3;137; 0.000;NO
src/test/java/org/apache/tika/metadata/TestSpellCheckedMetadata.java#public_void_testRemove()-3;170; 0.000;NO
src/test/java/org/apache/tika/mime/MimeTypesTest.java#public_void_testSuperType()-3;40; 0.000;NO
src/test/java/org/apache/tika/mime/MimeTypesTest.java#private_void_assertMagic(String,byte[])-3;40; 0.000;NO
src/test/java/org/apache/tika/mime/MimeTypeTest.java#protected_void_setUp()-3;25; 0.000;NO
src/test/java/org/apache/tika/mime/PatternsTest.java#public_void_testMatches()-3;32; 0.000;NO
src/test/java/org/apache/tika/mime/PatternsTest.java#public_void_testAdd()-3;84; 0.000;NO
src/test/java/org/apache/tika/mime/TestMimeTypes.java#public_void_testGifDetection()-3;37; 0.000;NO
src/test/java/org/apache/tika/mime/MimeTypeTest.java#public_void_testSetDescription()-3;32; 0.000;NO
src/test/java/org/apache/tika/mime/MimeTypesTest.java#public_void_testAddAlias()-3;43; 0.000;NO
src/test/java/org/apache/tika/mime/MimeTypesTest.java#protected_void_setUp()-3;57; 0.000;NO
src/test/java/org/apache/tika/mime/TestMimeTypes.java#public_void_testCgmDetection()-3;23; 0.000;NO
src/test/java/org/apache/tika/mime/MimeTypesTest.java#public_void_testSubTypes()-3;98; 0.000;NO
src/test/java/org/apache/tika/mime/TestMimeTypes.java#private_void_assertTypeByName(String,String)-3;51; 0.000;NO
src/test/java/org/apache/tika/mime/TestMimeTypes.java#private_void_assertTypeByData(String,String)-3;66; 0.000;NO
src/test/java/org/apache/tika/mime/TestMimeTypes.java#public_void_testGuessMimeTypes()-3;128; 0.000;NO
src/test/java/org/apache/tika/mime/TestMimeTypes.java#public_void_testCaseSensitivity()-3;58; 0.000;NO
src/test/java/org/apache/tika/mime/TestMimeTypes.java#public_void_testJavaRegex()-3;172; 0.000;NO
src/test/java/org/apache/tika/mime/MimeTypeTest.java#public_void_testIsValidName()-3;159; 0.000;NO
src/test/java/org/apache/tika/mime/TestMimeTypes.java#public_void_testRawDetection()-3;240; 0.000;NO
src/test/java/org/apache/tika/mime/MimeTypeTest.java#public_void_testConstrctor()-3;102; 0.000;NO
src/test/java/org/apache/tika/mime/TestMimeTypes.java#public_void_testPsDetection()-3;44; 0.000;NO
src/test/java/org/apache/tika/mime/TestMimeTypes.java#private_void_assertType(String,String)-3;77; 0.000;NO
src/test/java/org/apache/tika/mime/TestMimeTypes.java#public_void_testLoadMimeTypes()-3;29; 0.000;NO
src/test/java/org/apache/tika/parser/AutoDetectParserTest.java#private_void_assertAutoDetect(String,String,String)-3;87; 0.000;NO
src/test/java/org/apache/tika/mime/TestMimeTypes.java#public_void_testMimeDeterminationForTestDocuments()-3;96; 0.000;NO
src/test/java/org/apache/tika/mime/TestMimeTypes.java#public_TestMimeTypes()-3;37; 0.000;NO
src/test/java/org/apache/tika/mime/TestMimeTypes.java#public_void_testPnmDetection()-3;107; 0.000;NO
src/test/java/org/apache/tika/mime/TestMimeTypes.java#public_void_testSvgDetection()-3;65; 0.000;NO
src/test/java/org/apache/tika/mime/TestMimeTypes.java#public_void_testSwfDetection()-3;23; 0.000;NO
src/test/java/org/apache/tika/mime/TestMimeTypes.java#public_void_testBmpDetection()-3;51; 0.000;NO
src/test/java/org/apache/tika/parser/audio/MidiParserTest.java#public_void_testMID()-3;109; 0.000;NO
src/test/java/org/apache/tika/parser/AutoDetectParserTest.java#public_void_testWord()-3;18; 0.000;NO
src/test/java/org/apache/tika/parser/asm/ClassParserTest.java#public_void_testClassParsing()-3;165; 0.000;NO
src/test/java/org/apache/tika/mime/TestMimeTypes.java#public_void_testJpegDetection()-3;79; 0.000;NO
src/test/java/org/apache/tika/mime/TestMimeTypes.java#public_void_testWmfDetection()-3;65; 0.000;NO
src/test/java/org/apache/tika/parser/AutoDetectParserTest.java#private_void_assertAutoDetect(String,String,String,String,String)-3;49; 0.000;NO
src/test/java/org/apache/tika/parser/AutoDetectParserTest.java#private_void_assertAutoDetect(TestParams)-3;155; 0.000;NO
src/test/java/org/apache/tika/mime/TestMimeTypes.java#public_void_testPdfDetection()-3;37; 0.000;NO
src/test/java/org/apache/tika/parser/audio/AudioParserTest.java#public_void_testWAV()-3;102; 0.000;NO
src/test/java/org/apache/tika/mime/TestMimeTypes.java#public_void_testPngDetection()-3;37; 0.000;NO
src/test/java/org/apache/tika/parser/AutoDetectParserTest.java#public_void_testText()-3;18; 0.000;NO
src/test/java/org/apache/tika/parser/image/ImageParserTest.java#public_void_testPNG()-3;78; 0.000;NO
src/test/java/org/apache/tika/parser/AutoDetectParserTest.java#public_void_testOpenOffice()-3;18; 0.000;NO
src/test/java/org/apache/tika/parser/AutoDetectParserTest.java#public_void_testHTML()-3;18; 0.000;NO
src/test/java/org/apache/tika/parser/AutoDetectParserTest.java#public_void_testXML()-3;18; 0.000;NO
src/test/java/org/apache/tika/parser/html/HtmlParserTest.java#private_InputStream_getStream(String)-3;26; 0.000;NO
src/test/java/org/apache/tika/mime/TestMimeTypes.java#public_void_testTiffDetection()-3;44; 0.000;NO
src/test/java/org/apache/tika/parser/AutoDetectParserTest.java#public_void_testRTF()-3;18; 0.000;NO
src/test/java/org/apache/tika/parser/audio/AudioParserTest.java#public_void_testAIFF()-3;102; 0.000;NO
src/test/java/org/apache/tika/parser/image/ImageParserTest.java#public_void_testJPEG()-3;78; 0.000;NO
src/test/java/org/apache/tika/parser/opendocument/OpenOfficeParserTest.java#public_void_testXMLParser()-3;222; 0.000;NO
src/test/java/org/apache/tika/parser/audio/AudioParserTest.java#public_void_testAU()-3;102; 0.000;NO
src/test/java/org/apache/tika/parser/html/HtmlParserTest.java#public_void_testParseEmpty()-3;63; 0.000;NO
src/test/java/org/apache/tika/parser/html/HtmlParserTest.java#public_void_testXhtmlParsing()-3;159; 0.000;NO
src/test/java/org/apache/tika/parser/AutoDetectParserTest.java#public_void_testExcel()-3;18; 0.000;NO
src/test/java/org/apache/tika/parser/microsoft/ExcelParserTest.java#public_void_testExcelParser()-3;184; 0.000;NO
src/test/java/org/apache/tika/parser/image/ImageParserTest.java#public_void_testGIF()-3;78; 0.000;NO
src/test/java/org/apache/tika/parser/microsoft/ooxml/OOXMLParserTest.java#public_void_testExcel()-3;190; 0.000;NO
src/test/java/org/apache/tika/parser/AutoDetectParserTest.java#public_void_testPDF()-3;18; 0.000;NO
src/test/java/org/apache/tika/parser/mp3/Mp3ParserTest.java#public_void_testMp3Parsing()-3;179; 0.000;NO
src/test/java/org/apache/tika/parser/txt/TXTParserTest.java#public_void_testEnglishText()-3;149; 0.000;NO
src/test/java/org/apache/tika/parser/AutoDetectParserTest.java#public_void_testPowerpoint()-3;18; 0.000;NO
src/test/java/org/apache/tika/parser/html/HtmlParserTest.java#public_void_testParseAscii()-3;211; 0.000;NO
src/test/java/org/apache/tika/parser/microsoft/ooxml/OOXMLParserTest.java#public_void_testWord()-3;135; 0.000;NO
src/test/java/org/apache/tika/parser/microsoft/WordParserTest.java#public_void_testWordParser()-3;119; 0.000;NO
src/test/java/org/apache/tika/parser/ParsingReaderTest.java#public_void_testPlainText()-3;212; 0.000;NO
src/test/java/org/apache/tika/parser/microsoft/OutlookParserTest.java#public_void_testMultipleCopies()-3;133; 0.000;NO
src/test/java/org/apache/tika/parser/html/HtmlParserTest.java#public_void_XtestParseUTF8()-3;94; 0.000;NO
src/test/java/org/apache/tika/parser/ParsingReaderTest.java#public_void_testMetadata()-3;159; 0.000;NO
src/test/java/org/apache/tika/parser/txt/TXTParserTest.java#public_void_testEmptyText()-3;68; 0.000;NO
src/test/java/org/apache/tika/parser/image/ImageParserTest.java#public_void_testBMP()-3;78; 0.000;NO
src/test/java/org/apache/tika/sax/SafeContentHandlerTest.java#public_void_testInvalidCharacters()-3;65; 0.000;NO
src/test/java/org/apache/tika/parser/pkg/ZipParserTest.java#public_void_testZipParsing()-3;271; 0.000;NO
src/test/java/org/apache/tika/parser/pkg/Bzip2ParserTest.java#public_void_testBzip2Parsing()-3;271; 0.000;NO
src/test/java/org/apache/tika/parser/xml/DcXMLParserTest.java#public_void_testXMLParserAsciiChars()-3;225; 0.000;NO
src/test/java/org/apache/tika/parser/pkg/GzipParserTest.java#public_void_testGzipParsing()-3;271; 0.000;NO
src/test/java/org/apache/tika/parser/txt/TXTParserTest.java#public_void_testUTF8Text()-3;92; 0.000;NO
src/test/java/org/apache/tika/parser/microsoft/OutlookParserTest.java#public_void_testOutlookParsing()-3;135; 0.000;NO
src/test/java/org/apache/tika/parser/microsoft/ooxml/OOXMLParserTest.java#public_void_testPowerPoint()-3;150; 0.000;NO
src/test/java/org/apache/tika/parser/microsoft/PowerPointParserTest.java#public_void_testPowerPointParser()-3;134; 0.000;NO
src/test/java/org/apache/tika/sax/SafeContentHandlerTest.java#public_void_testEmptyInput()-3;48; 0.000;NO
src/test/java/org/apache/tika/sax/xpath/XPathParserTest.java#public_void_testNamedElement()-3;168; 0.000;NO
src/test/java/org/apache/tika/sax/BodyContentHandlerTest.java#public_void_testOutputStream()-3;71; 0.000;NO
src/test/java/org/apache/tika/sax/SafeContentHandlerTest.java#protected_void_setUp()-3;22; 0.000;NO
src/test/java/org/apache/tika/sax/SafeContentHandlerTest.java#public_void_testNormalCharacters()-3;35; 0.000;NO
src/test/java/org/apache/tika/parser/pkg/TarParserTest.java#public_void_testTarParsing()-3;271; 0.000;NO
src/test/java/org/apache/tika/sax/OfflineContentHandlerTest.java#protected_void_setUp()-3;32; 0.000;NO
src/test/java/org/apache/tika/parser/ParsingReaderTest.java#public_void_testXML()-3;251; 0.000;NO
src/test/java/org/apache/tika/sax/SafeContentHandlerTest.java#public_void_testInvalidWhitespace()-3;65; 0.000;NO
src/test/java/org/apache/tika/TestParsers.java#public_void_testOutlookExtraction()-3;50; 0.000;NO
src/test/java/org/apache/tika/parser/pkg/GzipParserTest.java#public_void_testSvgzParsing()-3;101; 0.000;NO
src/test/java/org/apache/tika/sax/xpath/XPathParserTest.java#public_void_testNamedAttribute()-3;87; 0.000;NO
src/test/java/org/apache/tika/sax/xpath/XPathParserTest.java#public_void_testAnyElement()-3;152; 0.000;NO
src/test/java/org/apache/tika/sax/XHTMLContentHandlerTest.java#protected_void_setUp()-3;27; 0.000;NO
src/test/java/org/apache/tika/sax/xpath/XPathParserTest.java#public_void_testPrefixedElement()-3;168; 0.000;NO
src/test/java/org/apache/tika/parser/xml/DcXMLParserTest.java#public_void_testXMLParserNonAsciiChars()-3;78; 0.000;NO
src/test/java/org/apache/tika/sax/xpath/XPathParserTest.java#public_void_testPrefixedAttribute()-3;87; 0.000;NO
src/test/java/org/apache/tika/TestRereadableInputStream.java#private_TestInputStream_createTestInputStream()-3;26; 0.000;NO
src/test/java/org/apache/tika/TestParsers.java#public_void_testOOExtraction()-3;50; 0.000;NO
src/test/java/org/apache/tika/sax/OfflineContentHandlerTest.java#public_void_testExternalEntity()-3;52; 0.000;NO
src/test/java/org/apache/tika/sax/XHTMLContentHandlerTest.java#public_void_testExtraWhitespace()-3;234; 0.000;NO
src/test/java/org/apache/tika/sax/OfflineContentHandlerTest.java#public_void_testExternalDTD()-3;48; 0.000;NO
src/test/java/org/apache/tika/TestParsers.java#public_void_testMP3Extraction()-3;65; 0.000;NO
src/test/java/org/apache/tika/TestParsers.java#private_File_getTestFile(String)-3;18; 0.000;NO
src/test/java/org/apache/tika/TestParsers.java#public_void_testPPTExtraction()-3;117; 0.000;NO
src/test/java/org/apache/tika/TestParsers.java#public_void_testPDFExtraction()-3;73; 0.000;NO
src/test/java/org/apache/tika/TestRereadableInputStream.java#private_File_createTestFile()-3;68; 0.000;NO
src/test/java/org/apache/tika/sax/xpath/XPathParserTest.java#public_void_testAnyAttribute()-3;87; 0.000;NO
src/test/java/org/apache/tika/sax/SafeContentHandlerTest.java#public_void_testNormalWhitespace()-3;35; 0.000;NO
src/test/java/org/apache/tika/TestParsers.java#public_void_setUp()-3;25; 0.000;NO
src/test/java/org/apache/tika/sax/xpath/XPathParserTest.java#protected_void_setUp()-3;32; 0.000;NO
src/test/java/org/apache/tika/TestParsers.java#public_void_testZipFileExtraction()-3;65; 0.000;NO
src/test/java/org/apache/tika/TestParsers.java#public_void_testTXTExtraction()-3;50; 0.000;NO
src/test/java/org/apache/tika/TestRereadableInputStream.java#private_void_doTestRewind(boolean)-3;100; 0.000;NO
src/test/java/org/apache/tika/TestRereadableInputStream.java#private_void_doACloseBehaviorTest(boolean)-3;67; 0.000;NO
src/test/java/org/apache/tika/TestParsers.java#public_void_testHTMLExtraction()-3;65; 0.000;NO
src/test/java/org/apache/tika/sax/xpath/XPathParserTest.java#public_void_testText()-3;63; 0.000;NO
src/test/java/org/apache/tika/TestParsers.java#public_void_testWORDxtraction()-3;117; 0.000;NO
src/test/java/org/apache/tika/TestParsers.java#public_void_testEXCELExtraction()-3;139; 0.000;NO
src/test/java/org/apache/tika/utils/RegexUtilsTest.java#public_void_testExtractLinksNone()-3;95; 0.000;NO
src/test/java/org/apache/tika/TestRereadableInputStream.java#public_void_testCloseBehavior()-3;19; 0.000;NO
src/test/java/org/apache/tika/TestParsers.java#public_void_testZipExtraction()-3;104; 0.000;NO
src/test/java/org/apache/tika/TestParsers.java#public_void_testRTFExtraction()-3;50; 0.000;NO
src/test/java/org/apache/tika/TestRereadableInputStream.java#public_void_testRewind()-3;23; 0.000;NO
src/test/java/org/apache/tika/TestParsers.java#public_void_testXMLExtraction()-3;50; 0.000;NO
src/test/java/org/apache/tika/utils/RegexUtilsTest.java#public_void_testExtractLinksHttp()-3;82; 0.000;NO
src/test/java/org/apache/tika/TestRereadableInputStream.java#public_void_test()-3;111; 0.000;NO
src/test/java/org/apache/tika/utils/RegexUtilsTest.java#public_void_testExtractLinksFtp()-3;66; 0.000;NO
