ID;Size;Predicted;Actual
d1c1c50aa2b218c5c2a514d63b57f3b4bf89de57-3;4; 0.000;YES
24bf83a3ad4704c21b44efb961ecbf7bdadd4bfc-3;6; 0.000;YES
6e7ed2348f97d703d87afeaccaf5766eb6740d90-3;69; 1.000;YES
3ef184aba5dea337cf03017eca9e7cbbd3dba013-3;108; 1.000;NO
1d91680a6de95e3e8362582f241e36a51548cea2-3;2; 0.000;NO
9167213f00cc0c7f506c7986a551dbc4fecd2dea-3;194; 1.000;YES
d48e344a8fdd42c0ef8efdd5e31a2804719ed4fa-3;19; 1.000;NO
a0dc9861a025e97812f21b4d91df09f4169bf6f7-3;298; 1.000;NO
2cb74839f9baa197a1311bf52af2dee945a760a7-3;6; 0.000;NO
a5eb04a2baddae2c047e36dc5575088c784e5b1e-3;59; 0.000;NO
93a53e1cda23ae3a186cd8956ebb0b1908673a30-3;44; 0.000;NO
c0f71c3e1537da7bafb9071f746cfcb2687778e0-3;4; 0.000;NO
631c2fa78054d12aa164ae57b9d35c26634a7e21-3;110; 0.000;NO
eddd3be46b295e825973664d6358b1d3aea83047-3;4; 0.000;NO
0e8f2f39af666f50435b784c41c3d3767cfc4f7e-3;605; 1.000;YES
dd4a8d6879009487e30c843933043cca19f9786c-3;653; 1.000;NO
9cae390645823801045243a6da11e86a229df629-3;38; 1.000;NO
af1f79bff503ee02ac119efceac65928f671fd1e-3;1708; 1.000;YES
d1e154e8880cf0ac87390ff1b713e7eb73dfd76a-3;109; 1.000;YES
b7be2af8a9dba4c3dcfe45ca78b71b1bbc9c0f28-3;6; 1.000;NO
b1b4bb8a32a9bb9c6d951f3d0fdd3626944319f9-3;380; 1.000;YES
351bcfc9f98e353e4e2e41974969127e29ecef94-3;1168; 1.000;YES
d7f245f1ca4095765f95a23e49bc7c39c8c26b48-3;18; 0.018;YES
831eabfc738ef852efa10a88a880c37303362859-3;46; 1.000;NO
6288f370644107ac74b11fc7fab29230a35d752e-3;1385; 1.000;NO
d0223af640ec380d83200690cf9adc9da48e7919-3;45; 1.000;NO
7bf3923ceee9b27e800062cff1dbd6496d48431d-3;17; 0.982;NO
96e99e4151be79543cf61c9ee86930003d061f1b-3;8098; 1.000;NO
f8a1c5ba8efb1dd85a70e263839f3ff7151a2168-3;3894; 1.000;YES
3b5ee6c7ea8c071c5a335c343b8e44002b5b3ec4-3;182; 1.000;YES
f29ab8372711f9fa66dfa2f8e44229d99a807876-3;16; 1.000;NO
ae22fa2a5d10fe97b00c6e56155141e8464747f1-3;12; 1.000;NO
25ae47245524d05a6eb0804ec7c96309cbbe2a02-3;7769; 1.000;YES
00cac50a3710f487d2f91f5a0a3e64f12efd8ead-3;26; 0.000;NO
b34ee8717f24448900cf89811e9ca0a37f3882e1-3;81; 1.000;YES
76dffa8b85f0bbfa6a9d54eddfe827337ad01feb-3;13; 1.000;NO
8cc6c2f5fc59692b349b4e24fdd3bd0f36893d26-3;603; 1.000;NO
b44290df75d2af9f73611d5b9127480b19472905-3;2; 0.000;NO
7afe263089d5a32b99ea2a8cae2ca7861a045c50-3;6; 0.000;NO
61d1f49c702f45d9900029af3bd65f31ba384455-3;389; 0.000;NO
be9dad3f2b516d6ea865bb508954c0363cfc2fb6-3;1079; 1.000;YES
956c54155f78ec0ee3e89b7c19747e4b89ae2e20-3;80; 1.000;NO
6b42ffbd26315ed90ae3de2f713c40f9300c122a-3;2; 0.000;NO
5dab6b8ed9e4fbd536ebdd670f6d607c0f240d77-3;2; 0.000;NO
c0a6d6ee44be2d47bdc07c2fcb90c66bcfe019e0-3;115; 1.000;YES
570ee53d6c6252911de694e25baa23f4388e6f54-3;4; 0.000;YES
b1d5076108de3c93aaacc246c4228ad052148a04-3;280; 1.000;YES
06b0c3119309142079d71e15ae4f752e2da12edf-3;1; 0.000;NO
c40ab12843302205b743dd91f8d97405f8102b62-3;1051; 1.000;YES
f72c226aec0c99e5326ca8b8fdabb055e473e1b1-3;1; 0.000;NO
7bbd17cd3749e1e7a7c153eccfc20a8d5ddf9cf0-3;827; 1.000;NO
a21a447b4cdad8b89e2ca3c5239e9e2e8e22d09f-3;81; 1.000;YES
f0f886f53af93c3a90c973f8b3ab80dc85efb889-3;295; 1.000;NO
ae70d7178e201dff5b13ac9c6cb63146d29fc4b9-3;731; 1.000;YES
0a87410b1b9242f6dc9084636f4c4fe04283484e-3;4; 0.000;NO
9a2bebe443528d0e6d00ea2a9cd6509fe406b91a-3;39; 1.000;YES
046c3b19422c821136c36bf65f65e674e071a44f-3;115; 1.000;YES
0c407922a862a199843a75df433e45cd34068779-3;773; 1.000;YES
4d54e43ddcf3055ea9e8f80469c27b16411b6972-3;79; 0.000;NO
856d7644adba9725c5a5c2790b43c78be70a5c01-3;4; 0.000;YES
1cdc01fc448a7f252d041a266d2595cee6cca662-3;12; 0.500;YES
7d6a6de8dde9700995771daddcf505b78cd58e45-3;91; 1.000;NO
3f6089891dcc5dbb9f960b24c4ad3d9aecd72dce-3;218; 1.000;YES
68c9f3fd69b289c2f9bc1b3a067b45745113b06e-3;18; 0.000;NO
b73e61ac528443b7978a9c70e5b76a1a0b8aeefc-3;103; 1.000;YES
017bf8d85adeed3f6969f37c65f4fd63560c3e95-3;1; 0.000;NO
62262805abb5efaba8f57bda2988954322d897e6-3;159; 1.000;NO
effe95c0bad05e4888e9f71b9284213e191ede71-3;21; 0.982;NO
43b421a5884280900f6bae740c07a1eee8736f1e-3;2; 0.000;NO
26898e4663ce00468ec9cebf00c57d72658dd191-3;11; 0.000;NO
0007772b135d398f15a2e49dcf6e47af2c19a0aa-3;2; 0.000;NO
fe4dafedcb5daab883694f2eaaedf3ae3dad29b8-3;793; 1.000;YES
d03541a4602f80b9620b7e881b4b619beb8ff2cd-3;9; 0.000;NO
dd402f4f9171d92594ed7b1f2f0bbd2ad8d5bbeb-3;3; 0.000;NO
290cb65b1733092344fe08b1c10e91a1a20daa30-3;117; 1.000;NO
e864b79a6d0347589a3dcb077804eb956aa05e17-3;81; 1.000;NO
992c34bc6a6123207eb99456852e05506e5e9e01-3;16; 0.000;NO
e35c4d580007f28db90d90b2726c0bbbc943b605-3;18; 0.000;NO
bd946d2ce8defe7bf79d66c0690940f7b423917b-3;10; 0.000;NO
15b8b8138bcb3148c5fd64823d2c2b5170a661cc-3;14; 0.000;NO
7970b6e6f8f6b41f35e3a3672b4603a0a7ab01b5-3;23; 0.018;NO
487d976760c0f6d0b819c9b84efc0ca59e8ddf4f-3;72; 1.000;YES
86b89306d7c0e3407c06029858356e3b588d2d6c-3;5; 0.000;NO
02cedbf8da89e3cf0f5b1e7834dc5abc94827336-3;142; 1.000;NO
bc828c0017c474164b2f46cdd84ae93d5bf8c682-3;708; 1.000;YES
8a2ecff4fdc350749a695b5fee2586ee353013bc-3;170; 1.000;YES
31f23893439541ddebc35fec193ee372d0d62aaa-3;4; 0.000;NO
9a986848468cc996e1900605d533380e21cdf317-3;24; 1.000;NO
6aae2cc5f1a776b1e2645d26d1b6e3c1adf4473f-3;17; 0.000;YES
aa492fb9b636af6e651e7508a97e031348eb3f68-3;6; 0.000;NO
aa7696e3293ffe99f5d856dd18c0f5e19573fa31-3;25; 1.000;NO
7dc839c07ddbc1cd8b91b84280161113a8d9b114-3;10; 0.982;NO
ef5a9809f285d46e667dd81ae0040344d92c224b-3;521; 1.000;YES
f0f920d45587a7889eef71a173118dc5a7155d5b-3;48; 0.000;YES
3e6f2294367a7ca671f8756e4e7768979c689d6d-3;16; 0.000;NO
2ea977db2d25aef6da2a8bfa96634f74904d63ef-3;19; 0.000;NO
98c2aa433f3373533c39eb12b6446bfc8a556aff-3;188; 1.000;YES
360338a3626c4c92ed79bae43098a84d5b8e4d81-3;243; 1.000;NO
c6d045b330e676ba1f7ba51f489b7c461b72a33a-3;250; 1.000;NO
2dc317a5717725e53e0e569152703609d90303b0-3;4; 0.000;NO
6bf1241628e74ca9cfe41027fad0e3972a6062b7-3;153; 1.000;NO
ed51a6f7060b68c613d92f67bde335027477d341-3;2; 0.000;NO
a5fab2754dad1eeaa3ffcfe4017ca86038eae7d1-3;25; 0.000;NO
2a81a5f146d6bb8b9dcef352fc68978464db85aa-3;201; 1.000;YES
989172596ee41c77fc5e6cd40c9bdbed89a61a90-3;131; 1.000;NO
7afe87996bcebe47247a6cc30179cd8cfacb193a-3;198; 1.000;NO
717ddd1675dec483f2d3fb85b408f73a0488f8ea-3;19; 1.000;YES
1baa5a0d8b9baf9c039e967e022b3901ef584b53-3;6; 0.000;NO
6ed9c5ae91dc7a08cdb3825fb17a5da24037fa36-3;4058; 1.000;YES
4bfb6e3a8c77429e47a2ec71605d7a2686dfc08f-3;1; 0.000;NO
a48046be5fbb163bc12e626353fdf11781e2abbf-3;15; 1.000;YES
206acdac7d5d2581c78337988949c0dca07cb30a-3;3484; 1.000;YES
1c067a5b9642cc19ed07df364e0d1a81528fddbb-3;122; 1.000;NO
35ab56fd91e1d88e967da1c2ee4df4c3f2e43a45-3;5; 0.000;NO
38a809fded4384d46b23096f66695111a611a0cb-3;43; 1.000;YES
4eb669f035cf3632b2dd2eb0f6d799e48e72adea-3;12; 1.000;YES
c3448e7029e29a2aede31ea0a1abefaa38fe5b42-3;15; 1.000;NO
33188bb4d9ea72ab6c0e17ce20d8d30ed1286a94-3;113; 1.000;YES
c21bee63cb97df46715764a17ed1e32807e4d1d3-3;119; 1.000;YES
d2a5003ff48392490bd2d66c0977d177ae8112da-3;67; 1.000;NO
b8e235f77e43ff4df81778aa7ba400fa7260d72d-3;26; 0.000;NO
09dd6582deb63b5f51a57eaa0ff55ca490d9be2d-3;2; 0.000;NO
275c63e273182e62721f3b9c6fb84ed87f954a5b-3;288; 1.000;YES
18e41963b61a5ef6dbcdb150e27c07c062deaa66-3;2; 0.000;YES
55d175eedf89b03fff958f28011a835c2d9f8fb2-3;33; 1.000;NO
7fb30547f4ad1d3cfbfbb6e1bc7f7c2f78105d92-3;42; 1.000;NO
235380d5dffda4858b2fc363792e0998f17f0d46-3;10; 1.000;NO
8bb3d1ceaa5bd1b3138286c1777805535428d9f2-3;151; 1.000;NO
26e191a07d3b784078b9bb38e8797786ced81d09-3;126; 1.000;NO
fe16ffe0682e94a60cf665df685930ce6ecd815d-3;28; 0.000;NO
f0fd89f24f738765891495366e6f7bc5c94a0789-3;342; 1.000;NO
f64c43572730630916786d01daceec35a9341190-3;315; 1.000;NO
6890f126cbd3df6ef0b096d4f1256ef540b9b36f-3;272; 1.000;NO
4cdcc618ff3dc08db45d696b5c4955abcee23782-3;3; 0.000;NO
fcdfbdb82e740be876c5672358e9f845b7e766f2-3;33; 0.982;NO
b0b5ca6896d56bd9c3d2049457180e702f8c7615-3;18; 1.000;NO
2d679e90713b946d6c62832f46bdcd0ff0b0768f-3;43; 1.000;NO
7a337a7e552c0679d80ef2600c2ef6f7daf954ba-3;64; 0.000;NO
0354944e8f6f261a405248ac497c77e50d3b24d2-3;54; 1.000;NO
5de97a39a0338fca4d917dbfc6d7fd7a1535a9c8-3;20; 1.000;YES
1c933cfbaeae6518e2fcf55bcb58f3b714f04370-3;64; 1.000;NO
