ID;Size;Predicted;Actual
4d65d03a39c2fe24ccd550c737fe99b0f519bb0c-3;70; 0.008;NO
221ec59e81310cb69f22337c6dacfad369709eb1-3;17; 0.008;NO
c47c27769150a2f1f003dc41323179dc3628142a-3;48; 0.008;NO
de74668a65c7998333f37216702006e5d332ca22-3;6; 0.008;NO
1eb328a52e8f1b48a91accf2109919377978a110-3;101; 0.000;NO
201ffa2e01c09441e418c96620e0e9cee11ebdb1-3;269; 0.008;NO
b42534555ecb59443727d384bd198c8c6082b3ff-3;103; 0.008;NO
7f378e0d94b967edc1fa66898b417c923a02abfd-3;4; 0.008;NO
dd4f98d50913f9b45c7c5e9319621034d03973e5-3;88; 0.008;NO
ef60cc32236b7371b3768886aaa3fb48d6220d46-3;241; 0.008;NO
96ad9f0fbfb6bda04dab826ad2713cb27eac69eb-3;135; 0.008;NO
38ad98e9149a6934699a79ea5dd85cbbb163c376-3;14; 0.008;NO
e82c3cd8d9a9c069f452816e416e2853c70b23c5-3;621; 0.008;YES
56ae1698f6c47d79a9fe877f51fa4e5eee60aec6-3;9; 0.008;NO
7efd1598433b15a4040acabf9050302a22d1d839-4;30; 0.835;NO
4eb3a82f0275694b11fdd7ae97c9e9f80b4baf92-4;12; 0.008;NO
2150a81d32c7294e19ece7e90ad33ba720138c89-4;2; 0.008;NO
20a8279a527fe85a50b84de797997ca82c93331f-4;4; 0.008;NO
398fbcb01b4e84bac3f61db3ed0f07a1cf910aab-4;20; 0.008;NO
64150e3bd743fd03198b07de29446424238575fe-4;4; 0.008;NO
642d5fd8169f0e1421b46272d2e919adb0b7075f-4;23; 0.008;NO
6dc7c25550e207d74474bfd34d2929fc1e9a06b8-4;484; 0.000;YES
413367ba38e9d06f3feeeb18a01b40f8952be59a-4;2; 0.008;NO
2a3e2e9383fdc1bbe073d3ab62bf9369a350ca7b-4;4; 0.008;NO
f6a0d13b4270dea103278503bdb774b6b610a654-4;120; 0.008;NO
218931d5785f0afce711a9e766aa6a03c5630d8c-4;141; 0.008;NO
0e76a52e1cbc99a24f588ea54143d24d86b6415d-4;15; 0.008;NO
332fa89e8f1e5149749a6a085d9a5f7f2d84ee43-4;988; 0.008;NO
d513bbd32c3338248c5a00283829e71143d618f9-4;4; 0.008;NO
5d3dd44aab178a201b59d4b4d22c9e42f1e9cc5a-4;13; 0.008;NO
f774dddb3e7b20e52497e5ae12e791edc5f47cb1-4;2; 0.008;NO
1e504554a448a515308f7fb813da1d565b827558-4;458; 0.008;NO
dbf145c4be7b772711df8267014b275c181f5990-4;12; 0.008;NO
17b0ce372dfbd4b795d11032d5873b809fba3454-4;223; 0.835;NO
25fa17a415ff484575f2c46a414c8aec904349e2-4;14; 0.008;NO
46d725fc6140ab1700c6c6fd6bb687a4a603ce1d-4;17; 0.008;NO
8eeb761d15f38e7bc7271e0d63199a4b677d69c4-4;9; 0.835;NO
c985a7c71dbf9a60c0c554db441513a655848770-4;261; 0.000;NO
9c18311c4da335d54c641e2abc4e249052fdd449-4;39; 0.008;NO
81fa61c909613fc7e21bcc68491b30a4904ea9fd-4;40; 0.008;NO
d38940d4c975859dd8f736d51d660feadb13d13d-4;709; 0.835;NO
d97bb5c278853b870cfae4866e5ed9c929d1b1a8-4;1559; 0.835;NO
199aed655115a0cf8fd2c0fe49b172bb784608ce-4;192; 0.835;NO
51bcf298cac518daff2f42c5ef7a17c81882a9f1-4;64; 0.008;NO
9dcdcebf24ce38fa614c69b00111afc6c54a49b2-4;62; 0.008;NO
64bceaad228cb14a7bc6e99d8a395f0d4dc1c18d-4;97; 0.008;NO
cde88daa8abfeead17e253a89d458b098aa2d6d5-4;4805; 0.835;NO
ece5300c3d74b6cc43a6f14dea55e7adcfa3cdda-4;651; 0.835;NO
94873593d70c0bd63e2388dea3e57e82c88b122b-4;900; 0.835;NO
48648f050984cefb835ca6171577a6d24cad5331-4;1457; 0.835;NO
7908d6f256dcc872dbecfc123dccdeb22018c331-4;2077; 0.835;NO
2cf1aa8fca5f49a73591036307f54c4394a60a37-4;2976; 0.835;NO
7c363ea095c1aaa8e1e960b2de6a6cffa6e1a352-4;1147; 0.835;NO
9f5498b9e3fcd95649673114bc372e8a7124be38-4;465; 0.835;NO
17169f39df916c629c78c30f63e4ccee3a0273a8-4;50; 0.008;NO
09743cf56835414fc104a168d11b59921dbb3ccd-4;1430; 0.835;NO
3f75609d3c04e4f712b49b2be47951419c1ecd75-4;93; 0.008;NO
98f10d8a53cf2c951a493e33f97a7b1f8ae0923e-4;310; 0.008;NO
ab46820640b6967cc6e85c37fb4d2b537734c45c-4;8315; 0.835;NO
3253def55fc4b85a851e8f430ff705695dc4e298-4;18; 0.008;NO
31db8ddaf71a22ee1e467fc8eeebede0ad0a40ca-4;1036; 0.000;YES
e9fbc937b6c15b270f3b0c4a2e0958e3bb1cbdca-4;2; 0.008;NO
acd5deb6b05eecfd7fc099ab82432cc32ea6cb64-4;142; 0.008;NO
8b5165f9e6977cd0d661b44a0ec11f1168d892ab-4;40; 0.835;NO
bc4b81e4f338aac81fd030eba19c1cf93410669d-4;2; 0.008;NO
40a47a98b602a14664acc0b70ad7c5609a0538a5-4;5; 0.008;NO
cc89b2c346d39439495686926b60d83a418e40d8-4;4; 0.008;NO
a7d3c0da846a2a43f896f041bee1c6ce86ba5382-4;28; 0.000;NO
26b4e262049e9033679c03f64f6e419dcf975215-4;6; 0.008;NO
4f4e4c7086bc3d386e9370f99994060e387ba588-4;8; 0.835;NO
750a0493b2c3a6d48ff1093ba42ec6f6312da3a0-4;88; 0.008;NO
c2f8dead487b67260a1687d51240c730edc63f1b-4;2; 0.008;NO
67a59f6f688e95272216b3dd965d7d5cdf6487f0-4;10; 0.008;NO
e78298be026a7e4ffb527ec4affb395ae32db3a5-4;63; 0.008;NO
6bc8ff19a22a787c6b017e64c2487c4f175a683b-4;25; 0.008;NO
f63084e1aa52b09daca8ab0e3d6343973cd8ce54-4;228; 0.008;NO
fcdeffc4eac193a0a1da5bc5205696b34b5b0642-4;72; 0.008;NO
7a89d588ce906f19fa641170e9721907534af40e-4;48; 0.008;YES
7afd7c108f3930e42abcf04b5d4228e9f1297690-4;48; 0.008;NO
a331eabfc498b12a415693d440f7ef97553e88ea-4;387; 0.008;YES
c882a96419bae5dd888e1f728e03dd48391d5825-4;122; 0.008;NO
10fa8d4e1ea53b0427aa4ac75a898078c6ab0103-4;154; 0.008;NO
e7e81cc4c0079dbbcf772b9d0d664281565b46e3-4;307; 0.000;NO
61e5390abd97d33c6bb72d629070678392031d1f-4;2; 0.008;NO
c6a4303f136594d1ebd599042465a3c3a7323731-4;7; 0.008;NO
7d7267d9f0cba5701ff20ebf01025f2474108d76-4;6; 0.008;NO
4858fdaf4b6c267612c9ccc52378d41f57e76059-4;51; 0.008;NO
071c9bb26200a379dc675b629339926bb88e8392-4;186; 0.008;NO
f119b940eaf2d3c9648ace8c71c33ca14f3b3c74-4;29; 0.008;NO
3569b9e0390546fa346fd7ad36a64b0b97fc1912-4;31; 0.008;NO
3b0410d77e76a3d43b883698819e4cc24d469c34-4;5; 0.008;NO
33202c0c22b0b4b30bd41b52164cde257b5b0872-4;64; 0.008;NO
95b256939940b1f9dd516cdc0a2a8fad5c8cf107-4;49; 0.008;YES
994cd72011ec48a8f2c38e486306801095e41358-4;6; 0.008;NO
5473646924dd2841fa6a09e600abdd6640851da0-4;13; 0.008;NO
54f45a0085728b13a7016a8c6086a236827b09f1-4;181; 0.835;YES
d1150c8ab6aac4b7a8f65a2d16cf373678456114-4;62; 0.008;NO
9bafb0b861afb43d272ab9d5bae1827f75ce2173-4;92; 0.008;NO
2e15099d8e592e166538f064a4c5413abfd4e86d-4;116; 0.008;NO
88ab8a5383f91fc91cfc3e90f4ef90710e0b8b41-4;12; 0.008;NO
3df2522b5bb0279152202edd3b3e6a2703a78b1a-4;98; 0.008;NO
4e554a9bf8071d8aef17869b01b330f567837715-4;433; 0.835;NO
3d26b742514f516e2f34fbdb393747d96f3d8d7a-4;200; 0.835;NO
3ccc2ec2aa3c904fd56b52384d5961f29167bf9b-4;73; 0.008;NO
29defd183e158c150e8b4bd36401d43ecb30058e-4;83; 0.008;NO
43fbc82bfb608d53beab1f14b4f02efa1c4c0b15-4;81; 0.008;NO
34f4a1b012f58f781d98ded0dcaa1a61c1d34f0c-4;38; 0.000;NO
1ba49e67693832700ff7270e5ead2b2888ec3ef1-4;96; 0.008;NO
2659028e29850778c45c12c323e80d510d0b516d-4;55; 0.008;NO
cd1ab1de788cea3f08819f5100f3db7e96c8289b-4;129; 0.008;NO
b8b8705d065e3fcc8714383aad1e0ec798f405e1-4;470; 0.008;YES
00a292213d69507ffa31b76574fbef16be2ee5eb-4;77; 0.008;NO
92645efc7d93b0940de9c564d49c7a8b71cc620f-4;109; 0.008;NO
2d6c256f4c5eb02392a769e41016494e16d40e3c-4;6; 0.008;NO
e654be68aee70de2a1c51dd62a3a39677cb3ae71-4;116; 0.008;YES
3aed72c139bbfcecd1fe22fadc3039bd9268708f-4;16; 0.008;NO
c68823a5a4c5b13f03627639ca2ecbc2ab94d6b5-4;2; 0.008;NO
64bee269b9bad1124f97787cb5a76560198b943a-4;2; 0.008;NO
1381d5c1dcaa49c6d44d55a6d0d66a78f3328f08-4;8; 0.008;NO
3790be7f19ceab6565a48c0b48c0650345f57d7c-4;2; 0.008;NO
93a4558e3c98be7258680677b73c409595da5c0f-4;10; 0.008;NO
0a5effeb8fa07024339594f4b7dd6732dd12ea4e-4;8; 0.008;NO
df2f62bba4f68db3785309d96286ae9fd8d7ad63-4;8; 0.008;NO
4293550618d8136fe55b224909db2ffe5161e664-4;8; 0.008;NO
a20f9ba4db6dba062178af42cdd251fb309736b3-4;20; 0.008;NO
943b787662626291570e244345f3151f77ee5e75-4;4; 0.008;NO
594349fa3e0860e90b5431a520e7df6a67d14dce-4;6; 0.008;NO
066f3933e3cca560e2c247e03e8da979cf9085cb-4;2; 0.008;NO
cdc66a0c799d161cc14554fb66984f58fba1d18f-4;1; 0.008;NO
817302115b754949cd77edb7e03ad63764c223ca-4;15626; 0.835;YES
3b3b721ddee119467810fa12297121ba2b2732e2-4;2298; 0.008;NO
05ffe49ae054fd687a06824ef3ae8886241bf7d5-4;8070; 0.835;NO
d0fec7f21d384128674c88d01dc987dd7e6f935a-4;6; 0.008;NO
2bf6aaabe80c762de5f9d451cf24ba1513967585-4;18; 0.835;NO
55c24a2c673ec04df027fff5a72a51022cc1b46f-4;14; 0.008;NO
7507b07cbc9a3ff3946ad2333347ffa07cb0ef0b-4;25; 0.008;NO
c0bd42a3d731a3cc6a585ec2445ddb77eb4794e4-4;1; 0.008;NO
8100a8bf2a8fb082ac3be1a6b6fc16a625398931-4;85; 0.008;NO
aef7981a6117df37a96f320f334f45f942722918-4;19; 0.008;NO
7300ffd106a027695c34ec80735dcf857ab55737-4;20; 0.008;NO
935e0bb55ba9e68a551c8d688cc5a3b0eed18bd2-4;1; 0.008;NO
555ee14df6272b3b7a74a421048005aed70972f6-4;230; 0.008;NO
ebe24d009d42687653f01fde479419af153a1a2d-4;397; 0.008;NO
ebd9acce84e996115f1e6f26d60f7a3cf07071fc-4;12; 0.008;NO
1a55e99ff03a865099a5dc1867ab3112ec2cd996-4;4; 0.008;NO
c24769e1bb6148c5891c67da972d9701a54b7c2e-4;16; 0.008;NO
1c6469040dfd5c953bad8b315e5d0960c51d786c-4;6; 0.008;NO
13b2075fbb7f4356979e509a52debd8a54a2678f-4;5; 0.008;NO
d2e970f44a6d96736e4f15e8bf947cce1ba46b3d-4;2; 0.008;NO
3cf7d2b8b929baa724546d354f95d6b294cbb7bb-4;16; 0.008;NO
82414f47cc6d0ad260deb57b2de1eea772dde088-4;2; 0.008;NO
e8330d94c876fe1397f7fac47af8b9eb5e654591-4;44; 0.008;NO
bbf8d9f2c91abe7ad4aa996a8090cf4bccc46e0f-4;59; 0.008;NO
9df820a18d9f9775cb1358d6990993234b632316-4;64; 0.008;NO
6099065e3b218f380c8207508c4c999ee025d2e9-4;37; 0.008;NO
3fdf0bcced9306bb5aeeff43d14c5800a447448e-4;5; 0.008;NO
baf8235696322f939dda76ef82f8eb02d541e108-4;340; 0.008;NO
b3781b488b99c286bf7c3d2c64ba2bfc32b8af25-4;130; 0.008;NO
535766a6ac2afd391c8009e20027d27bc3966d8c-4;67; 0.008;NO
860fe6ed61bbc8e587a0f88ffa6a1e58d67039eb-4;63; 0.008;NO
e62274a4011a454e167a65353ac7ee609915a453-4;4; 0.008;NO
3216ac70e6aff22ddec7c349db8556c57dad5560-4;2; 0.008;NO
92eacd65d983006a1d96030463980374fce485ec-4;7; 0.008;NO
9da4593b53981644064a9dffc15434ade888e0c4-4;19; 0.008;NO
1fbabc466e19c6713bba789c4502b41a77199dee-4;104; 0.008;NO
5e4d69cb1ef95c2453f5a0d6497c4806fcacaf76-4;95; 0.008;NO
077d283167528953e3ac543758f6191b0f9b2a3e-4;2; 0.008;NO
2a76e23d04fd9c428a3da5ce23722e510d9ad2b7-4;54; 0.008;NO
228a4572d0786b40f5a0e6d47b1755b100af1f80-4;133; 0.008;NO
0e7a059675e367d522eaa4bc752037766cf22d58-4;13; 0.008;NO
19578ba5d2d8a51bf6c9eee3784fa38194a6c77b-4;3; 0.008;NO
d7c8f2806e1c7e3c6556fb56a575878d6d4fef57-4;19; 0.008;NO
d78b75b332f0a42b75246ec35470a32ca5ed4c3e-4;10; 0.008;NO
1385da93c8987cee6ce13d47c655701944fa5538-4;7; 0.008;NO
893434232a24e1e71d73dfda79ae82deeb8bd697-4;42; 0.008;NO
5916c44de598b0b64282829ff51b05871deec5a6-4;5; 0.008;NO
8f6b126aff4997679e83be3218e1d99e10901d21-4;17; 0.008;NO
cd9eb4d1bd2122a1145485d48bbcb3d98ee4f899-4;4; 0.008;NO
12591578a7e246c05e9d96639c97c5ce4547fb6a-4;91; 0.008;NO
6b3c144ec202c35b77c6c3c651d86f1aced8d692-4;6; 0.008;NO
db793a8568f79d87141cf6ca59f1723625d6c1d1-4;2; 0.008;NO
73b2c9a207eb6a725479a4bff6676829cc8c5d11-4;15; 0.008;NO
e2c5d46b8f2a5c686982897736c144a885553399-4;67; 0.008;NO
ec3cc0bc3d729b46cffb837fab687c6a3c4d3ac6-4;109; 0.008;NO
3c1929a2af4ddf029b2bf4a301fe0a1159e744d8-4;205; 0.008;NO
159e5f6da99517c72fe4fd0d74ebf20d0eeb093c-4;40; 0.008;NO
6a6a05f9cc26d1d28ddd225a462be97fccf16bcf-4;172; 0.835;NO
12ebc949075625249186dbab32c9ac5b82933c69-4;22826; 0.835;YES
685d64c45dff6e9f5c14bbe749c559238c771876-4;1457; 0.835;NO
27da9aafee1f94825a5428dae45fea357206cef8-4;2; 0.008;NO
63ca9147f0e2bb408bfc3761fa3decdac831b817-4;18; 0.008;NO
0ad0e38d1244895ad7c2d4b0fa48b8f209ef0cc4-4;3504; 0.835;NO
21b9d890cfe973a367de300bfdcd966564fec042-4;9; 0.008;NO
52cb9df54593bfcc3a2768671b39ffc724b8a3a9-4;89; 0.008;NO
7e1f35523f7a4dc2bbcf821d80e4b2eae3875d4d-4;16; 0.008;NO
0c5fb561888d974ebe7fa7de0a27853583068838-4;6; 0.008;NO
a964a3d9c2e98f09d0ab673b2276407c21c74488-4;55; 0.000;NO
a19700ea88e76950d29a1e3a6377bbb7974350ef-4;19; 0.008;NO
464c444037804d2cc36adf2a15684cf89bab7fa9-4;420; 0.008;NO
