ID;Size;Predicted;Actual
6aa5ee3a9ed1263cc3356bdb9f48551d769a8122-4;10; 0.000;NO
95a4a2fd207d14d4f975dcef7ad4b018d591c5d4-4;227; 0.816;NO
af85cf894ea97235988d361fca44082939ec6346-4;8; 0.000;NO
5664847166ac465e31ee7480564d879835baf20e-4;19; 0.000;NO
150576b3b10245ad7230b070ed74cec39aa02f2c-4;2; 0.000;NO
f3645c2eaa2253605d0496524bec63bf9f8faa5b-4;20; 0.000;NO
b08550049b3b125057ee13504c8719b76eb6576c-4;43; 0.277;NO
58525510aaa8d78b27cf9f489c781dbccd14fe7a-4;6; 0.000;NO
e311cb9b9fd0aad831dbe3fc5819c5b27d6b1bc1-4;192; 0.277;NO
dce1ae493486d8d76c2cca36f9cdcdb66712cbf9-4;623; 0.816;YES
ba13268c92950bb9f4a062a62dfd6a605d039fac-4;103; 0.277;YES
ea18d58d7fc55b4a8b357ade88b8de1e5011b1f8-4;9; 0.000;NO
b70f36d56a9825f3fe973863205f67f8ef09d4ac-4;28; 0.633;NO
41f4eb0f1ec09977dbd7008ce9c1865cb66f0735-4;6; 0.000;NO
9411e347dd46bbc42695d463bec72ecaed0a490a-4;757; 0.816;NO
e537688685986dbc507f5146bc35d347f1c59e7d-4;2; 0.000;NO
4bb39289ca4342361555641bbe1f5273d055bae7-4;10; 0.000;NO
847d5e8c469a64e01135e5ad730f0a2216cfbde3-4;12; 0.000;NO
96af7561d048b526c1ec1cafa07e1896c919ea4f-4;109; 0.277;NO
fe1da76aff5267df83fa4b32f72c8d49ba875765-4;24; 0.000;NO
a2ca6a706c65b2ef744161a0658dd21b1ab44b79-4;4; 0.000;NO
eac424e06c6dda01242169190cc8ddada84fe10a-4;125; 0.277;NO
d977a32a90ef3841dfc0091556b40ef8b37f1285-4;1; 0.000;NO
e18652cce8e86b8715268f0ddccbe2461423d54a-4;96; 0.277;NO
eeb11d5a58e2dc7ebbea9fe66ce6628d2f0c8d9b-4;15; 0.000;NO
16678869ef5e1b6cf0ea6f865f889786582926ec-4;2; 0.000;NO
397ea2aedd8918a3826742997a0b7b473509e19d-4;11; 0.000;NO
0b89ca93277e53e23f6a12d06f20ce0d9f1b743c-4;9; 0.000;NO
abe4de381a26b84a43c5107e5126fb81ff9c4e08-4;7; 0.000;NO
2edb224f0ee2b298c4a31a6cec9df07569588b68-4;12; 0.000;NO
2ac7860c02b2d84a2d8d8b6b8680046ec39801a5-4;2; 0.000;NO
174d26d18d57f524889f908efd5c3e54d5c79367-4;530; 0.816;NO
357c327755acf83dc4b16c3157ef0195822596ed-4;32; 0.277;NO
1749a5d4265554d37c03e20547176268f273b622-4;16; 0.000;NO
65e0d00e4f33fc9f78999fa4fb53517bc4871995-4;19; 0.000;NO
25401f6fac9346ead6f11c7482b72b3926aef816-4;65; 0.277;NO
c9588ffa98edf09c1f2b683424427973d8c84a88-4;302; 0.816;NO
40915009f28775d0a540c61183c451b9a9b36623-4;23; 0.000;NO
57c4b4ca760d3b47f6f334ccac2d3c0eed70bcc9-4;16; 0.000;NO
2b2bbe46954f0f32d7165555683375fb3135ca62-4;23; 0.000;NO
01ceb7248835fad5c15e778d30b850c825285983-4;21; 0.000;NO
3278cf3afab63fc7bc80ed0394422cc4ed29e8b0-4;22; 0.000;NO
85c4c250f3e154f27a7b9f1dbeb308d3e29d12b9-4;704; 0.816;NO
980af39ef22343dc09cd8aa324931d3270554359-4;13; 0.000;NO
47ff48a1800506eeffd0a62bc7d0907586476f79-4;49; 0.277;NO
92aea027245806a5869380c7644e22a680e18522-4;27; 0.633;NO
848a3ddee9d678849cc54308d48232fde2b3f425-4;3; 0.000;NO
b0bb03f33809a2cc6b7ba3da573459351da3e0ab-4;70; 0.277;YES
7d0eb989ccf2bd08b3d20cda1782a1a98cb00fd0-4;141; 0.277;YES
4f46086e7ca1f262a8e09b5d669d69952f1a9248-4;102; 0.277;NO
5ffd95b3c20f62b59648d7c1c5d40fe55cbcbcdc-4;10; 0.000;NO
bbc3ba850ac6dfd3711ce531b4f541f45b55a44b-4;2845; 0.816;NO
b107a60ccf960fe2789d108bf9f6c9c2e69e6d96-4;322; 0.816;NO
b2ffebd298bbbc183595c6130a304e6d196f33b2-4;788; 0.816;NO
6b11569c1d12aa288f1c7df3a3bbaa8b26d096c1-4;408; 0.816;NO
be04baaf928c37ee6b436a630aa392d20a85d236-4;232; 0.816;NO
e58c00e05f764fd4e4a2b3308a5f7b2c5a141025-4;81; 0.277;NO
ecfede06c1a9eadc048782e5b64c87a7531d5a4d-4;24; 0.000;NO
d87cdef490462d664b727ff55176705b049a0c04-4;39; 0.277;NO
09de3df7149b395536f73118e97ba2f004e51064-4;112; 0.277;NO
f348e309c0253d8735c8c629bbbf2bf965af8992-4;287; 0.816;NO
13020522813721619b37c00f5ee7c559fe548d7b-4;181; 0.277;NO
10ec0e0f1e8af7afe863a15f790fb871620de641-4;35; 0.277;NO
ad4d5a41f5378c7166a5cda78c0edff6ebfc55bf-4;109; 0.277;NO
c088d1382efef7e24094ff9842170591d2a7d793-4;22; 0.000;NO
2865a87e7439f2410a5713badaadf56b86114e9f-4;451; 0.816;NO
c7b9b9483f7532bb2b6dc61798644377357b700e-4;10; 0.000;NO
15f8473950d00da819d93cc9f8f82d55795afdd4-4;333; 0.816;NO
9168102483d92b35cb14679a1a471a9037622bf4-4;588; 0.816;NO
3035d1a8df2b413f03aed7bce062415b0f519581-4;4212; 0.816;NO
7a53427f630e4d122d453795288e7fa704fb6b87-4;16; 0.000;NO
d89071cecf349adeaa9197e9ba3a7506b80d9bb1-4;43; 0.277;NO
8f66b0b64f30cc34f29c718f8b67110c4485bbd2-4;18; 0.000;NO
21d240576dab8b854e450bebbd64d3bd519e0bc1-4;63; 0.277;NO
3ec7b59e6fe84d453f621e97bd2c6c5c48919f64-4;13; 0.000;NO
46e2727b688d1eeee85b7bf51843f6b01e98e118-4;35; 0.277;NO
02f6ba21557840cb51204298c42575318c59adf0-4;35; 0.277;NO
46e25e0244b119f1be2f75b9754bd5ce2bec60f9-4;4; 0.000;NO
99431abd03f92390391e2cebc83fac79a999fa48-4;5; 0.000;NO
b58342060031f517d6ba42a64dd3ddf392e820bb-4;37; 0.277;NO
918e40a9dad1f3babe1a2f270319eb3c19761349-4;106; 0.277;NO
24b26b6eac774c070c0fb51a2e0deb755f0e4f5f-4;8; 0.000;NO
ba4bc1f4912eb0b47534e49dc2fb04932ac82218-4;6; 0.000;NO
42af6d21b8ee3ef965624ab3b6220a969a1f22aa-4;300; 0.816;NO
a60df6f14deada8a0c0c36aefcddbc4fec0b39ec-4;41; 0.277;NO
b4a59f786744939fb038f01d7f8933ef1f449ec1-4;5; 0.000;NO
81a74c5729041b1797dc66e52debbb5b9803a022-4;176; 0.277;NO
e16ab8ed38c22a1c38c1028d3d9715208ae0498b-4;3; 0.000;NO
13e64635c0289a6065dbe6e370eca33e7f23bee3-4;108; 0.277;NO
c39dc194054df2a90ccd5f2dd26c2611253ca051-4;117; 0.277;NO
b3709786f866c1f07dd3282b18cc1057cf682e6c-4;72; 0.277;NO
6c4a0cfa9c4ce7f6f11473036d934db37540f2f2-4;42; 0.277;NO
4b73d9f5acc0011e3a62e162cf7271e5e4a3ef4c-4;27; 0.633;NO
2153421d76da3e5f9c2a6ecd74ec3767bd0cf4a9-4;138; 0.277;NO
92d49f3da2448ffae886d18b64c94fe8db6a5ada-4;129; 0.277;NO
2ac590c5aa2adccea6a6869b76fbed1bb2931eaf-4;6; 0.000;NO
551de450f62ee639a2d07cea29b3bc114632e610-4;4; 0.000;NO
3056bba8e7c316249df5e0171d6d8110811dc073-4;19; 0.000;NO
fbb30b6ba1dc4b57bc077d478ecb2e08c476631a-4;18; 0.000;NO
bcaa1b718025bd1b8182397f99ee0a4dad4eda4e-4;320; 0.816;NO
9bff0fa0a32bb023249988a48127cf8943b1facc-4;336; 0.816;NO
b40242af55371ff471a826b44eb1869422ac9bc6-4;19; 0.000;NO
7e17e2120a231d578fff89ab69392b015de55024-4;590; 0.816;NO
a1308c04c5c726ff5be363e5647da22f3b46b2da-4;5; 0.000;NO
9d19bc3b3d13b0fae536f95cbbbdf2918dca1ea2-4;4; 0.000;NO
0c0616826335c7165aa2086b46a2e5e6fa7beca5-4;2; 0.000;NO
1b501720b8205c785ed8a6c07c0e97c505462919-4;27; 0.633;NO
29c5b30ff147f8c096f2bec272d7487d0174881c-4;18; 0.000;NO
7ab7fd70f3c13931756f61e93438e2d5347974b9-4;41; 0.277;NO
27b177628d2eb46b279abddcf6f7b68ad360671c-4;44; 0.277;NO
3be6a099606d0936e82ee859b45b4e52550c07d0-4;80; 0.277;NO
9f1e5759b214aae598b06f71e0172ec606295092-4;40; 0.277;NO
a8c8ff42fe6f366e893dbcddc587e0c726011c66-4;96; 0.277;NO
1caf6efec966dfc9feed834dfbb233ec274f7ed9-4;81; 0.277;NO
6ad34743d7a21d785071b820b3892eabc9e6b766-4;19; 0.000;NO
1263f79f41ae262a5cd3799bec7036dc74e144d3-4;206; 0.816;NO
70c06d36df26825aebbf0d631741c63e4a9dbb87-4;71; 0.277;NO
7629c18105f15d102ef8038625325b882a8f037d-4;179; 0.277;NO
52db4f2d149bd3cc3618a050419dbf3323e44eb6-4;25; 0.000;NO
3d220dce0ce3cbf2464d84ce029f8887cddbd057-4;6; 0.000;NO
82b3ba4fa7b9886d0319ef2121c7b65b9acf8d52-4;51; 0.277;NO
9866f58c78116a0884fb81b4752f70105d11305a-4;23; 0.000;NO
c98e7ecb3b69b534313fe635980b3f00d11095fa-4;19; 0.000;NO
67faa350a1fbad6561c8076618b0b0ac3db66653-4;8; 0.000;NO
10a9a38822b5e4c09a8be8efc0b1cd7e358c013d-4;2; 0.000;NO
eeda002a5058b2a53cfc3e65fef3e963ff11936d-4;11; 0.000;NO
6a256422c68fed720fb4d3ec73fd7fcced9eb8bc-4;17; 0.000;NO
fc725003f59f35046ebcc44c17c0b15e96535a10-4;6; 0.000;NO
83106da6db4a7db397471c05eb305bac5b8584c2-4;93; 0.277;NO
c61f9c1d0c9d2a587c6b1d28b4f235a7d0724fa7-4;6; 0.000;NO
76abdd0a826c8ac2745873ccd71d5305f0bdaeb3-4;2; 0.000;NO
25b2e1be8e0aaec97e092beb7ebb076009cb202a-4;8; 0.000;NO
1fc892515bece739b5ec210547694b980de442cf-4;9; 0.000;NO
5a92d94e7a59713b298a234488152e591cbd595d-4;220; 0.816;NO
48b66780aa837f8650e91482bf541d311167a2a6-4;133; 0.277;NO
c3752bfd49fafcb613e34fd6c93b6e4ae6d89070-4;25; 0.000;NO
20227399a32eb79ed7392b6c2c9a3580bf14f7d2-4;8; 0.000;YES
f4f7c2f41730274024cc5782bda029f5647162ad-4;316; 0.816;NO
99f49a926003e253468eaa78d6d6a44bb91fd014-4;2; 0.000;NO
f8ee5a16e83f55d8a5d23a1a83aaa6e553eda3d0-4;46; 0.277;NO
35769e1948e7d391ebae75d8aa15e568462d6020-4;10; 0.000;NO
891ad59d074990a38d7ba0dca65890e80061158a-4;272; 0.816;NO
e02b39975d1b7e73046551f941672efc059d2208-4;260; 0.816;NO
d953bd0007fd9f543344e2aa2775a91299b3bf62-4;127; 0.277;NO
4478a3164b313f726b801e0e57b9e2ef4dbd0736-4;171; 0.277;NO
c33dab3d8e3bf1982e52c761b14fcfd71095694d-4;11; 0.000;NO
9ad521421f25fa6ed488d8fc3dbcc639fafc88c7-4;2; 0.000;NO
45fa36b42a9960c715c3a288913bda7494125595-4;44; 0.277;NO
69043b6700bb92e33df9d981c025b1aaf7efa5a3-4;49; 0.277;NO
9cc357e6df346f0fd56c23c6993c5ee2175c4c3c-4;42; 0.277;NO
60b37a795f59f7dc1e339184c10ec80b8bc58989-4;128; 0.277;NO
bedd29f3a3a3abd37960576de4a78261dc555015-4;18; 0.000;NO
37570e7f323b005483b9af112d40df482a828bfa-4;107; 0.277;NO
4a8732f5e1d51f43fc1f633bca7d79351aa720c5-4;15; 0.000;NO
3aae9d5a39585797d620387a60aef52f05773022-4;52; 0.277;NO
a265d3249b5e0152b04da090bf925ad73bebc5c7-4;71; 0.277;NO
28291277b4197e791618043ec3cf4f8b07d0fb60-4;744; 0.816;NO
8d28b98ba24b4cb4fbe51cea0f88f8194167df9e-4;20; 0.000;NO
05151b92e2dfa36ee0a3f7a5c1c1a6d7a02c46f7-4;57; 0.277;NO
11d70f172eb48d7a185104e54db5ec44cb068298-4;68; 0.277;NO
b8d06b2559b25cf04cb20dd76e7d58d722463eca-4;116; 0.277;NO
c64318af97c4dccb5ae3f4a9e07d68ba7136f73c-4;1039; 0.816;NO
4d7c52ba9153e6e5049902ae93362532032e9253-4;734; 0.816;NO
67b24e35f97f842bcd8b927240de06a601a0c99c-4;1910; 0.816;NO
e76b1e7e1c8e2ca43f3a4acd013b0b872841f1dd-4;45; 0.277;NO
8a73fcdd2c8d363b38cba1f707cfe7f476758a71-4;734; 0.816;NO
679572aeccf71c08107ac4f85bf1649e0caf6aea-4;734; 0.816;NO
2f0aa033f9e37595ed09992f6f8162d5238172a9-4;102; 0.277;NO
e130ead629f047cc64dd749f119859f5dd28d5f1-4;36; 0.277;NO
4f6f8ac013f630b052ac49b5db9092b473253832-4;438; 0.816;NO
d52b1b7fe423b4f8def7a8772a77452d7fc325ee-4;180; 0.277;NO
107a192bd9b5bc06ca6ab37ae87c489e94e67607-4;17; 0.000;NO
c9931c0dde40871da7e6268d1094a2a674a10d85-5;1; 0.000;NO
e75d696f3874e7ea85ef5dc865ecec85e4e00395-5;129; 0.277;NO
e010b85525de1c3abfad3a8fc6236e8366f85266-5;286; 0.816;NO
8ea532994756c2178365a8aab62f70e4dee87eba-5;67; 0.277;NO
615048528f0d502892ff4470386e3513dda65fe1-5;1; 0.000;NO
1e8892a0f5d1415a2ecffafecb6dd19cf18f8da7-5;9; 0.000;NO
0ccaaa48f715175f3606e4c45bccc1209cd9b8f3-5;84; 0.277;NO
074f59e21783371cef3e59e1d0c2c6dc215e08a2-5;143; 0.277;NO
eb4fd5f374ac809ddef67c9da6ae8404c38ced7d-5;2; 0.000;NO
bfab82e4fb499c11ed76b39d5afc5df68c11bb09-5;61; 0.277;NO
243e433b2575f01aa5d4a77ff311cffaab964f65-5;1; 0.000;NO
de0c0f935d6cbd6c620815bd964be62fdd42fb50-5;25; 0.000;NO
e2ef7fe879797c8f2c4f3057d66adc3c51950ffe-5;3; 0.000;NO
e5cfb69fc14f963693e839e1c6197b53318590c9-5;1; 0.000;NO
1544d9543eb7367ae766df0ab383dcf474dc9a33-5;144; 0.277;NO
e196e7a2d7eb4a371bad5d9cdfbb7b6db966bcf2-5;98; 0.277;NO
c6b9a37642fca102d5504e61bdb48fb119f9bfdb-5;41; 0.277;NO
f114b78d043a32938b40b304ee234313ce98c116-5;65; 0.277;NO
eef5cd77202525d53d3a707c8b4c505aab1e6f35-5;90; 0.277;NO
66f3e054707ed3055265fa87d1d9c550002ce48d-5;5; 0.000;NO
552a38d5976b3d003bd4af2c01ab0bf8c2dd8937-5;574; 0.816;NO
1300afeba973a2abe2281de17def76e909030baf-5;2; 0.000;NO
ec4ceae429964ad84c6406df5c2d11109ec28eda-5;61; 0.277;NO
351809ae898c80ca18d59fecf68a37c1b97a2058-5;118; 0.277;NO
0885117cb58b4828e8ab2702ae44f9bc65a2be71-5;69; 0.277;NO
80cfe0c31dcb5b714929b2635ca6a8f237ec576e-5;111; 0.277;NO
b6f06c8c3a3d2dbedc392225b8898f30048bb38b-5;21; 0.000;NO
662a3102da84db0c64763cdaf685f44ed374ecb8-5;23; 0.000;NO
a0a831f4e3eec5ec04b561a02846c07031f63780-5;6963; 0.816;NO
52a25d615979d962acd69493f26c75659d89da74-5;557; 0.816;NO
17265d49fc1714a75a42f5321ff53452921b4af9-5;19; 0.000;NO
9ffe8af10c0fc460976e9db71d85622349856ab4-5;70; 0.277;NO
73db4c06b239b95f0f7db44e703c7f73adf91b2a-5;8; 0.000;NO
44fd5c6b4353fd6ba5946acca589b5881dd81f60-5;26; 0.633;NO
f879a4dbc5e56da7e8cb4c2f994a082cad89da81-5;12; 0.000;NO
ef50efb61fa3de82667a8699a9c53c4fe32583a4-5;33; 0.277;NO
815167578c623345ed834a18f0bb25895fd92d8c-5;2; 0.000;NO
3d8fed2fad4769ff34b596d5b12b5864060edc61-5;26; 0.633;NO
885df128e2616f9758911b63cf3d5a3caac44474-5;1370; 0.816;NO
c9a38bcf81f36b307b8057b6db2378dbbeb65538-5;3; 0.000;NO
ad4c491c668aa2b6a3a65746b6fc1f9da091b420-5;21; 0.000;NO
de790eb0429cf1171763daa02dc07502a021d213-5;4; 0.000;NO
69d0de98ba22a4fd29fd9373c34971964f34c788-5;27; 0.633;NO
a2000747487e63c915b968a016df1088c211faae-5;13; 0.000;NO
1e1da45e27eb6799657de1f854fb05caf8b5387e-5;2; 0.000;NO
c38dc7208744f1a7388f7471b277add7929e17b3-5;539; 0.816;NO
4af15e21d9305a10e2902ddcd0bcae695e56d3bf-5;41; 0.277;NO
da4b716b8c1dc297e2f67088e42cb0522b8484e1-5;7; 0.000;NO
d6bf9986346a7744a3d85110adcf6949c394262d-5;30; 0.633;NO
e7b1ed119681f0f70b190c88032e08cb8a61e0f9-5;5; 0.000;NO
2671c6826362ea0a2ff7154ffcff1a623916a37f-5;4; 0.000;NO
9e709886f36c2d2eac483e9a02350eb6f509d2fe-5;1; 0.000;NO
b57c6b98f8f7e5e904919d8cb28394044d7675b3-5;621; 0.816;NO
1f1dea53ee57d63f0bce43c8a78fe2f43ca1603f-5;456; 0.816;NO
89a130107fcee4596e0df33fea61241cfcd326e9-5;18; 0.000;NO
8a0db92bc808bfde10fa0ffa78d732083dd01171-5;27; 0.633;NO
07a496501aec68bdd3a58048fd00b72323142ed3-5;39; 0.277;NO
178ed499c60256b45eefec67fffa07df6cd8a930-5;578; 0.816;NO
8d1ec82ba968b6be683acb4b07b59227e88910a5-5;170; 0.277;NO
64e65829fa69dec52d9653087f9d6e65e59b9028-5;16618; 0.816;YES
4e1022e309b5db61188373daf0ae5498a24efd9d-5;42; 0.277;NO
e9e31bb0eea36b9ff64fe2466ab523f727033d65-5;4; 0.000;NO
f07dc9853a376457a771998591158e3a330cf47f-5;96; 0.277;NO
ea49c43e4ab61e16e8064e4aca1d6d411b8643d4-5;80; 0.277;NO
28aa026e4bff36b86f5e68cd954d0f9543cef115-5;25; 0.000;NO
fe5424fdb08cd33fc6909e126545d15220d61326-5;2; 0.000;NO
c91f621eb11a62ac07902cd0b3aded91dec148d2-5;2484; 0.816;NO
f3d7bb48ad3c843f091591641285842ba530078a-5;180; 0.277;NO
eada6c4df440a0a4e007e12f87abdc0cafa9f0a4-5;82; 0.277;NO
504f52d02977f3da15623d2e1547ebedb5e7e59a-5;162; 0.277;NO
88b8f009374c3c1bb3c8e5b363f7cb34da27c1ac-5;2; 0.000;NO
fc5ae197b170d08192cc6ac64146848cc839e528-5;2; 0.000;NO
0a05e0ca44ce1bb0df8eac348268667636c5ec27-5;22; 0.000;NO
67f93f70cab75e498bde7deb5ddbdb997a88f7f2-5;6; 0.000;NO
c785d8266e6c426cfbc61257eb43f8c081a090a5-5;65; 0.277;NO
06d2985c721ccadcc72207b63629b8da5cf8c768-5;192; 0.277;NO
a10a0b5f0ed0f2a085c3ae7f76f3a87ebbdc2e11-5;18; 0.000;NO
51df4f8fb44d67437e7a9ef54cc2fd98c59932c9-5;108; 0.277;NO
e51b662f2f9fe8208d6dd0f57a1ccd80f9e3d87e-5;90; 0.277;NO
28e06fb046af95087a42a92310b130ee5486b354-5;22; 0.000;NO
95a41a10544b7c0ca7a2ce00c42926c00fa163d4-5;2; 0.000;NO
8cc0f1046ec653f395d4614f6fce7961310541e1-5;149; 0.277;NO
0c2e312055c62c08c393adfbe701c867c230e2ed-5;16; 0.000;NO
4b149f9313d533870ec9292c62295a4c3d38f9d4-5;440; 0.816;NO
3ae5b650007dd57fe7829aaa1867713f440ac935-5;25; 0.000;NO
9ead0b3f69dca62cbfebc9da49f3cc4819c93196-5;63; 0.277;NO
e10f663b8c8c94e63777389f88d022f09a43eb5a-5;2; 0.000;NO
df1c4c57fb7e03e5fe4cf1df59818717b7121489-5;51; 0.277;NO
e97e624194b70d2bc7fe30b4acdb9487b1d4fa8a-5;16; 0.000;NO
1d7e818612a7ffe89a01f302abf2367104ce0edb-5;4; 0.000;NO
70380ce1fd7d7f088a7b1a3a573f0ddccaf4123d-5;76; 0.277;NO
5f6238bbbb40993ba6ddda28d909aaaf7d1a9f3d-5;15; 0.000;NO
6ea75b76fffe8d055b79850f42acd62509e2fdf4-5;32; 0.277;NO
34c3207e037de4af179d87d62fa2e6ed4f2824a9-5;49; 0.277;NO
cb8da7a38318521bb6cf2d25483f46273d2c1b39-5;48; 0.277;NO
391c76a72c42bbaeee695645eb434604c6c2aee0-5;435; 0.816;NO
45e5c28d1e27961fc4bb6349080d431732dd969a-5;58; 0.277;NO
4aff6786e2e63607e8a907e5b69b895f1f1c8f1a-5;2; 0.000;NO
1ae3ad90858c74e009d2d60099471bb1e246a0cc-5;2; 0.000;NO
4e447b054f64c7f1a1b815f1f5fd68f3c92b2fed-5;63; 0.277;NO
1d6029cf16fd7c16133377e2ec9a6919bb0f853c-5;23; 0.000;NO
4590d6e7b170d3653af8eed6ad9f319e6ed33985-5;2; 0.000;NO
538c59870c728801ab61a03760f9754640a624f0-5;2; 0.000;NO
e3c45697f48850c3514511a5de213cad05b572dd-5;37; 0.277;NO
879123a5f42d27565f411c02bd873e46c92ee263-5;69; 0.277;NO
