ID;Size;Predicted;Actual
08438d51db849e84db78307ad9b8751397993f77-3;3071; 0.847;NO
2f4619faa12117faffe3c14062bceb45ff665b21-3;44; 0.468;YES
0558afd94ec7883f20361364a513be2c6758d17e-3;2; 0.467;NO
1f2af77496abc0879e09e7adf52ee1b8472736d4-3;40; 0.468;YES
7d9727f031d8c5d0d0aa91455b9de9e8184319d7-3;29; 0.766;YES
5d4e8511c72b3e8b6f7b860406477cce8f748bac-3;16; 0.468;YES
58d355cfa035ae850682efe9019d070d1dae827d-3;8; 0.468;YES
b9274d5107384abe44133d8833b72ec021cb6243-3;160; 0.489;YES
2448f558bfbfb3cfcbe93536b407fede2d0e7468-3;266; 0.489;YES
ed09a6b69dcac0f591f778beda1b696f2fcaf09f-3;416; 0.489;YES
59172d13cf8d69a0cdf825314bd434c56162074c-3;336; 0.479;YES
928d6739bd7489aedf4efb76d43c33d4168315ca-3;36; 0.479;YES
a75c525658758134920e8dadd38c9287951d19b3-3;24; 0.468;YES
c234bd42b2d50a59bdb1bb3e9207519519ad7801-3;1; 0.454;NO
340c8a05f04da63f577b74d60347a5ac75650fcc-3;7; 0.468;NO
423617841a161a2564dbaffe3fcd55f773f62744-3;12; 0.479;YES
a5260d999ff537b85d17b5310bce0f060204c2f3-3;9; 0.590;NO
9fd371ca329e1baee2e4a3b3e8558fd71f216679-3;4; 0.468;YES
421062d61e77f9cee11e21e9a0ee487990e871fb-3;12; 0.468;YES
af9f6865452c7fc3178955aef3e3475c9717dbc6-3;5; 0.468;NO
c8d9b5816c094b90ba2700d7dab52464318867a2-3;14; 0.468;NO
ea4da6200b79a1c62ebc3b9c8fb2e452f3fcb31b-3;6; 0.468;YES
762adc4ad52c13bda023835966bca769f95305ee-3;131; 0.832;YES
ee1a59a3c1b8ca6ab1de0b965ce413852c751461-3;9; 0.468;NO
7de262d1b084ebdc77f28f3824e1623464ff4b08-3;292; 0.474;YES
aa84ab48dd36684f1fc987471af246eb9c9c33ad-3;329; 0.766;YES
d2397b177c96be0454bcc2276037388d9b43dbdd-3;1; 0.454;YES
ce45896b42e1a13f788461439a9cb3b197a4ec27-3;10; 0.494;NO
a8a7c5092359d2adca2232fcc36748b93ff2de7a-3;329; 0.766;NO
9c197fabc257159b8e9abb1225a9908132f09ad2-3;41; 0.479;YES
29541bb7af3a56b5ce61557f094f258633d9655b-3;2; 0.467;YES
ce84f6549fe1e4892ed80272baf53d8375946a4f-3;17; 0.468;YES
1fdab8292b7e0acf2f83adec49ec7b4369a771d7-3;427; 0.832;YES
1c21856c34d4fd24d105cbb06eb80fe05ef4873a-3;27; 0.474;NO
8b4cd29a23eb209b0b1973d1d035bbd248c0c5c1-3;172; 0.489;YES
998778cdf98335caa88ce27226a1779312e958ab-3;126; 0.489;NO
6a49038d774a76e44d97f3c02c08609e8bdfc6ca-3;64; 0.766;YES
3f03b45c4f57765938d88538a3741feb103f804b-3;3; 0.468;NO
a17a3c0bed2a4b38cc5eb8223335753f01b5ad75-3;5; 0.494;NO
207b1e555016d03dcf773a3677eeb538a0187a8d-3;1044; 0.847;YES
f030d33350b514b86dcafe57231c7b893c49ca05-3;368; 0.479;YES
c1fcc22f319ec83407b9d43752836c0b810ae9aa-3;38; 0.468;NO
712191fb5392773d0710ae2087836f39459f30b5-3;438; 0.489;YES
6e1b7e5d8e4077b5fa9df0456a71fa40ad959c0f-3;3; 0.468;NO
5f7bbe467f6b34e2291e7a820783fd29bd82557b-3;720; 0.669;YES
d6b9755fa599b0036210b38d4a36fe97c7fb106c-3;72; 0.766;YES
fd671323313228523c9c04fa60e6e9adb167197a-3;3; 0.468;YES
72954c64209f0eba5eb01cb995e5c6e1eb32ce04-3;32; 0.766;YES
21907ab55f679c6b31f06d41358df3eeebe9629f-3;6; 0.468;NO
085acccad98278fd1187f24be59822f07671e4ad-3;1986; 0.917;YES
9e5e87e8392d483c32ea23c444b81deea0b64d91-3;16; 0.479;YES
0bea9ef47a6efe2ab768b0dd67d249d59c4bf637-3;7; 0.468;NO
3878d00f508d3f03c2bb1350a04e18198e7418c1-3;3; 0.479;NO
21057e3bf3c8eea148b1ec4839b196813e3f5b13-3;2; 0.467;NO
0bec3a1e535904605789c5f66b6f4c53fb0294eb-3;20; 0.479;YES
105207a94a66cd59b0611c539daa361de03ac9f6-3;53; 0.832;YES
cb5b7140331855c2857321a0b40d017e675c0944-3;7; 0.479;NO
f5c146f70738528cf3000c052df8bd499e8cad6d-3;5; 0.479;NO
25437bc825d50715dcc9a289a1b4c8fbbc6aced1-3;25833; 1.000;YES
e0093e6e09eb03d23785502befec066dc008ae24-3;19; 0.766;NO
1d47935e78072239bffc39c9436ade75f8e273b6-3;158; 0.766;NO
d6e2d0cb3a175f395bf576ef8e074a854bf92434-3;798; 0.677;YES
b6b05637e2124152b77917985734bfa9e3305af9-3;2293; 0.865;NO
ddcdad641a90c01eab6471efa623efe36d6c7a51-3;51; 0.494;YES
9d4c8e1b90d0431b446b6573cde131c2c9e86c35-3;8; 0.468;NO
e0dffdcf520475f4a7d24e8ea0b0cf24c29eb6f3-3;26; 0.479;YES
329ff64e9d7295aff108f85e9a8103f5e5f8f398-3;4493; 1.000;YES
ab2ab7d6b02438a81cd1eb54fdedbe7d8222108b-3;1; 0.454;YES
7ab2f64165224219f1b9c864893f7bd9b5856b3f-3;5; 0.468;YES
8ed51d22d7b98c6be6369dc5af062e6ebf1eae08-3;14; 0.468;YES
291c66e79470ce2f42d89f6821b5cd41c646c1b9-3;6; 0.468;YES
f8ce08fbea589999983ef230615c5ef13bf66361-3;4; 0.468;YES
8199e747522a6d9e2824f06f7075e599ca7c01ad-3;12; 0.479;YES
682a326efdf8fecabfe684dbdf656faabcb4bdea-3;25; 0.468;YES
bdab7a0ac93ea7b9f801b42d54d1720c10df7e8d-3;20; 0.468;NO
15a31132847757a5c67b9ff9af3dfb8003395e27-3;25; 0.468;YES
443b6e1d602b68ce74dbeec8230046d670be7d55-3;16; 0.479;NO
1af59b89ee343955baeb885b5cdfdd331c2431e5-3;24; 0.468;YES
ea20d5be7a5b576a8ea3680d98f4450be69d9bd9-3;3244; 0.847;YES
b796daa9f99bc3f660566747a693208c83319517-3;17; 0.468;YES
b4a1cd9b02f383ea93fb207293bb567d6eb12222-3;56; 0.468;NO
6cb57cb3bb602722837f75373cbd5b5cd0ea616c-3;2; 0.467;NO
f2b977b670aefff850597e68d964d33a738ac57d-3;2; 0.467;NO
f3f08f3c3a9a8c0e049a8c37b3d38ef7377f5069-3;3; 0.468;YES
d4778aa03495a1bf056716d53559e2265ae85e69-3;10; 0.468;YES
80de699678cc3b19c3657692c60583a9260b7bd4-3;3; 0.468;NO
4330eef160c9e5e48c89153f7cce90631c8e5c75-3;13; 0.474;YES
1e9b9fdd39d33b33430ef606b4ab4faee9a03ca3-3;9; 0.468;YES
dc37909510ee8fb18e97f5d42d925670b144cb12-3;337; 0.479;YES
f10cc3fc75f450f39ec2f5183e2177dd221b9e2d-3;33; 0.468;NO
a8765eb6a18493ce464caa22998ebe06d9b8cf50-3;33; 0.468;NO
37d3a9764c7da33c96657e83c3978f191ecdf603-3;1402; 0.917;NO
b7f45e64fd7fec3ba29c0876196f7d36f960bb66-3;2; 0.467;YES
90a8c7aed5fa2b715c0be559e414b689e17f8d81-3;4; 0.468;YES
c4fd3dee5c9219b88488c5a9c2736ad84d4c3860-3;2; 0.467;YES
b11775690d5c4741e719fd9bfa4da799e3db52a0-3;818; 0.865;YES
b8bd3f133b29d794833bdcffc1bfd0d41d421066-3;19793; 0.917;YES
6555ac6fc4c79b3c1bfe62f7cdb407d465586eb0-3;100; 0.832;YES
bf560b191a49dd42aee43227ebba16845ff45f76-3;6; 0.479;YES
2860bf1440cb2875a91b5af30662e70ed28368f6-3;64; 0.468;NO
1ad3d39a601acc0f6f1d21de330ac382b2a42b3d-3;134; 0.479;YES
5943b9f1d6f17c0c95ca169ac67b7da379d2bef8-3;23751; 0.917;YES
9b2a1e9c86b6c219c9fbf1e2b6f39315d26e9bc3-3;46; 0.590;YES
21523b7fe722f0500c7107429ed3cee89541c602-3;221; 0.832;YES
9e141ad6b967ceb5ea87266eb1b059afa6af3055-3;246; 0.832;YES
715725e17dcf387e00182aeb216a54f4598b84dd-3;18; 0.468;NO
d36226cac6e3c18202e3195b40a76391855818ba-3;95; 0.479;YES
4c8ab5a7b2b0b82883c951d3c09d7c5232354db8-3;21; 0.607;NO
102d8dfa6e4e8748ecb1fa7f634bf88bd7a466ce-3;270; 0.832;YES
38e7f0a824b87c66cb414ca2bda94b9ecdd54175-3;2; 0.467;NO
8736631610a18ff2fb95bb290c2a14d6c4ada5e7-3;75; 0.479;YES
803c48c49e083d11ded3c45af59caacab98932c2-3;422; 0.479;YES
