ID;Size;Predicted;Actual
a99763cf63446fac33964fbf7ce6244de54e1deb-3;115; 1.000;NO
7d7e303f849f6cbb139f11e1620a9a03d977a3be-3;114; 1.000;YES
b2beaec63446c937b69de2e73d2b7acda96b1549-3;82; 1.000;YES
0819749391cecd16bfae12b78f1b21ae424eb94a-3;7; 0.000;YES
f7770883a4e9f8f002dd2d99287903be577b2dd4-3;31; 1.000;NO
14ba7eed94c2a637b5619838d95d04d0c32ed517-3;3; 0.000;NO
0e7feca04a29f354abc476d55252bab968a87f3f-3;131; 1.000;YES
6bad8ff71558cc7207a7a6098ef14f69a3e19863-3;2; 0.000;NO
9e044de7a7846432d1684a7873a8a434d95f23da-3;8; 1.000;YES
44c97873fbc1677650d6ed7cf21406c26cf61703-3;8; 0.000;YES
b74ad208bde285b8b019c228112f322c186595bd-3;120; 1.000;NO
129360ace992869aefdde406527456c51a550686-3;262; 0.000;YES
0bc9685aa77959c9898853af18789859fb14412f-3;6; 0.000;YES
c816683d08ae06aff267e1909a44e12cf4584d21-3;24; 0.000;YES
0f66458d4c1f410e9c71aa7ccac54c7427f27f8d-3;154; 1.000;YES
30f204251018ca448a4e66c7b3d000fa67c69d85-3;13; 0.000;YES
0df6a69703ffbbdbc2cdc715d09c6969d69bf7a7-3;18; 0.000;YES
640cddad04c525af1122fbf8d6e2fde8a13adfb8-3;25952; 1.000;YES
4ea1c3f7389ec4954561e1b4739eecb988b20899-3;285; 1.000;NO
3885031a892f077661112ee0654a59970ac76191-3;376; 1.000;YES
b4a3a77840af840f9cd2800b717c585a3c135e5e-3;517; 1.000;YES
0806fd5b4409f45f86af4c92a648feaee3990b6d-3;128; 1.000;YES
d86ba0eed3c07ef5ae0d6b1cb71ad1ee26d5980b-3;2; 0.000;NO
af2550bb054bc9ec79aa02d9fa1953765b930da0-3;24; 1.000;YES
840644fcc5332740c9c5f466b968c1cd8afab6b3-3;182; 1.000;YES
bd93bfa284315130c4f9e9a65d091925ffa919f4-3;66; 0.000;YES
31c7a575e76d55b120444962fa999d17fc7e2c06-3;1; 0.000;NO
60a1e54f07a491213603b7881d7ae8615556fd2a-3;352; 1.000;YES
8ece757233957518b2cf30b67f7a9103acf4bced-3;13; 0.018;NO
1c8f82b810845758084831d294b39a10279333fb-3;36; 1.000;NO
c5d82a70d54136f47033d934e822f397f28f20d2-3;3; 0.000;NO
57442b70592e83218b1d9ac78c972364308e20d1-3;20; 1.000;NO
7f998f10f13ea84a66b5da405f0f11a990dca0c8-3;2; 0.000;NO
814637ca6cd89f237450d24469732b86b91b73b5-3;538; 1.000;YES
e541936463b4b6be3ab05ded5b2ed224b4692d6b-3;20; 0.000;NO
80f7795fefebd6776293ad0c51417e0fccdbeadd-3;128; 1.000;YES
db2a53ff2dacb94f9bb2cf2f721994604d73b921-3;17; 0.000;NO
7bd43ff2e045047c103546f546ba024de3b70593-3;21; 1.000;NO
5d18f26c10dcb37624aefb0ed7d51301f89731ea-3;1; 0.000;NO
729c7af474c36b7aa626a1fb0ebba38049dbad96-3;47; 1.000;NO
6fe50aa4337eb318ebbcb13ba84909c1df22dc9b-3;12; 0.000;NO
4754f0921c4ee9b574e0c5c68b1c83854e9dd43d-3;10; 0.000;NO
9e8e265d6ce4c198945b534489f02838870e8ae3-3;245; 1.000;YES
9c25f9bdf555dd57de22e5cbbc9b73cce7c0c000-3;13; 0.000;NO
f023f58562aeebe2ee9c456c06720de782b70116-3;51; 1.000;NO
10bdc61b91d2cf8c98ea72b42343f76865feee72-3;3; 0.000;NO
57f9f3af1da42be60f8d73594d4d1300909a83d9-3;100; 1.000;NO
8167400e51e6148aed5f4bef1c9fb737b659abd3-3;1768; 1.000;YES
1679c05c89203f9d8d0c3f1ea1cfdc64943564a5-3;333; 1.000;YES
fee930886b9c0f3e177d6257d60b158d5f2d9654-3;296; 1.000;YES
f7aef4581483be989ba84eed1ea71ce0f043c17c-3;266; 1.000;YES
df02d831e2dce80e0d00ec0febf0c708f02bacb3-3;32; 1.000;YES
9b61ded11bf1ea63c174e7a2d63fd7e6e5fe1e60-3;35; 0.000;NO
442c1cee4870edc0916191e1872ae8223496e84f-3;267; 1.000;YES
91cc43267670049486cc609091cc07ddb339cef0-3;13; 1.000;NO
ae2d8685e1221f3a8ab8a96cc20f2b2cd2aa208f-3;100; 1.000;NO
68e4f9a85b9f2a2067daaaa3d56dfac522fdb3a2-3;2; 0.000;NO
123fce5b60bd33aebfe864e5c2c781a366302913-3;127; 1.000;NO
eb27482080af614ff7e387b9659e72571f8ce029-3;368; 1.000;NO
229f24547add9fdf5c7414cf98895bf85f83e9d6-3;201; 1.000;YES
fabdf10407d6d4061c51f0b44bdb48819f1d2df3-3;179; 1.000;YES
148519ba2a119cb7926a1fac38890cfae6c778c6-3;1; 0.000;NO
853fb319ba81e2ad589ac6a7ce47b45de0a2749d-3;307; 1.000;YES
b5bab78e043329c97b0ddac1558bd595e5a522aa-3;84; 1.000;YES
d35bc8a306444ed25e7322d023e46c4a1d64e60a-3;2; 0.000;YES
9bfc9cf1905f30a3a80204858ac4f49d5c824d22-3;1007; 1.000;YES
0b90c67a8bb2932037c4311e8afb7d85a6c3902e-3;193; 1.000;YES
69c34cd385cfd06409b8009af5c9a681233d26b1-3;41; 1.000;NO
d2c748d1094f295243c7a3b9efe2b937d8bc9b0b-3;190; 1.000;YES
1af233a0b3b7ad19ed14aa1b0a297269f7905e97-3;3; 0.000;NO
afce8f543abfbcbe81eb87c7ed5e22c1879e44a5-3;266; 1.000;NO
ebe1b5711e4347898cd8e7f4e7a9b7baa18dea26-3;20; 0.000;NO
dc797ab923c30a788dd9af28509791018484b7ac-3;53; 1.000;YES
661f673890c076b8d6532d5f704434bc508a1fe5-3;26; 0.000;NO
560f89510239d75b1a0db97dffcb9cbc21ab9e32-3;108; 1.000;YES
31010aa2ac0c335615d6479f3d7d8e5a728c23b4-3;2; 0.000;NO
7303bcd5d5fee247520eb5d105f5b4a5ab7776f7-3;5; 0.000;YES
4bf637f0747fcbba281b2ad2442475336cea8dfe-3;12; 1.000;YES
5ae6e7594f265d2af44c6f34a0c666b23f956cf4-3;39; 0.000;YES
53f19cbb4ff42fbd87bf1b8082b87af7524c31b2-3;729; 0.000;NO
7db81e3d6cf042ac474a1fe41f7d9c90f2f7dec3-3;94; 1.000;NO
2a95f80f442ecf25a03aef34023cd98756bc1b0d-3;140; 0.000;NO
e20afb3134610518c408ce1870446de4c19689d3-3;78; 0.000;YES
65bd1f02e386c0e8b11fdd444b7b8caabbe8d081-3;10; 0.000;NO
7eb91d0ec9eb7690db32f5f8cedb7f336325d2fa-3;421; 0.000;YES
2d3871b86b89e4c19e9831f1361472d7387bda34-3;40; 1.000;NO
82a62a6b7800f0c218102c62232667390ef1d071-3;10; 1.000;NO
0b8bf2818c3b5fbb1699a3f222eb30de87844638-3;49; 1.000;YES
018cf3278a4f28f012bef3f8942273492404f737-3;3; 0.000;YES
e3f8a96205c51c43a986e804a34846252e8c29a8-3;4; 0.000;NO
372b83736d50dba2a81f947b4bfd8220b8f62ed4-3;22; 0.000;NO
1b446958f5699c2adecb3163ab9ce44b873b2f57-3;12; 1.000;NO
4f102a7c77a321699663e9fba7449725e52d86ba-3;89; 1.000;NO
09e7aab7778db72e6412625f39a9557d6a2646be-3;20; 1.000;YES
8974a099084986706a14419fa3e2298541ee50e1-3;15; 0.000;YES
4efc5d69972193ee57032dce319cf1b42e0d65b1-3;98; 0.000;YES
dfc102beba2406c0a6065e665b710431245673cc-3;136; 1.000;YES
7a2330ce3bcb238be8df2295e13c49b2994cf5ed-3;104; 1.000;NO
db07362e27df097fa707f5007c68ee219efdbb09-3;80; 0.000;NO
e14378f7f32bfbaa59e558b8c29ff42ff3e71c0c-3;200; 1.000;YES
7d0839f9ff14644050133a19edcb61d030432602-3;16; 1.000;NO
d36faee0ab706ab8663b7b6686a23fa1946160bc-3;8224; 1.000;NO
195d5ddd6cad75d5e2786e2b44c0b42e23a7a8b0-3;6; 0.000;NO
02f2cedb734be0d4f9b4b340359544fd7707e477-3;4389; 1.000;YES
a384218429534d2f81e7437ca532d49b3596a60d-3;6; 0.000;NO
7ea424bf0b36d6be115976fa6134877116fc2dee-3;1; 0.000;NO
0a072b8a50dc376cccb5662915e0f9a1b2763c32-3;4; 0.000;NO
a2be03e9cb6e94c488c1475650eaf3ab05da7ee6-3;70; 1.000;NO
859da3f913d8b4f0b142fe872d78847f958f0614-3;25; 0.000;YES
485cfd37ca2e810c0cdc6bc897fe73109bfd5e3c-3;198; 1.000;YES
c13e2baab7aa0c71ad6fafbc9c6527e1393a2894-3;7; 0.000;YES
326df83bb224167f9abc408ac90173666d146d78-3;10; 0.000;YES
d826caf71175811a23214b4e23545aee7625d7ed-3;160; 1.000;YES
3c58b8840cfe65a2cbe4283897c846e18919311e-3;13; 0.000;YES
2e0c5d576c5e210bfb1d0a8d799a20284f971a27-3;2; 0.000;NO
a5dcfc91fa956627c66d3100717c308e3855d6c0-3;1; 0.000;NO
cde63a43060c630a4ec641d127ecccf05bb05384-3;278; 1.000;NO
a11158d51a359bd51af3df5b0e03d7cbb50f93d8-3;21; 0.000;YES
862cd158ed5acee7361881860548c03444d01dd6-3;4; 0.000;YES
11e3835d5fe57c2277fb7b2f563fe5f532e3f21d-3;8; 0.000;NO
2ac1bcccbb4070da2c86bfee4c7368d9466141ca-3;256; 1.000;YES
aeafc39d3d198e90624fa2895918911204caefd6-3;248; 1.000;NO
372e8999818a52181a73befbae0ba0fb7eb9b357-3;258; 1.000;YES
17c6580e4ce21e706513f77586372d9bf257a244-3;2217; 1.000;YES
0273937971eb0769d11e789dc33a222d826e8e8e-3;3; 0.000;NO
24cf4c939e58914168c4e548c25a2c3d977022b7-3;10; 1.000;YES
62358d36d15d4b50d95b4e8726dac4715dba9a25-3;6; 0.000;NO
22f77ef4d21994610bd250e99230555ad56fb4d8-3;8; 1.000;NO
5f76ea2eaff5fb3dd8c4ad5c6ed1d5554f5065a3-3;20; 0.000;YES
74823f7cd073325590ba79e8bc12de02832577ab-3;1; 0.000;NO
2c5377f687d087b94b56bfb5e3b2b5ba4fd3d684-3;2; 0.000;YES
d1d0ef02609b5cc123d1b91fbf1a77087cb7a22d-3;16; 1.000;YES
4a0ea7646bc1dcbd0adb6064c4e9fa1dee408309-3;10; 0.000;YES
81c9a795ca2d6134120a82d73e60493ab48ed787-3;37; 1.000;YES
5dddb15cb39cddfeb8e59002fa6e1be35a5a6a26-3;10; 0.000;NO
95544768f628b62e02947fcbd00d61bd98ec90e6-3;4; 0.000;NO
45d90fd282c670634b8e8eea9debc9167e9b42c8-3;252; 1.000;YES
d88af9faaf114aba1df5d6478164d749f80a8a2d-3;2; 0.000;NO
fd0e25dae6c3e61c043b6063e8bd617a93387946-3;29; 1.000;YES
6b78680b274b6c1109d269f9472f8659d6e65f84-3;2; 0.000;NO
b37a0f0ecf2554f7337df6bdd3f8b4709430277a-3;6; 0.000;NO
7f2613e39414c83c1e9d8e131bd23921e4e8d6ec-3;3; 0.000;YES
4a5e42ff8b34f37099247171de7f29c5e746c95d-3;9; 1.000;YES
e2665ce5dd6e60ba7c2c6e8b4cb310461e87d66c-3;7; 0.000;YES
a40baca27321510f108fade1d09a2c043ec52634-3;27; 0.000;NO
396efa6ae6e2d33623e5b73603440058aa6ca6b5-3;59; 1.000;YES
4f0c54211df547e848b6a7605b2f255563634fda-3;120; 1.000;NO
fa5eb3a7af517f27625cc53ad25dba21b6555466-3;2; 0.000;NO
f0be9e1af1d077653d3a34ebd066a1bd412c9157-3;2; 0.000;NO
bb7bf5940928786ce650ef9e3f6c0fb4c84d57ce-3;29; 1.000;NO
ef67680a55f3b38643c9e485b0736d3066cd2eb4-3;4; 0.000;NO
c7128669c7e1f439f45c62d07b58e8add38343d2-3;24; 1.000;YES
d58ba3b25be046a2963d362b5addb4b104592212-3;4; 0.000;NO
3edddc612523ccb3e54a3fee8b9431d5cef45b3c-3;32; 1.000;YES
97b23ebb90401a82d1d010f1286bb162ab74d4ac-3;14; 0.000;NO
a6e07e50409f33e648a85095869174eb16db9c17-3;10; 0.000;NO
49857ff1e88ee3d62af4cd3a692dad039eec5037-3;32; 0.000;YES
8303c814194e3b4ff0b8a045216a4cd43e74fb90-3;92; 1.000;YES
218a000b84a4a8c6b74bb9de4dc604d720c04f66-3;49; 1.000;YES
b7c7a47aac588b33749bf29b2113ba4dafb1755b-3;118; 1.000;YES
430d90f05f3bb1512cb07b632e629cd0fdab15b1-3;22; 0.000;YES
3dd1c4316503194058d260ebc5fe6753e50949bc-3;32; 0.000;NO
6eae1a37ae235f06f0ec729519a19101d3e7cd95-3;2; 0.000;NO
6055a34b4215b472dce012d28ead7a2a7c6f8f19-3;35; 1.000;YES
9851f6274855162bc6dd6e95cd06adf782c5e1a2-3;11; 1.000;NO
c6121be5837579a4e311380b34f90ebc9066fe2a-3;1; 0.000;NO
9549416b5f2352773eff80ed462eecbee8a19ccf-3;2; 0.000;YES
799fc69719837bf717d5bbe391dcdbe7d0ffada5-3;17; 1.000;YES
05073135390b204c9433d94abce9120b00489816-3;8; 0.000;YES
64fe22b628ede17101f0f36f5b6c04d8e5e5de80-3;3; 0.000;NO
61c87ac3a12bdfc19cdb00406c756af04ec46062-3;7; 0.000;YES
663fbe62e3bb6da5942464b9c524cbef7e2d186e-3;122; 1.000;YES
f5e4742f17b9926075f2867b47e6eafb3089f60a-3;3; 0.000;NO
2013fb55b79f43abade103b3f854e0a9573b1227-3;4; 0.000;NO
3e6410b75de317b93eb0fbefa0e40d408999ea7e-3;92; 1.000;YES
942599e797a96bf78a1f416d7069ad2d7d417099-3;25; 1.000;NO
04e07ebd0ba7d110d7e0ac6b101f507f71e7433a-3;61; 1.000;NO
4bbf599c45d74f9b0cd6d9dd9901bcfd0259e2f1-3;176; 1.000;YES
056ecf52fdf1ec47bba26ed8b1a8026c1d568687-3;19; 1.000;YES
a255da6f654abbe8e70783a0b492bf64656cc2a1-3;236; 1.000;YES
4611bf9e43f0782f13216ea14f763e4e5c39a86e-3;84; 1.000;YES
6cb121e192041b65410fa2af968921c908b14d14-3;34; 1.000;NO
6c4a0dd4afdd5d18d52419924759a99618a5ff1a-3;64; 1.000;NO
8264feb2d63bbdd6a681cdc634ba781be7af0fac-3;3; 0.000;NO
89f0148fb31b9ece4d57a11872c0ed110a67eef4-3;2; 0.000;YES
2508046403febefacc2ce5ac7e51605c22601021-3;2; 0.000;NO
fdabcf6f03f4d31b5ca088050f334c218b9ca058-3;2; 0.000;YES
414a5d474ded76552c2da2e70be0702a7efc426c-3;3; 0.000;NO
8b6406724b5a9cd55a911eb5df394dd7b21bb18d-3;139; 1.000;YES
aecff50b27d17904a7b9cb6de00df032f01425dd-3;1303; 1.000;YES
fee371db063db7e4eb1172603b4bd0b07a115c1d-3;2; 0.000;YES
25988d27930732c5a23930a753c0a81aab28f8b3-3;4; 0.000;NO
d98ca1d91d3487601eb27fd7d14f0b52732f72ba-3;6; 0.000;YES
264356a23f3044a9e67d76aa47cd437dacdf5276-3;265; 1.000;YES
3db7e32a564cf92a88e5a16d7fee6aeebd62e98a-3;14; 1.000;YES
87b5ae1f4fdb4eec9040b0f1dee729c3507ea683-3;4; 0.000;NO
f48441c17a1b21f54e2ec62d3529ba748a62d9ef-3;2; 0.000;YES
d823825a34b49a2a01be0f6609aa2f8aa1683d39-3;40; 1.000;YES
847b33aa6eaba2ea1f8ccd1009baccea79b08f22-3;9; 0.000;NO
53614b371f55034b142374263fe640eb75181f07-3;6; 0.000;YES
4e85c5eb84746ed18b23230fc7aae81bd635b4d8-3;6; 0.000;YES
597930f15a699dc1411fb8372e865cd1938dbb6e-3;158; 1.000;YES
d6dbadaa3cc643b201ca478885e3bde9d77543ed-3;233; 1.000;YES
dfca20d46580f52ae2c4f75f450e1c30d96e0cb4-3;16; 1.000;YES
148d8f8df2969cc4a57347f3128c682f2491c1b4-3;10; 1.000;YES
74589c8ae1859472b711ff924599e66cd9eb7da6-3;38; 1.000;YES
0ffb985316140a49fb1e0c868e97f57d7f6c9ace-3;5; 0.000;NO
6dff15b02f9dfad0424932d6940ec69ecf33b98c-3;3; 0.000;NO
600d949140636d03582c919c963bd58a2d27e824-3;24; 1.000;YES
9dcdd3a35d12192efff07ca0eef80578ca7659c9-3;4; 0.000;NO
d85fbdee04a52287feddf4bb628b0d48d16a2bc2-3;3; 0.000;YES
7b91f912736827bfa84787a725889889a5ba90f7-3;84; 1.000;YES
db174a951274655dd18c63ad7d36a75124949e01-3;2; 0.000;YES
770abf1aa83527c77a1ed984246d55376f68533e-3;15; 1.000;YES
e54b0c19086fdbc764e6ea67c86251021bf11b8e-3;5803; 1.000;YES
db25f08565e48ea639e9c7dcf5feb6905efc5d30-3;2; 0.000;NO
4a03860c2f4dab8a169bf6968e23d91795d42f55-3;22; 1.000;YES
ee33aa7af3ed765aee95e38773b042c1e5194fbe-3;12; 1.000;YES
87dc2aad7c2a8f11639dc0b4f875137728b93a65-3;27; 1.000;NO
b8710bea03a9354dbbb6bed2a23a50d6d4dd46c9-3;2570; 1.000;YES
eb9a626945d62e44112259e777f54db833063682-3;6; 0.000;NO
dbcdfb9ff98a38845ce0e89daf3a6b848e682281-3;4; 0.000;YES
970f6476220315a836c71641d2b262b6e7b959a3-3;4092; 1.000;YES
ca45e3292a7520b58bf31adf2b4ac099ce6416d6-3;2; 0.000;YES
