ID;Size;Predicted;Actual
d83e19e1dc7cc2fae827892dc0ed9e7ad6107ee2-4;2386; 0.640;YES
a53bf4c24350784c87b3fff03393b2763d37ce96-4;7352; 0.520;YES
d4d85f0674ceef648927fc4d1b97034fc96e21c0-4;10; 0.530;YES
18292d4d79110ab776cc094b4d0d590a29af8d80-4;84; 0.780;NO
3c2f204cb75b62ab0cd202f898558123637d45bf-4;26; 0.470;NO
0d1daf623f9820887028ec0a7bafbfff06ed08ec-4;160; 0.530;NO
4413aa15a5302356a758ad2d86342fd45279bacb-4;6; 0.380;NO
736849a94f57af87400eddf6b66f00fa3a6a8e1e-4;27; 0.400;NO
7034ad3dc106fca67755d39a28039d6168699295-4;192; 0.260;YES
900f75b3cf84ce63ce9be678ab945b76344ea956-4;117; 0.380;NO
09f60acd6ba474bfeed068f10d966938f806ff77-4;482; 0.590;YES
97b01de1192a55d895c319cef2535867a4ec588e-4;2; 0.480;NO
0da3229c29d5948c3a48631b83a2484dc349a974-4;91; 0.260;NO
d5de45b05ceb2ed210ab510938f0619d3c5d2337-4;63; 0.210;NO
03e2a3ab68f35e70967659b248709612b3a09a87-4;42; 0.810;YES
898c10ed8e9f04a7d919df1f8900779b5f5af725-4;12; 0.540;NO
3b52047c68e2dbb94ddb0e94c7fc6c3b80512cd7-4;133; 0.130;NO
a01e82da9c25999ee7f3421bac9d2c13a5c0f696-4;31; 0.330;YES
4861d93f7ae5c084603fcd0fccc73054620a7093-4;20; 0.620;YES
d3b8773888202a69c6df43a7783cc7faed667aeb-4;16; 0.480;NO
813b46a3e6198f1cf346370bbfb7078aeac53305-4;15; 0.450;YES
605ec8d6c0cfab3683fd962e42fbcd39b4b53db9-4;44; 0.110;NO
9322e5c34a7ee23599f1bcdee28411f9f9cd904a-4;3; 0.300;NO
720bc5b1e76bc150e30a41789ae5ca529a03725e-4;105; 0.690;NO
5ddbf5215649893e677a8b2938e811d0b97bf4be-4;9; 0.210;NO
87e707234c37276e5b5e51c075d04d35b8e316cc-4;550; 0.560;YES
32b6fe75c94f7d016c9a101e63d179a656d3ea14-4;1031; 0.500;NO
4ea404d310f53d8bd9a3342d568108f6f1111a9a-4;98; 0.740;YES
48c6f80d5cb49715256d1e192c0ab13fcea3d245-4;7; 0.710;NO
c96066c15fe3544b71d4a7e27d11695d38499104-4;33; 0.530;NO
deddc77062722283a69ab1beb64172bb5be1a07a-4;9; 0.500;NO
58579533900b04b23b9fda1e484994b076bf11a1-4;102; 0.330;NO
b9903cbb7440f919d96de5ceffe5d13037e7a707-4;476; 0.330;YES
2a22818dc416bffd7178ccbe1283db14749e156c-4;10; 0.500;NO
45de30b9ac58303ca2a675baa9c06e32bd9be178-4;118; 0.830;YES
2c7aeaccc3fa471f54aad62f0fc4dd455ca0179f-4;19; 0.610;NO
6f90b620f4cec4036258133ba2b3a47e3f207ef9-4;3; 0.580;NO
86e4234b3de0f4b36f40d9be909169880600e1e3-4;9; 0.420;YES
95fe018230b23aac426282b12fbf8d6b9b048b75-4;2; 0.670;NO
910fad9a0c17d465f7a7e23b6063095bbda3e310-4;93; 0.570;NO
180da1951d21bab0cd8ae892c7a86838a1e45711-4;11; 0.660;NO
44da73542614f9a853ff1e57efc8be9e2558761d-4;50; 0.870;NO
41f6548417f398ee9777a8127467bb220a8051eb-4;12; 0.630;NO
21a55f9e4236ccf30d1e5dd3810bc91f4bfc856c-4;4; 0.330;NO
70e65808b556c329f13cf2826c51c0f1d19de21c-4;131; 0.660;YES
7d31aa4806315267f4f0e3b149fc954e58029262-4;37; 0.490;YES
b8dcc83c32cfbd7c0c92e5341f3572d9dea85567-4;140; 0.330;YES
c2c4435546670b6010205f82418caac7297a3e23-4;56; 0.440;YES
216f71a0e3dce3bb238e3b33b6998c2d0b810d6c-4;20; 0.590;NO
4809298fa7d52ae2d690de8d783eb804b428841f-4;250; 0.590;NO
ac2923c95cc44babc64ff53ede3fb2c65f5ea996-4;157; 0.240;NO
a055cd3df1490c97b41f31ab35dd18de6f44451a-4;126; 0.620;NO
8404b22733da9eed0769c4ed4967990ea6611e7d-4;50; 0.830;NO
68d53aee4983a6df581eae7d5e70dbfbd5556861-4;4; 0.500;NO
81c29e1257a9154fe2bfaf51f846c1de8cde0fb1-4;9; 0.550;NO
0a1d0288f6df1144cf8ebf2a288cc4cda51e3e5a-4;24; 0.530;NO
2782e591b7d5b12051755753f8468110336263f1-4;12; 0.210;NO
f6c6648b2183fda371d930b372fdd7f0022a5783-4;2; 0.480;NO
f0721a07d2b15df249a1e60ec15fdbd2aab053c6-4;375; 0.790;YES
4d142a2beccdbabb242f5faa6dd210b10803b1af-4;1444; 0.920;YES
8ecc4ecc20d23685c8e2a835b855bfb60fdf5bf7-4;364; 0.770;YES
fe3713faf7154ba21a460fd0624b1ed2a2694547-4;18; 0.240;NO
c42536762c07e1c05ea67eeebfa525d441f0eeef-4;4; 0.190;NO
c380d44a02b738bfe3af61e1badb862102946de8-4;230; 0.870;NO
e69f3107612a419a499fe61c55c00ccafa309614-4;5; 0.420;NO
a0d6e1c3e89346d090bf4f6e426b9bdad2d60f9e-4;5; 0.520;NO
f52882c8db0bccb18e9b1ccaea7ac2824f10c423-4;204; 0.420;YES
dbc5d989894f52c4e3ca571ee6c9363c84796761-4;3598; 0.830;YES
7ad6d44494059c5e1a11f145ce45df8c58160de7-4;21; 0.450;YES
b35cc139f0d8126a3581c507196046c4f03923bf-4;842; 0.760;YES
76b778b88e693f70fac39c8a8ef5d5d5fd62e8b6-4;2; 0.310;NO
011ba4a3e4990077c468f122a9575018a9f09965-4;132; 0.780;YES
d8350a62445e0266533949e81da5f1a51dc00f32-4;19; 0.210;YES
85c9a087134f6f56105f21caac1fec4dffdbdbbd-4;205; 0.590;NO
1a6d9e0b85f566c49d488d90314afcc7be05c5da-4;205; 0.520;YES
fe1cbdb8a780f78bf6e249e3d41d8de4cce22777-4;1457; 0.840;YES
30102c08501c25704eb0e03c392c487b5e92b8d0-4;91; 0.840;YES
f9fd6fc8c5e408ff210a82557b7a9a8a786ccff4-4;4; 0.530;NO
088509a86a16eb2ce8036992375a51eab77178a0-4;10; 0.710;NO
1e8b383a86e0b2fb000bd08cc72d044c84e24d2a-4;884; 0.300;YES
1871de0d5117eef81fa724099b3b33733b1767ef-4;80; 0.400;YES
c201315df7f48a4c268f60d66ffecec66cffd856-4;7; 0.240;YES
630d34d8a26640406ebbaf811c1bf6bec62de169-4;80; 0.620;NO
5f2c1ce06597827d24428bc2479a6e79990d854b-4;108; 0.840;YES
91ff3d69b863559dd3af91d0400aee08467f2092-4;16; 0.600;NO
7234f27b033dea0d4575292dde4664c0e7297036-4;12; 0.570;NO
a344e91b126c4923eadd3d2b0024d681e8570f70-4;30101; 0.730;YES
b853dea8f27f295dc535f190d9c95255bfa2f635-4;23; 0.730;YES
a20fd18aa78bc4a385a0fb3ded48ed6f2e0143e2-4;5; 0.300;NO
2436d8a7656bd0d99007a59a2b219b80f9960dd4-4;6; 0.710;NO
7bcbdf3bb60ef8932bf90935c2d53349fdf11d14-4;5; 0.680;YES
404c17dcd4357950a5707595df5446891786eaf8-4;297; 0.860;YES
61ba52287c8d36e99ff0a0ab22a1bffe116cdd0d-4;5; 0.630;NO
bd91d29be3a1f51ebad2e618cd5848d98059f777-4;6; 0.440;YES
da0e38aee411e9bcfa6d0c73811c41e11efc64bf-4;950; 0.850;YES
50567244c0879ba624b70bb06be0db48e8b43900-4;26; 0.600;NO
8f84b0db27ba46ce5a4048435c2e3609b4476cf9-4;52; 0.460;NO
5ab5d469ecd08acc31a68965248699f9e73d1766-4;550; 0.760;YES
a92d7368ee693ca0c9b7518c2a735ab4318523e4-4;8; 0.690;YES
1fa9984f40a0b6d2b8bc94dab775a234c2fc029c-4;22; 0.290;NO
0963af8c38efae6f28df2ec77623d47b97018a97-4;4; 0.690;YES
a74ffb4bd042bfb8edefb3e539b92dcd0589a2e0-4;6; 0.630;YES
c33a0a69945a04a3cdcc430c2415a8d4dde1fdf0-4;18; 0.390;NO
f5dbd7ef472ebd8278059cfca171667b66b2d64c-4;74; 0.530;NO
df7282ea915040d1a0b942ea9196dbec1567c708-4;142; 0.260;NO
4c8fcd41d700f5189d2b7a2900c7745a9b097753-4;1; 0.240;YES
4aa5c0ff4082adfb77073c08f0cddff0a89d2e1b-4;19; 0.630;YES
94a3e9d3e0b4228bc3e370f90d4c8b26e8073fd9-4;18; 0.600;NO
d6bea62aa99a21a133524bc48fd138e93e7f62c0-4;14; 0.470;YES
ba373f4b9b54023b1a0f70c065a1e6f153b432ba-4;1937; 0.850;YES
461b8cad6760b694bf561ad295db0474c06daed6-4;179; 0.220;YES
d85f0070fc18312f0aeaf6ee23c89ad0b68dd182-4;15280; 0.530;NO
f3c0cdf6f1d482127323eb6b505fe1ca0ed500f1-4;16786; 0.860;YES
0a5206672f3cfb554f83ac6356d6e48988cbd237-4;55; 0.340;YES
3e93cf6e12cbe10f16b3c98357c5fc36e8a3e345-4;414; 0.400;YES
3410805be6d70625771dd6683f558f0044efb39a-4;17; 0.480;NO
b633025863a1040d71d3834696aeb5856a8da58b-4;7; 0.650;NO
0dd8e35383d50ea57edb1112217473cf6b0e9f7b-4;41; 0.520;YES
d0e58803b1baba4d423c9054a28b12bb3b78ded8-4;240; 0.760;YES
21c61b77e0216a6a5d4f97cd5ab4793433b47066-4;1441; 0.920;YES
949fe96882fe0250b69bd220288f22aa6407fee4-4;16; 0.700;YES
6e92b10d74de7c8acd9803e6488c13673ceadd40-4;8; 0.320;NO
9018a2fd309658a4b2fa10078a9efb463060da1b-4;69; 0.580;YES
45cfe67e1f048be5163bfb10e21b345483ee8c59-4;42; 0.180;NO
1d3fdff5bd662c118ce4fd95fd12a1d41c25f494-4;211; 0.570;NO
87ec8808ec5d20749e15d91d91b2b006706b04ad-4;2; 0.620;NO
0a2270640b1b91915902b60d46cb3dd421218eda-4;200; 0.270;YES
f15d072783f7cfe756cffe2a49dbf3c29fb44d8a-4;1066; 0.750;YES
697360cf3bb8b76eca97705634d5008c230175d8-4;122; 0.550;NO
23029410f441649e2502ca2c015270ee9b3192ed-4;243; 0.220;NO
fed24c803a9c901f3fdc680c136230326a166580-4;142; 0.650;YES
824b28fb1d89582accecae5618a8b3738308acfb-4;117; 0.510;YES
0750553ff5d011165ad897b0fbca1083981dd109-4;6; 0.380;NO
2dcded22b669381688a5cb8f24eed9d36265010f-4;234; 0.250;YES
463b3709e65f2a09a5d4fd5859c026b41090c69e-4;268; 0.520;NO
a450d63581f6ceb70997065c81eb94d9243d4be7-4;117; 0.660;YES
2dfa3fe2e626ae8cc26b519531b8281e2ed7055d-4;3; 0.200;NO
17d2181481eab3a02b03ce6d2aa40233b748eb48-4;29; 0.590;YES
1c8fada68fda89dbdb7cf3e4f33205330813a47c-4;25; 0.510;YES
014bfd8e935b09f42440fd5427cdf9db25dfe865-4;1598; 0.520;YES
0df8bd588820ae8a61f4a45a583f9c6692adf066-4;239; 0.640;YES
05194376a430592ddabb2657431ecc4442c3ab45-4;2; 0.260;NO
152538f397d36c66110f452ef80853f27ee6d41f-4;7; 0.620;NO
7716732e8afc23f3f0b93744c159179b051d7930-4;134; 0.310;NO
1b10add0a86ff6d65f424a900a762d3fe1fcd9c2-4;234; 0.880;YES
830188137102934906d99fe20f01dd14313e8ce5-4;2; 0.610;YES
f7c11832b921852bd2450b3c1a18c70b6e725252-4;3; 0.510;NO
e34a577698e195c576d168480dafcc524e41fa24-4;2; 0.620;YES
5c6e95a122f69ae7eb556b6dad08c79402d28f92-4;31; 0.300;NO
cd633e9ec729c628f38ac4c3021f6223e68d81bb-4;16; 0.560;YES
6914ef1fd32597442c8a4dff89a3675c82932084-4;183; 0.490;NO
a16002f9be0a06da956eb548d70a3fcd1adeab89-4;23255; 0.730;YES
0f533c4a72b6224f4e01f4bbef996b5579c9fd50-4;41; 0.560;YES
2f71b0fca0c47b53c24e185d0770f2baabddd425-4;50; 0.670;YES
8b315bb26734da7defd315353a756cb67b848d35-4;286; 0.610;NO
29302ff81b4874e2ed09341cd334599d5541b9e6-4;10; 0.380;YES
c929dbece35ec72da8e85c66ead28fa32e788ec4-4;57; 0.760;YES
4113e82ebabd5fc2b65fe73d7f64c1837b27ce51-4;23; 0.730;YES
0c4e91133e5012cd480d5fa2115bcef4ce0635dd-4;7; 0.660;YES
94d2a3eddd2080cf3960cd269f9793bf7b39c927-4;5; 0.650;YES
9e69268085a1ce5dd34a9639594e44948bae87cd-4;7; 0.360;NO
7df7f79a8a05a64b6f70d64202f628bce21f8d42-4;30; 0.570;YES
09d52f0d2c4eee01a29dd068cbc31415db9d9c83-4;20; 0.650;YES
806b7385b193bf83d89c375155d2ae0a8edbf796-4;54; 0.710;YES
6082eebc95fa16798f92936dbc6143da9618d203-4;1; 0.540;NO
865436044bceebaae348747dedbc126e2b22eb5d-4;238; 0.830;YES
dcdd849a1fc5678d8b8b9799ec357627cba8e5ed-4;2; 0.260;NO
c8ba232edc8ad28edb70395ea7b33cba90bd08a0-4;13; 0.360;NO
bd73b54ba9b366918d9c073817187eecf946b8d5-4;5; 0.670;NO
2fd665f29233dbd9072e79756749403b1bd53b6f-4;3; 0.620;YES
0fb17bbed6930f3ec110bf87d5cd4f3b91e2bbc2-4;104; 0.590;YES
01238260de081423705f65442687af75720acca6-4;34; 0.800;YES
674031a9e2e891c99ca1818b46a52684f465ff09-4;18; 0.500;YES
0c9f366b5b3707dd0ccbc3f06024a5e1d7d9fa99-4;1; 0.620;NO
d9e6b243ba15f3cdf329e35fedd5a018f37bd2c1-4;107; 0.500;YES
5871150cac2a3a93dbcd9f9721771d6128c6d3ae-4;67; 0.670;YES
3ceea332088f4ccf7a3767b1d0e7879c27adcca0-4;47; 0.660;YES
c2774f9db2ae2c5fdf339ac6ec4e40d35dea24bf-4;173; 0.820;YES
d3f6382a66d8fc169a647abbf6a9c6c48622fb8f-4;68; 0.730;YES
ea9bd9848638d827b3d02d7d3fd6a2bf32f35a4b-4;46; 0.710;YES
cd4872a455d6f799b225287fe2c3ae5dbbd5e2ff-4;45; 0.820;YES
02d148e6a2b96549996d597e0eb2f940785100d3-4;4; 0.670;NO
920348d3988ce13bc43763d801894e7f8fc200e1-4;2; 0.560;YES
45da8d73421052402add532d083991d4103d5753-4;368; 0.570;YES
a942be4d82ef71abf6b287c7d5d958982f7fbb2a-4;11; 0.460;NO
1422bd4f2f5291143fc6781599e6de8aad3490a1-4;104; 0.700;YES
c6f23017bb9ba3b6f26ddde179ab9bee321373c6-4;336; 0.440;NO
f3208542ff40aa6dad13abf6a4eff85661ba89bb-4;868; 0.520;YES
145643e40c13ba84128c94df4904d45d7ac866ef-4;312; 0.780;YES
254678ecbf185f32e99a9aa11d30b2f4c5a925ec-4;38; 0.360;NO
7db4a1119ade3a1e882602c2fc2b689da2497ae7-4;439; 0.920;YES
0806aca81168bbf1c64f57d15d9fd46d7b4fd56c-4;4; 0.390;NO
6acca39fe427c3a92eb35adbd990e343ce32708f-4;1054; 0.760;NO
919041601b94608602cc19cb161f168c76547835-4;123; 0.940;YES
1a6ea93220643c862ba3520a78e1cf001a7c9439-4;430; 0.830;YES
3fa4391236139560dce2288ba0b0dc034954221a-4;2; 0.350;NO
db54dfbaa9bd04f23745cf93b3ee4a56d0817cf7-4;267; 0.570;NO
a6cb2c7292734b59868687bb8928582f0aa296ec-4;44; 0.530;NO
acd902b4b5aa605cf3aae20280c63db54510abbd-4;74; 0.530;NO
7709e6f12ec687188b420aceed3caa4d86201af4-5;2; 0.280;NO
19c49dee096d829c2e5cc38f42c358130a772e63-5;174; 0.650;YES
5327e63656c959149c864da2d74a4c973e9ff523-5;14; 0.410;NO
386fe21c50c2d5fd0d54adf85910b0ceefbf9958-5;1319; 0.660;YES
b4f77cd6a5ea505670a16d619717688e4f0ea43b-5;23; 0.380;NO
bd1a4199a986f882e1aadc212be929b3d4484b1b-5;176; 0.570;NO
0269fb662e844aa90ec659288fde3cd86643e6e4-5;5893; 0.610;NO
b1f26965fd674c21cbbe5d7fa121d95d43c2aa39-5;942; 0.670;YES
a84c0f4f8c03c371ab77b82d4eaa82b9fd7ca27f-5;6; 0.150;NO
d5ad6dfd84dd49a997cf6f5b5f60da673f8f24df-5;246; 0.250;NO
5cb4a98f1d536c30e105ddcee59a7fa07dd524bf-5;2; 0.240;NO
b0c9d97574c1e0e4d226dd5790924c26b6b2f9bf-5;5094; 0.470;YES
45dd4acdb87e52a1078b771c116b339b2fe775bb-5;245; 0.290;NO
23ac63080d7337781f8dc24ee9391e85bf0c3a3d-5;28; 0.260;YES
fd19e27856105247b669d52a492bfc0ab2beec28-5;244; 0.880;NO
dea98703539c212fbb2ac0db304e107f48d237ac-5;255; 0.890;YES
f202e75d542a2ceec4855e2b6352193ac9ce0662-5;9; 0.490;NO
07c72937724f42424bfba7c9a1958bf4b5de59d8-5;44; 0.460;NO
3f76865366ebfdb26f10165cad7ac1dce8412994-5;33; 0.390;NO
dd8e8ec9c2f3fa6fd53fa9403aa10ebb7617968f-5;21; 0.540;NO
a9cae342e274eda27e659fd02e7d307c8ba65fc2-5;4026; 0.530;YES
dbc3a3c0c6d19b953a866b771bf65fe74886f178-5;22; 0.720;YES
d21619cf28c4c194c9807e5a305d6a813eb67e84-5;180; 0.570;YES
400cf393e1a7758d7e08093fcb62bfbd1e8881a3-5;1397; 0.700;NO
d28d3908b39629e81ed9ee617c878853a2a26ac4-5;56; 0.540;YES
7108f2c3d4b269a4ef40c54f80c27b7d8c4f89f9-5;966; 0.550;YES
44d51e7682548e25a7079cb7aceea6b88fbfbdc1-5;366; 0.420;NO
802fd7ee4c24d193437cde54396574263fa3ca8c-5;763; 0.550;YES
a6f8751897a6b3ffec7b2166b4faa0398d9f1c07-5;34; 0.210;YES
7f42616db97eee3890f07188272b8d028839ebec-5;32; 0.780;YES
3430d8e2d64d41a5cd51e66eb2d8d263270d04aa-5;37; 0.760;NO
3454246c968cb55b81c020de77b8eb34f51a249b-5;15; 0.340;YES
9d452e51c35b973a797aa2132998eb5cb29eb146-5;129; 0.230;NO
0a873b00d7c7494d38c449ad4106abd8f5d38348-5;5; 0.530;NO
8d4732ea2190dd8ddc7869fc263ba4c592c97d86-5;52; 0.650;NO
69e2032f10cffc877f8183454ad01bce92fae774-5;35; 0.170;NO
a4cf90b0fab93c20e76055352e6a063120996da4-5;492; 0.570;NO
331073e6e3ae084a036eebf0ec4ea843cdc99c7c-5;46; 0.480;YES
10b646a6052400c3b81aba6f7f45bba22f7cd658-5;130; 0.520;NO
54cbda4084b2baa62b647dac48261d80d1bea7d8-5;17; 0.250;NO
b65b6919fec268075f9f664e043b7e755804935c-5;17; 0.140;NO
f95d7c4a2d91a0bad8701ad56b1328859751a448-5;130; 0.700;NO
f0e4111a46b538c8a5b785c9b2577993f9153b46-5;46; 0.290;YES
b34234b5d93acc8c840ed412712069a549e2a86d-5;35; 0.500;NO
83cf9b595ce30e1379290356870dbba33144c8d8-5;492; 0.590;NO
c0c24c9412a1a9b95049d2bc534f6c2ad1d80c4b-5;291; 0.720;NO
96d3d4c8fb1cfb8277af4356fa083ce516917385-5;229; 0.340;NO
b3b5ebbe8ba5ac5870b826dbf282eefa5a8dc6e4-5;236; 0.610;NO
25b255d0fa0129dec105e4e2e867cf26b6af53bb-5;80; 0.380;NO
732f8c2d6f3e2d26de0e98ae7b01159be25245b6-5;37; 0.160;NO
51166ac18a7f450828b0467e72406e575c98c439-5;158; 0.490;NO
5b0299abeef865d74ebf827bedd0a26f4d6d8ab1-5;70; 0.540;NO
2a8dee1b13f1e974224a0c0313c5d7c9f30766a6-5;508; 0.590;NO
08b3fc94f70d5f10cc7682ce198dcb8761706878-5;121; 0.260;NO
93d7a8b0e385c703a175a99bc7795c9cb541d355-5;590; 0.530;NO
6bbe2170a2328d8eca09150acf9a3d3f316fc3c5-5;73; 0.340;NO
435251360a7dfe116aedf94df7f4b9aa4a5b60cc-5;45; 0.420;NO
e997fa8d551e46afad33777ee486464f9e4885e9-5;12; 0.190;NO
5d470c5145ff633acfb18967948249c5db4b5952-5;2; 0.330;NO
910e7a4269782e8131134b73d4d569761c5fa4a2-5;30; 0.500;NO
5f33ba9578ff693241e17a0c51d7c9cb589aded1-5;27; 0.440;NO
0ccd6e225d96f96c86cf85a766a3a43ab4b05648-5;5; 0.210;NO
a698b71cdbb3aaa28e3376b61187371b1cb9218c-5;833; 0.270;NO
cdfdea83ed40ed28ef63c4d911ac64c78e6ade69-5;44; 0.530;NO
74af48dc49657935034032976805ab48ca13c1ed-5;2; 0.270;NO
ac6e526370a8e860123a97fced2019ebb28146ce-5;100; 0.620;NO
bb6cd9d51e60923887d732146b131617ad3df6cd-5;17; 0.170;NO
e102b63d04272bad22feba9a5bda9145c3273070-5;44; 0.290;NO
8417094a3f0c28fef298d57db5616854458b7a8b-5;450; 0.500;YES
fbeb3752a902f5cbf225dd9fa4c6f00dbcbc3a68-5;450; 0.830;NO
c7e74dd9091e4c06aaee83bda9d6915f3d080455-5;15; 0.480;YES
9a1cb6dad682005e7ceca369f743a637a8fd9912-5;264; 0.240;NO
373803f6b9c34475b7b92a8aa02f36ce3d1f41a7-5;1128; 0.780;YES
96104c64d2e8c984ec53cc2864b142b377d07f61-5;15; 0.640;NO
373d8fc7bbcb2f586d6f07c93f2ad6c0ec260cbd-5;5; 0.600;NO
704a2ec4214dddc85517b66811f22e7fa9cb38a8-5;12; 0.450;NO
bdcaf36532af136ba0ba15e513abc2c3e6e5285c-5;2; 0.240;NO
22bc5c3d65f45621a36c052ccb0d53aff5aa4c36-5;7; 0.710;NO
a7e0979a56f05501e5465daf045d653a99977333-5;69; 0.730;NO
f04d8a5bdde4c141f6d8ad04149e8c757fedf49a-5;752; 0.600;YES
b32e4e24efed5adfb9cbfe89c020fdce4c9e6999-5;128; 0.140;NO
d8b43ab738b5602bdda79337057da6b0996273ca-5;30; 0.300;YES
4ab2cb705532e8bf26dde6977fb65e16a3f64588-5;4; 0.640;NO
4c2cbcd6394d39f9f90d29d10c2c8126e2f6b773-5;521; 0.580;YES
b6584aa4ff42b04827fe2c19e2879bd09efe8d58-5;2; 0.690;YES
319ee053ffa4ac3db1969b6597bec9f20286e094-5;17; 0.330;NO
2406d2ff92e8893894ac849366620a0002a5b9cc-5;1667; 0.550;YES
63a45cc51536c9498b6cf72f6dc6937a4b9ac4d6-5;7; 0.480;NO
420b04a1b5b764bf2418207b232e47d3cf61f8ec-5;2; 0.420;NO
2953f88c1973e0e621b00f14f6d43b82ad25372a-5;91; 0.640;YES
7c32802a739e5930b06a6de1619110ca1df087d6-5;66; 0.140;NO
c6f426f3b9519d896f8f4a80d92335b7c8efdf06-5;2; 0.350;NO
939ccc98d866a00c3246880a6206d61e38debf1b-5;648; 0.910;YES
73867d2a2cd5288545a2a45919712ac731bf1eff-5;2; 0.650;NO
3d055e45326e083ee025888e6497124cfd0860e4-5;202; 0.270;NO
fe614e3b3721ed13d7e9b3bdcfa85e1b2f364a1e-5;101; 0.270;NO
62a0792205c1e77b6ea4d126c8943ed9f9fd2d50-5;10; 0.260;NO
afa3485ac26b7d33afc215f3a8eba984a5b2a486-5;120; 0.260;NO
b6356941a047f4d8dffbe314e6bff3900574c3cb-5;26; 0.530;NO
91c8efb24178ad4923d25bdc276635d33d589ff1-5;135; 0.760;YES
06a41e8beb398df3bdb85247a39734e4d0790970-5;26; 0.220;NO
7a02ca5248d19129cfe4086f57a5212051272f88-5;1152; 0.500;YES
f2a61c95c3a13151ed03dd53ef802a1aa6e44c6b-5;4; 0.580;NO
f98d1258b3594fac76b2beb40c9af30e8920019b-5;66; 0.810;YES
afa039a04f876d448427f3da6b443fbdb94226bc-5;7; 0.510;NO
6431dd50333cce065260e19d4a47a335c775ea1f-5;30; 0.680;NO
f3a204a91166839f014f563c1ee47a820952cf02-5;39; 0.770;YES
cd9fd453bd479531ac3cec401fdc6e25a74209c8-5;889; 0.590;YES
3a07c0d1d6f665ae0d5b308fa8a3342d2bf4b1c2-5;502; 0.790;YES
386fc2f8dc103ae078c98e3fe5bcdfb7842f27de-5;332; 0.200;NO
19964fcbc1656b825d07c80190a85323ffd0bbe7-5;629; 0.340;NO
c62e7915339bf8800eeb06db3c9a3409293467f6-5;2033; 0.530;YES
e3b6ec5d8cb56787068398e0a9a489d81970077b-5;119; 0.730;NO
96ddb06d18b64d7ac5356eeecb7e325924f8b694-5;22; 0.270;YES
d7742b5c2cd6b8aa0c2a12c105c9dcac81401d3a-5;34; 0.650;NO
79096c8c072d8b378a989e2ac33513507de9b5a2-5;17; 0.710;NO
613206be5872b25118b5476ceb5f4dda3edd0a6b-5;293; 0.500;YES
cbd4b306577e57075b47f8825e8fc46b3966ddf4-5;8; 0.470;NO
a4fd313c939484dcf157effcfa12cfeb02c264e1-5;7; 0.360;NO
e740fe7e419af37f17e22bc7eddf48bc5f4d7f88-5;2; 0.640;NO
fd11cefe66a91cf5f7359736dfd961413a055b2c-5;313; 0.310;NO
b910f137906ddd5dc2297d650f959e731d6828b5-5;1; 0.290;NO
3de95a81342b12b59463d10c7b184a54c8677aec-5;8; 0.340;NO
5fd9c10b439c33fcd3a15ec101f903abbeeb5ab0-5;7; 0.420;YES
b1688f4ea79f1002e3bea3e249f0319c43adb8d1-5;341; 0.790;YES
e3e59cf9466860c76b919d07bbcbd97d0139c5f7-5;7; 0.460;NO
2cb9842b32bf215c4557001893f22fd0397c65a8-5;1; 0.520;NO
9ebd8a5bd4dd60e5983cfa998fea1c78fdb87401-5;689; 0.770;YES
5166c20dc239cbe479429082b5e8b60cc4536922-5;514; 0.660;YES
ee8b71a4f8b50fa7a9982664e54c45a5dfe6706e-5;471; 0.840;NO
fb1f58f00a835848665e18021babd4010956c5f3-5;814; 0.780;YES
993cbc54697eb01cf0685ceb066c16988ac3396e-5;1281; 0.590;YES
74e4bdcd985592b1bc786151ce16467dfdc7e471-5;79; 0.590;YES
7446a80fca85b828d8da46ef2c085626670bf302-5;177; 0.240;YES
637a0b2ee76aeafd31e278ba0d259e34477fe748-5;60; 0.660;YES
389e40e6f2778b0ab8baeb1361adba75b9a37bcf-5;89; 0.870;YES
e0f8aff2f4fd2fdccb626a37fd96eb5e36b93107-5;13; 0.520;YES
88cd0e14d9c8b981da2424aec1f205acc37b2782-5;3; 0.580;YES
205e035f834266257e383d17bd80d83abcc1fe2a-5;197; 0.820;YES
a09ed43cc8ed5862996e684b924f3405e09734c3-5;3828; 0.880;YES
88933cb8878a555c0f4e003bc32cc0133b47241e-5;19094; 0.590;NO
529a47e659c636a700d9d405bd9b5c750ce18e0a-5;227; 0.260;NO
7f4b58e6a0d93de091ff14efc07bb49f42294b81-5;2; 0.440;NO
063b356109978a25197721cbb16c07a5c2efd338-5;160; 0.680;YES
5af0b7353c19fcf20f9ca803dc72854a2266e4a6-5;227; 0.100;NO
b56f731ad9d5d4b4b21f953dbd1103662b3d0b06-5;16; 0.500;NO
9dfd114d53794c8875889bee547711ad38e4aceb-5;62; 0.360;YES
72b302e7c6ce04f700dfc8f52a17599dd2268eb8-5;6195; 0.610;YES
6498fc705816a435f8a9a5f2fdd60816b19beb90-5;2; 0.200;NO
ff0c01cc78c6b46fba7edabf6b5ab07380c6ca0b-5;23; 0.470;NO
575c39e8336bbc2803599414935f1ecf413c4633-5;492; 0.790;YES
88bd4b814b7d9ba395c59493d47292a1b4d15dcd-5;6; 0.300;NO
9b99bf71e6f2ee38cb1a18cf6100923149393172-5;21; 0.630;NO
dd2ed172b017cae24354bb0b7be9bd1f44249f3d-5;6; 0.440;NO
