ID;Size;Predicted;Actual
f322f4c1249df2156303110e49aa7c43911d6ffa-3;14; 0.769;NO
c5f0d0919e7fd36a1a773006d38253e4bb308a27-3;1; 0.167;NO
29c5b5284d40055781b561e9d761a7c82f5209e4-3;114; 0.833;NO
cc9a94f7156027930963fae50a773da7e4900c12-3;104; 0.167;NO
78ac6373f6251d8c78e6bbf6a0a85747f85d6461-3;10; 0.769;NO
1588c38e20098a1f728ebd160d240fd1c032c701-3;28; 0.769;YES
8a80ee560caeff41560e9dad911a07a62340a368-3;884; 0.833;YES
d9575ae398a28c8145b44a0d0d351e9da92ad9f3-3;60; 0.769;NO
f6f9d4fe18590bfd8b03e5e87b75af9a18ee059e-3;36; 0.769;NO
2a77cf379166e9c2e5144d9cafa37a2146563a36-3;31; 0.769;NO
2ba3c7ecbcc8a7528f917f201301c9b326c8d0d4-3;7; 0.769;NO
e678e3213d0cb212b31a673a17d1fcf6cd6bc1d3-3;19; 0.769;NO
922fb5fa6b4109c1ed4786d51aef02c6cd8b2b9a-3;8; 0.769;NO
215473a9dc41eb90a5dd832ade20b6099444bbc6-3;3; 0.769;NO
9758d20ddc6c45fd3ab40904a95324e304abf03e-3;146; 0.833;YES
ce6ac916c9fca1ff6362dd99c380256ac180caab-3;18; 0.769;YES
0fa61dcd25ed972580a3dd8d25b84f7a17273147-3;19; 0.769;NO
8dbb649b95194c9d5b55cbac8b52b6cc4208506a-3;6; 0.769;NO
d3a32863c56f6e7080bc62797b9a46a23d1e84b0-3;7; 0.769;NO
442972752663e2c3ed855e757feae8183e3644c1-3;9; 0.769;NO
411c8806daf4812fd19709162a17f7b2a7b1ecd6-3;25; 0.769;NO
a93976f529de57b2457b9daffaeaf4fd21bb4ba7-3;13; 0.769;NO
d966d3531faee373ed15f9768052fdf19c7150b9-3;36; 0.769;NO
418284d1f54cfd621ed8b86b7aec3bb2adbf7af0-3;17; 0.769;NO
16f436c96c9d2517c0fe2c025aaa13e6cdfd2c93-3;9; 0.769;NO
b8a131fa0ee7ee02dfe2df20efe5d2e741e5c0c8-3;7; 0.769;NO
de1c077b8bd44808de203ed90ca572fe904d3a00-3;10; 0.769;NO
820841c347f686317217f79ea040cb329730c680-3;24; 0.769;NO
741c575948bba334b546f0cae324de23dc2c4aed-3;45; 0.769;NO
f807af0ee947affd34d84b334bbdc32c11576b2e-3;13; 0.769;NO
16669e3404af089f19ea3c7227523efa67f84410-3;29; 0.769;NO
7789252dcac009d0d0000ecde339bbda318acadf-3;18; 0.769;NO
8b7a1d436b9fe8682b6f93872f7b8ff943b30c4a-3;141; 0.833;YES
6397cdecef04b977d90c8638fdc1064870cd6a6b-3;1; 0.769;NO
e167f836e62ef2e0cb0c853ee6a1f1219825c20b-3;49; 0.769;NO
073a36a4e54d6541923bb47f682088cb9838ae4b-3;99; 0.769;YES
32d2989e2fbc64cba3ac4eea29046f9babc1414e-3;31; 0.769;NO
de1a3536a9a92d9d4af33f89abaefbe3dd85de31-3;13; 0.769;NO
59ec6ce2fcb68ec2cefdc0e52edd84196abe77d0-3;28; 0.769;YES
b6bcbd9db2c10ba2358da965a65f91939ec69deb-3;180; 0.833;YES
dd352d27c1b955103b2be76f2d5bca88f3b8e48b-3;8; 0.769;NO
2699cf47e222d61b5c4f5ab0757c63199e3fd62a-3;16; 0.769;YES
816eb2675a0c9bbdcfcb0bba139cbad0a7a5d35b-3;313; 0.833;YES
d806c4d505445bd764541a5061963c5e99088390-3;148; 0.833;NO
e11ead4e079a326bc22be640894b46cd6131037d-3;2; 0.769;NO
2a6d72672029eda0fa94547c0febf84b57a6bc6c-3;77; 0.769;YES
2e25dc0d756327e90cfbfca1b27e440b4a2e8b21-3;1; 0.769;NO
006831e911d0583045379830ffd77ec58ffb351d-3;181; 0.833;YES
7d67ade82b0022851d5f8c6d6811328b200d10f6-3;4; 0.769;NO
a77cf075e846390fc25768b1cc8c59a56c2ab9e3-3;59; 0.769;NO
8757a3561c632770595199a5930e02177bd172c1-3;217; 0.833;NO
e77e233f0e74edc6271a5dad2c8b1a7fe22925e2-3;190; 0.833;YES
a9fb61439bf092318680fde1dad4e9d91aea96af-3;252; 0.833;YES
aefe614e7c4846b173e102e1e99af03dc9d35e01-3;40; 0.769;YES
235e80743cc75d3812c1fa59deb35df4a4c2af6e-3;2; 0.769;NO
717833ad539511dc9c48eb488ce88c4337b05651-3;192; 0.833;YES
